#########################################################################
#  Republican Spain Postwar Decisions
#########################################################################
SPR_liberal_welfare_decisions_category = {
	
	SPR_agrarian_fund_decision = {
			
		icon = generic_army_support
		
		visible = {
		}
		
		cost = 75
		
		fire_only_once = yes
		
		ai_will_do = {
			factor = 1
		}
			
		complete_effect = {
			add_ideas = SPR_agrarian_fund
		}
	}
	SPR_war_rations_decision = {
			
		icon = generic_army_support
		
		visible = {
		}
		
		cost = 100
		
		fire_only_once = yes
		
		ai_will_do = {
			factor = 1
		}
			
		complete_effect = {
			add_ideas = SPR_war_rations
		}
	}
	SPR_modern_labor_laws_decision = {
			
		icon = generic_army_support
		
		visible = {
		}
		
		cost = 75
		
		fire_only_once = yes
		
		ai_will_do = {
			factor = 1
		}
			
		complete_effect = {
			add_ideas = SPR_modern_labor_laws
		}
	}
	SPR_standardized_legislation_decision = {
			
		icon = generic_army_support
		
		visible = {
		}
		
		cost = 75
		
		fire_only_once = yes
		
		ai_will_do = {
			factor = 1
		}
			
		complete_effect = {
			add_ideas = SPR_standardized_legislation
		}
	}
}

SPR_attracting_investors_decisions_category = {
	SPR_increase_ties_with_investors_1 = {

		icon = generic_industry

		visible = {
			
		}

		days_remove = 20
		
		remove_effect = {
			add_offsite_building = { type = industrial_complex level = 1 }
		}
	
		fire_only_once = yes
		cost = 50
	
		ai_will_do = {
			factor = 1
		}
	}
	SPR_increase_ties_with_investors_2 = {

		icon = generic_industry

		visible = {
		}

		days_remove = 20
		
		remove_effect = {
			add_offsite_building = { type = industrial_complex level = 1 }
		}
	
		fire_only_once = yes
		cost = 100
	
		ai_will_do = {
			factor = 1
		}
	}
	SPR_increase_ties_with_investors_3 = {

		icon = generic_industry

		visible = {
			#has_completed_focus =SPR_Consolidate_Civilian_Investors
		}

		days_remove = 20
		
		remove_effect = {
			add_offsite_building = { type = industrial_complex level = 1 }
		}
	
		fire_only_once = yes
		cost = 150
	
		ai_will_do = {
			factor = 1
		}
	}
	SPR_increase_ties_with_investors_4 = {

		icon = generic_industry

		visible = {
			#has_completed_focus =SPR_Consolidate_Civilian_Investors
		}

		days_remove = 20
		
		remove_effect = {
			add_offsite_building = { type = industrial_complex level = 1 }
		}
	
		fire_only_once = yes
		cost = 200
	
		ai_will_do = {
			factor = 1
		}
	}
}
