SS_Staat_Decisions = {
	SS_Staat_south_states = {
		icon = ger_reichskommissariats

		allowed = {
			original_tag = SSB
		}

		visible = {
			GER = {
				owns_state = 20
				owns_state = 32
				owns_state = 21
			}
		}

		cost = 50

		ai_will_do = {
			factor = 10
		}

		complete_effect = {
			GER = { country_event = { id = DH_Germany_RK.12 } }
		}
	}
}