version="0.4"
tags={
	"Alternative History"
	"Translation"
	"Ideologies"
	"Utilities"
}
name="Darkest Hour"
supported_version="1.8.1"
path="mod/Darkest-Hour-HOI4/"
replace_path="common/abilities"
replace_path="common/aces"
replace_path="common/ai_equipment"
replace_path="common/ai_focuses"
replace_path="common/ai_peace"
replace_path="common/ai_strategy"
replace_path="common/ai_strategy_plans"
replace_path="common/ai_templates"
replace_path="common/autonomous_states"
replace_path="common/bookmarks"
replace_path="common/countries"
replace_path="common/decisions"
replace_path="common/decisions/categories"
replace_path="common/ideas"
replace_path="common/ideologies"
replace_path="common/modifiers"
replace_path="common/national_focus"
replace_path="common/on_actions"
replace_path="common/scripted_effects"
replace_path="common/scripted_localisation"
replace_path="common/scripted_triggers"
replace_path="common/technologies"
replace_path="common/technology_sharing"
replace_path="common/units"
replace_path="common/units/equipment"
replace_path="common/units/names_divisions"
replace_path="common/units/names_ships"
replace_path="common/units/names"
replace_path="events"
replace_path="history/countries"
replace_path="history/units"
replace_path="history/states"
replace_path="gfx/loadingscreens"
replace_path="gfx/flags"
replace_path="map/strategicregions"
replace_path="map/supplyareas"

picture="thumbnail.png"
remote_file_id="1319090515"