﻿# Division template historical names system. Is a new method of naming the divisions based on the names-group assigned to it's template.
# If we run out of all historical names, the names will be assigned in the old way.
#
# Each group has a made up tag. Use it if you want to append more, or replace existing names with the extra txt files (modding).
#
# for_countries - lists all countries that can use it. If empty, or entire tag is missing, all countries in the world can use it.
#
# can_use - is a trigger that locks/unlocks the group under specific circumstances. The trigger is in a country scope.
#
# division_types - is a list of tokens to corresponding unit types. A player can in fact use any group of names for a div.template
#                  however this tag is a helper for an automated choice (for AI, or if the group must switch on it's own, because
#                  for example the current one is no longer available due to the can_use trigger saying so).
#                  In automated choice, the division template must have at least 1 of the following types for it to be chosen.
#
# fallback_name - Is going to be used if we run out of the scripted historical names. If you want to use the old division naming
#                 mechanics to be used for fallbacks, then just skip this option.
#
# unordered - It's a list of historical division names that did not have a number. Regardless if such names happened in history or not
#             this option is available here mainly for a mods.
#
# ordered - Is a list of all historical names. 
#           Numbers must start from 1 and up. 
#           Numbers can't repeat in one scope.
#           If you script the name for this group, at the same number (for example in a mod in another file), the name will be override.
#           All arguments between the brackets must be separated by spaces. Each argument is wrapped in "quotas".
#           1st argument = The name. It must contain either: 
#                          %d (for decimal number placement)
#                          %s (for string number placement - ROMAN numbers like XIV).
#           2nd argument is optional = A localizable text describing this historical division. The text will be visible in the tooltip
#                                      where you choose the historical division name.
#           3rd argument is optional = An URL preferably pointing to the WIKI. It's a future feature that is not currently working in
#                                      the current game version.
MAN_INF_01 = 
{
	name = "Infantry Division"

	for_countries = { MAN }

	can_use = { always = yes }

	division_types = { "infantry" }

	# Number reservation system will tie to another group.
	#link_numbering_with = { MAN_INF_01 }

	fallback_name = "%d Man'chu Bubing Shi"

	# Names with numbers (only one number per entry). 
	# It's okay to have gaps in numbering.
	ordered =
	{
		1 = { "%d Fang'tien Bubing Shi" }			# Starting with what is what is currently in JAP OOBs
		2 = { "%d Fang'tien Bubing Shi" }
		3 = { "%d Fang'tien Bubing Shi" }
		4 = { "%d Fang'tien Bubing Shi" }
		5 = { "%d Qiqihar Bubing Shi" }			
		6 = { "%d Qiqihar Bubing Shi" }			
		7 = { "%d Harbin Bubing Shi" }			
		8 = { "%d Harbin Bubing Shi" }			
		9 = { "%d Harbin Bubing Shi" }			
		10 = { "%d Dalian Bubing Shi" }			
		11 = { "%d Dalian Bubing Shi" }			
		12 = { "%d Dalian Bubing Shi" }			
		13 = { "%d Mukden Bubing Shi" }			
		14 = { "%d Mukden Bubing Shi" }			
		15 = { "%d Mukden Bubing Shi" }			
		16 = { "%d Hsinking Bubing Shi" }			
		17 = { "%d Hsinking Bubing Shi" }			
		18 = { "%d Hsinking Bubing Shi" }			
		19 = { "%d Hsinking Bubing Shi" }			
		20 = { "%d Fang'tien Bubing Shi" }			
		21 = { "%d Fang'tien Bubing Shi" }			
		22 = { "%d Fang'tien Bubing Shi" }			
		23 = { "%d Qiqihar Bubing Shi" }			
		24 = { "%d Qiqihar Bubing Shi" }			
		25 = { "%d Harbin Bubing Shi" }			
		26 = { "%d Harbin Bubing Shi" }			
		27 = { "%d Harbin Bubing Shi" }			
		28 = { "%d Dalian Bubing Shi" }			
		29 = { "%d Dalian Bubing Shi" }			
		30 = { "%d Dalian Bubing Shi" }			
	}
}

MAN_CAV_01 = 
{
	name = "Cavalry Division"

	for_countries = { MAN }

	can_use = { always = yes }

	division_types = { "cavalry" }

	# Number reservation system will tie to another group.
	#link_numbering_with = { MAN_INF_01 }

	fallback_name = "%d Man'chu Qibing Shi"

	# Names with numbers (only one number per entry). 
	# It's okay to have gaps in numbering.
	ordered =
	{
		1 = { "%d Man'chu Qibing Shi" }
		2 = { "%d Man'chu Qibing Shi" }
		3 = { "%d Man'chu Qibing Shi" }
		4 = { "%d Man'chu Qibing Shi" }
		5 = { "%d Man'chu Qibing Shi" }
		6 = { "%d Man'chu Qibing Shi" }
		7 = { "%d Man'chu Qibing Shi" }
		8 = { "%d Man'chu Qibing Shi" }
		9 = { "%d Man'chu Qibing Shi" }
		10 = { "%d Man'chu Qibing Shi" }
		11 = { "%d Man'chu Qibing Shi" }
		12 = { "%d Man'chu Qibing Shi" }
		13 = { "%d Man'chu Qibing Shi" }
		14 = { "%d Man'chu Qibing Shi" }
		15 = { "%d Man'chu Qibing Shi" }
	}
}

MAN_MOT_01 = 
{
	name = "Motor Division"

	for_countries = { MAN }

	can_use = { always = yes }

	division_types = { "motorized" }

	# Number reservation system will tie to another group.
	link_numbering_with = { MAN_INF_01 }

	fallback_name = "%d Man'chu Jidonghua Shi"

	# Names with numbers (only one number per entry). 
	# It's okay to have gaps in numbering.
	ordered =
	{
		1 = { "%d Man'chu Jidonghua Shi" }		
		2 = { "%d Man'chu Jidonghua Shi" }		
		3 = { "%d Man'chu Jidonghua Shi" }		
		4 = { "%d Man'chu Jidonghua Shi" }		
		5 = { "%d Man'chu Jidonghua Shi" }		
		6 = { "%d Man'chu Jidonghua Shi" }		
		7 = { "%d Man'chu Jidonghua Shi" }		
		8 = { "%d Man'chu Jidonghua Shi" }		
		9 = { "%d Man'chu Jidonghua Shi" }		
		10 = { "%d Man'chu Jidonghua Shi" }		
		11 = { "%d Man'chu Jidonghua Shi" }		
		12 = { "%d Man'chu Jidonghua Shi" }		
		13 = { "%d Man'chu Jidonghua Shi" }		
		14 = { "%d Man'chu Jidonghua Shi" }		
		15 = { "%d Man'chu Jidonghua Shi" }		
	}
}

MAN_MEC_01 = 
{
	name = "Mechanized Division"

	for_countries = { MAN }

	can_use = { always = yes }

	division_types = { "mechanized" }

	# Number reservation system will tie to another group.
	link_numbering_with = { MAN_INF_01 }

	fallback_name = "%d Man'chu Jixiehua Shi"

	# Names with numbers (only one number per entry). 
	# It's okay to have gaps in numbering.
	ordered =
	{
		1 = { "%d Man'chu Jixiehua Shi" }				
		2 = { "%d Man'chu Jixiehua Shi" }		
		3 = { "%d Man'chu Jixiehua Shi" }		
		4 = { "%d Man'chu Jixiehua Shi" }		
		5 = { "%d Man'chu Jixiehua Shi" }		
		6 = { "%d Man'chu Jixiehua Shi" }		
		7 = { "%d Man'chu Jixiehua Shi" }		
		8 = { "%d Man'chu Jixiehua Shi" }		
		9 = { "%d Man'chu Jixiehua Shi" }		
		10 = { "%d Man'chu Jixiehua Shi" }		
		11 = { "%d Man'chu Jixiehua Shi" }		
		12 = { "%d Man'chu Jixiehua Shi" }		
		13 = { "%d Man'chu Jixiehua Shi" }		
		14 = { "%d Man'chu Jixiehua Shi" }		
		15 = { "%d Man'chu Jixiehua Shi" }		
	}
}

MAN_ARM_01 = 
{
	name = "Tank Division"

	for_countries = { MAN }

	can_use = { always = yes }

	division_types = { "light_armor" "medium_armor" "heavy_armor" }

	# Number reservation system will tie to another group.
	#link_numbering_with = { MAN_INF_01 }

	fallback_name = "%d Man'chu Zhuangjia Shi"

	# Names with numbers (only one number per entry). 
	# It's okay to have gaps in numbering.
	ordered =
	{
		1 = { "%d Man'chu Zhuangjia Shi" }
		2 = { "%d Man'chu Zhuangjia Shi" }
		3 = { "%d Man'chu Zhuangjia Shi" }
		4 = { "%d Man'chu Zhuangjia Shi" }
		5 = { "%d Man'chu Zhuangjia Shi" }
		6 = { "%d Man'chu Zhuangjia Shi" }
		7 = { "%d Man'chu Zhuangjia Shi" }
		8 = { "%d Man'chu Zhuangjia Shi" }
		9 = { "%d Man'chu Zhuangjia Shi" }
		10 = { "%d Man'chu Zhuangjia Shi" }
		11 = { "%d Man'chu Zhuangjia Shi" }
		12 = { "%d Man'chu Zhuangjia Shi" }
		13 = { "%d Man'chu Zhuangjia Shi" }
		14 = { "%d Man'chu Zhuangjia Shi" }
		15 = { "%d Man'chu Zhuangjia Shi" }
	}
}

MAN_PAR_01 = 
{
	name = "Parachute Division"

	for_countries = { MAN }

	can_use = { always = yes }

	division_types = { "paratrooper" }

	# Number reservation system will tie to another group.
	#link_numbering_with = { MAN_INF_01 }

	fallback_name = "%d Man'chu Sanbing Shi"

	# Names with numbers (only one number per entry). 
	# It's okay to have gaps in numbering.
	ordered =
	{
		1 = { "%d Man'chu Sanbing Shi" }
		2 = { "%d Man'chu Sanbing Shi" }
		3 = { "%d Man'chu Sanbing Shi" }
		4 = { "%d Man'chu Sanbing Shi" }
		5 = { "%d Man'chu Sanbing Shi" }
		6 = { "%d Man'chu Sanbing Shi" }
		7 = { "%d Man'chu Sanbing Shi" }
		8 = { "%d Man'chu Sanbing Shi" }
		9 = { "%d Man'chu Sanbing Shi" }
		10 = { "%d Man'chu Sanbing Shi" }
	}
}

MAN_MAR_01 = 
{
	name = "Marine Division"

	for_countries = { MAN }

	can_use = { always = yes }

	division_types = { "marine" }

	# Number reservation system will tie to another group.
	#link_numbering_with = { MAN_INF_01 }

	fallback_name = "%d Man'chu Luzhan Dui Shi"

	# Names with numbers (only one number per entry). 
	# It's okay to have gaps in numbering.
	ordered =
	{
		1 = { "%d Man'chu Luzhan Dui Shi" }
		2 = { "%d Man'chu Luzhan Dui Shi" }
		3 = { "%d Man'chu Luzhan Dui Shi" }
		4 = { "%d Man'chu Luzhan Dui Shi" }
		5 = { "%d Man'chu Luzhan Dui Shi" }
		6 = { "%d Man'chu Luzhan Dui Shi" }
		7 = { "%d Man'chu Luzhan Dui Shi" }
		8 = { "%d Man'chu Luzhan Dui Shi" }
		9 = { "%d Man'chu Luzhan Dui Shi" }
		10 = { "%d Man'chu Luzhan Dui Shi" }
	}
}

MAN_MNT_01 = 
{
	name = "Mountain Division"

	for_countries = { MAN }

	can_use = { always = yes }

	division_types = { "mountaineers" }

	# Number reservation system will tie to another group.
	link_numbering_with = { MAN_INF_01 }

	fallback_name = "%d Man'chu Bubing Shi"

	# Names with numbers (only one number per entry). 
	# It's okay to have gaps in numbering.
	ordered =
	{
		1 = { "%d Fang'tien Bubing Shi" }			# Starting with what is what is currently in JAP OOBs
		2 = { "%d Fang'tien Bubing Shi" }
		3 = { "%d Fang'tien Bubing Shi" }
		4 = { "%d Fang'tien Bubing Shi" }
		5 = { "%d Qiqihar Bubing Shi" }			
		6 = { "%d Qiqihar Bubing Shi" }			
		7 = { "%d Harbin Bubing Shi" }			
		8 = { "%d Harbin Bubing Shi" }			
		9 = { "%d Harbin Bubing Shi" }			
		10 = { "%d Dalian Bubing Shi" }			
		11 = { "%d Dalian Bubing Shi" }			
		12 = { "%d Dalian Bubing Shi" }			
		13 = { "%d Mukden Bubing Shi" }			
		14 = { "%d Mukden Bubing Shi" }			
		15 = { "%d Mukden Bubing Shi" }			
		16 = { "%d Hsinking Bubing Shi" }			
		17 = { "%d Hsinking Bubing Shi" }			
		18 = { "%d Hsinking Bubing Shi" }			
		19 = { "%d Hsinking Bubing Shi" }			
		20 = { "%d Fang'tien Bubing Shi" }			
		21 = { "%d Fang'tien Bubing Shi" }			
		22 = { "%d Fang'tien Bubing Shi" }			
		23 = { "%d Qiqihar Bubing Shi" }			
		24 = { "%d Qiqihar Bubing Shi" }			
		25 = { "%d Harbin Bubing Shi" }			
		26 = { "%d Harbin Bubing Shi" }			
		27 = { "%d Harbin Bubing Shi" }			
		28 = { "%d Dalian Bubing Shi" }			
		29 = { "%d Dalian Bubing Shi" }			
		30 = { "%d Dalian Bubing Shi" }			
	}
}

MAN_GAR_01 = 
{
	name = "Garrison Unit"

	for_countries = { MAN }

	can_use = { always = yes }

	division_types = { "infantry" }

	# Number reservation system will tie to another group.
	#link_numbering_with = { MAN_INF_01 }

	fallback_name = "%d Qu Jun"

	# Names with numbers (only one number per entry). 
	# It's okay to have gaps in numbering.
	ordered =
	{
		1 = { "%d Qu Jun" }
		2 = { "%d Qu Jun" }
		3 = { "%d Qu Jun" }
		4 = { "%d Qu Jun" }
		5 = { "%d Qu Jun" }
		6 = { "%d Qu Jun" }
		7 = { "%d Qu Jun" }
		8 = { "%d Qu Jun" }
		9 = { "%d Qu Jun" }
		10 = { "%d Qu Jun" }
		11 = { "%d Qu Jun" }
		12 = { "%d Qu Jun" }
		13 = { "%d Qu Jun" }
		14 = { "%d Qu Jun" }
		15 = { "%d Qu Jun" }
		16 = { "%d Qu Jun" }
		17 = { "%d Qu Jun" }
		18 = { "%d Qu Jun" }
		19 = { "%d Qu Jun" }
		20 = { "%d Qu Jun" }
	}
}

