ideas = {
#################################################
### Head of Government
#################################################
	Head_of_Government = {
	# Vere Ponsonby - The Earl of Bessborough
		CAN_HoS_Vere_Ponsonby = {
			picture = Generic_Portrait
			allowed = { tag = CAN }
			allowed_to_remove = { always = no }
			visible = {
				date > 1933.1.1
				date < 1935.11.2
				D_Minister_Allowed = yes
				NOT = { has_country_flag = Vere_Ponsonby_unavailable }
			}
			cost = 150
			removal_cost = 10
			traits = { POSITION_Governor_General ideology_D HoS_Popular_Figurehead }
		}
	# John Buchan - The Lord Tweedsmuir
		CAN_HoS_John_Buchan = {
			picture = Generic_Portrait
			allowed = { tag = CAN }
			allowed_to_remove = { always = no }
			visible = {
				date > 1933.1.1
				date < 1964.1.1
				D_Minister_Allowed = yes
				NOT = { has_country_flag = John_Buchan_unavailable }
			}
			cost = 150
			removal_cost = 10
			traits = { POSITION_Governor_General ideology_D HoS_Benevolent_Gentleman }
		}
	# Alexander Cambridge - The Earl of Athlone
		CAN_HoS_Alexander_Cambridge = {
			picture = Generic_Portrait
			allowed = { tag = CAN }
			allowed_to_remove = { always = no }
			visible = {
				date > 1933.1.1
				date < 1964.1.1
				D_Minister_Allowed = yes
				NOT = { has_country_flag = Alexander_Cambridge_unavailable }
			}
			cost = 150
			removal_cost = 10
			traits = { POSITION_Governor_General ideology_D HoS_Stern_Imperialist }
		}
	# Adrien Arcand
		CAN_HoG_Adrien_Arcand = {
			picture = Generic_Portrait
			allowed = { tag = CAN }
			visible = {
				date > 1933.1.1
				date < 1964.1.1
				F_Minister_Allowed = yes
				NOT = { has_country_flag = Adrien_Arcand_unavailable }
			}
			cost = 150
			removal_cost = 10
			traits = { ideology_F HoG_Happy_Amateur }
		}
	# Robert Borden
		CAN_HoG_Robert_Borden = {
			picture = Generic_Portrait
			allowed = { tag = CAN }
			visible = {
				date > 1911.1.1
				date < 1933.1.1
				D_Minister_Allowed = yes
				NOT = { has_country_flag = Robert_Borden_unavailable }
			}
			cost = 150
			removal_cost = 10
			traits = { ideology_D HoG_Backroom_Backstabber }
		}
	# Arthur Meighen
		CAN_HoG_Arthur_Meighen = {
			picture = Generic_Portrait
			allowed = { tag = CAN }
			visible = {
				date > 1914.1.1
				date < 1933.1.1
				D_Minister_Allowed = yes
				NOT = { has_country_flag = Arthur_Meighen_unavailable }
			}
			cost = 150
			removal_cost = 10
			traits = { ideology_D HoG_Silent_Workhorse }
		}
	# Richard Bennett
		CAN_HoG_Richard_Bennett = {
			picture = Generic_Portrait
			allowed = { tag = CAN }
			visible = {
				date > 1921.1.1
				date < 1933.1.1
				D_Minister_Allowed = yes
				NOT = { has_country_flag = Richard_Bennett_unavailable }
			}
			cost = 150
			removal_cost = 10
			traits = { ideology_D HoG_Flamboyant_Tough_Guy }
		}
	# R.B. Bennett
		CAN_HoG_RB_Bennett = {
			picture = Generic_Portrait
			allowed = { tag = CAN }
			visible = {
				date > 1933.1.1
				date < 1964.1.1
				D_Minister_Allowed = yes
				NOT = { has_country_flag = RB_Bennett_unavailable }
			}
			cost = 150
			removal_cost = 10
			traits = { ideology_D HoG_Silent_Workhorse }
		}
	# Robert Manion
		CAN_HoG_Robert_Manion = {
			picture = Generic_Portrait
			allowed = { tag = CAN }
			visible = {
				date > 1940.1.1
				date < 1964.1.1
				D_Minister_Allowed = yes
				NOT = { has_country_flag = Robert_Manion_unavailable }
			}
			cost = 150
			removal_cost = 10
			traits = { ideology_D HoG_Naive_Optimist }
		}
	# John Bracken
		CAN_HoG_John_Bracken = {
			picture = Generic_Portrait
			allowed = { tag = CAN }
			visible = {
				date > 1944.1.1
				date < 1964.1.1
				D_Minister_Allowed = yes
				NOT = { has_country_flag = John_Bracken_unavailable }
			}
			cost = 150
			removal_cost = 10
			traits = { ideology_D HoG_Smiling_Oilman }
		}
	# Gordon Graydon
		CAN_HoG_Gordon_Graydon = {
			picture = Generic_Portrait
			allowed = { tag = CAN }
			visible = {
				date > 1948.1.1
				date < 1964.1.1
				D_Minister_Allowed = yes
				NOT = { has_country_flag = Gordon_Graydon_unavailable }
			}
			cost = 150
			removal_cost = 10
			traits = { ideology_D HoG_Silent_Workhorse }
		}
	# J.L. Isley
		CAN_HoG_JL_Isley = {
			picture = Generic_Portrait
			allowed = { tag = CAN }
			visible = {
				date > 1952.1.1
				date < 1964.1.1
				D_Minister_Allowed = yes
				NOT = { has_country_flag = JL_Isley_unavailable }
			}
			cost = 150
			removal_cost = 10
			traits = { ideology_D HoG_Silent_Workhorse }
		}
	# John Diefenbaker
		CAN_HoG_John_Diefenbaker = {
			picture = Generic_Portrait
			allowed = { tag = CAN }
			visible = {
				date > 1957.1.1
				date < 1964.1.1
				D_Minister_Allowed = yes
				NOT = { has_country_flag = John_Diefenbaker_unavailable }
			}
			cost = 150
			removal_cost = 10
			traits = { ideology_D HoG_Flamboyant_Tough_Guy }
		}
	# Thomas Crerar
		CAN_HoG_Thomas_Crerar = {
			picture = Generic_Portrait
			allowed = { tag = CAN }
			visible = {
				date > 1917.1.1
				date < 1933.1.1
				D_Minister_Allowed = yes
				NOT = { has_country_flag = Thomas_Crerar_unavailable }
			}
			cost = 150
			removal_cost = 10
			traits = { ideology_D HoG_Political_Protege }
		}
	# Mackenzie King
		CAN_HoG_Mackenzie_King = {
			picture = Generic_Portrait
			allowed = { tag = CAN }
			visible = {
				date > 1933.1.1
				date < 1964.1.1
				D_Minister_Allowed = yes
				NOT = { has_country_flag = Mackenzie_King_unavailable }
			}
			cost = 150
			removal_cost = 10
			traits = { ideology_D HoG_Flamboyant_Tough_Guy }
		}
	# Louis St-Laurent
		CAN_HoG_Louis_StLaurent = {
			picture = Generic_Portrait
			allowed = { tag = CAN }
			visible = {
				date > 1948.1.1
				date < 1964.1.1
				D_Minister_Allowed = yes
				NOT = { has_country_flag = Louis_StLaurent_unavailable }
			}
			cost = 150
			removal_cost = 10
			traits = { ideology_D HoG_Old_General }
		}
	# Lester B. Pearson
		CAN_HoG_Lester_B_Pearson = {
			picture = Generic_Portrait
			allowed = { tag = CAN }
			visible = {
				date > 1963.1.1
				date < 1964.1.1
				D_Minister_Allowed = yes
				NOT = { has_country_flag = Lester_B_Pearson_unavailable }
			}
			cost = 150
			removal_cost = 10
			traits = { ideology_D HoG_Backroom_Backstabber }
		}
	# Robert Stanfield
		CAN_HoG_Robert_Stanfield = {
			picture = Generic_Portrait
			allowed = { tag = CAN }
			visible = {
				date > 1968.1.1
				date < 2004.1.1
				D_Minister_Allowed = yes
				NOT = { has_country_flag = Robert_Stanfield_unavailable }
			}
			cost = 150
			removal_cost = 10
			traits = { ideology_D HoG_Corporate_Suit }
		}
	# Joe Clark
		CAN_HoG_Joe_Clark = {
			picture = Generic_Portrait
			allowed = { tag = CAN }
			visible = {
				date > 1979.1.1
				date < 2020.1.1
				D_Minister_Allowed = yes
				NOT = { has_country_flag = Joe_Clark_unavailable }
			}
			cost = 150
			removal_cost = 10
			traits = { ideology_D HoG_Backroom_Backstabber }
		}
	# Brian Mulroney
		CAN_HoG_Brian_Mulroney = {
			picture = Generic_Portrait
			allowed = { tag = CAN }
			visible = {
				date > 1984.1.1
				date < 2020.1.1
				D_Minister_Allowed = yes
				NOT = { has_country_flag = Brian_Mulroney_unavailable }
			}
			cost = 150
			removal_cost = 10
			traits = { ideology_D HoG_Naive_Optimist }
		}
	# Mackenzie King
		CAN_HoG_Mackenzie_King_2 = {
			picture = Generic_Portrait
			allowed = { tag = CAN }
			visible = {
				date > 1918.1.1
				date < 1933.1.1
				D_Minister_Allowed = yes
				NOT = { has_country_flag = Mackenzie_King_unavailable }
			}
			cost = 150
			removal_cost = 10
			traits = { ideology_D HoG_Silent_Workhorse }
		}
	# Pierre Trudeau
		CAN_HoG_Pierre_Trudeau = {
			picture = Generic_Portrait
			allowed = { tag = CAN }
			visible = {
				date > 1968.1.1
				date < 2001.1.1
				D_Minister_Allowed = yes
				NOT = { has_country_flag = Pierre_Trudeau_unavailable }
			}
			cost = 150
			removal_cost = 10
			traits = { ideology_D HoG_Ambitious_Union_Boss }
		}
	# John Turner
		CAN_HoG_John_Turner = {
			picture = Generic_Portrait
			allowed = { tag = CAN }
			visible = {
				date > 1984.1.1
				date < 2020.1.1
				D_Minister_Allowed = yes
				NOT = { has_country_flag = John_Turner_unavailable }
			}
			cost = 150
			removal_cost = 10
			traits = { ideology_D HoG_Political_Protege }
		}
	# Tim Buck
		CAN_HoG_Tim_Buck = {
			picture = Generic_Portrait
			allowed = { tag = CAN }
			visible = {
				date > 1933.1.1
				date < 1964.1.1
				C_Minister_Allowed = yes
				NOT = { has_country_flag = Tim_Buck_unavailable }
			}
			cost = 150
			removal_cost = 10
			traits = { ideology_C HoG_Ambitious_Union_Boss }
		}
}
#################################################
### Foreign Minister
#################################################
	Foreign_Minister = {
	# Adrien Arcand
		CAN_FM_Adrien_Arcand = {
			picture = Generic_Portrait
			allowed = { tag = CAN }
			visible = {
				date > 1933.1.1
				date < 1964.1.1
				F_Minister_Allowed = yes
				NOT = { has_country_flag = Adrien_Arcand_unavailable }
			}
			cost = 150
			removal_cost = 10
			traits = { ideology_F FM_Ideological_Crusader }
		}
	# Andrew Greene Carnell
		CAN_FM_Andrew_Greene_Carnell = {
			picture = Generic_Portrait
			allowed = { tag = CAN }
			visible = {
				date > 1944.1.1
				date < 1964.1.1
				A_Minister_Allowed = yes
				NOT = { has_country_flag = Andrew_Greene_Carnell_unavailable }
			}
			cost = 150
			removal_cost = 10
			traits = { ideology_A FM_Iron_Fisted_Brute }
		}
	# Robert Borden
		CAN_FM_Robert_Borden = {
			picture = Generic_Portrait
			allowed = { tag = CAN }
			visible = {
				date > 1911.1.1
				date < 1933.1.1
				D_Minister_Allowed = yes
				NOT = { has_country_flag = Robert_Borden_unavailable }
			}
			cost = 150
			removal_cost = 10
			traits = { ideology_D FM_Ideological_Crusader }
		}
	# Arthur Meighen
		CAN_FM_Arthur_Meighen = {
			picture = Generic_Portrait
			allowed = { tag = CAN }
			visible = {
				date > 1914.1.1
				date < 1933.1.1
				D_Minister_Allowed = yes
				NOT = { has_country_flag = Arthur_Meighen_unavailable }
			}
			cost = 150
			removal_cost = 10
			traits = { ideology_D FM_Apologetic_Clerk }
		}
	# William Roche
		CAN_FM_William_Roche = {
			picture = Generic_Portrait
			allowed = { tag = CAN }
			visible = {
				date > 1914.1.1
				date < 1933.1.1
				D_Minister_Allowed = yes
				NOT = { has_country_flag = William_Roche_unavailable }
			}
			cost = 150
			removal_cost = 10
			traits = { ideology_D FM_Iron_Fisted_Brute }
		}
	# Louis Coderre
		CAN_FM_Louis_Coderre = {
			picture = Generic_Portrait
			allowed = { tag = CAN }
			visible = {
				date > 1914.1.1
				date < 1933.1.1
				D_Minister_Allowed = yes
				NOT = { has_country_flag = Louis_Coderre_unavailable }
			}
			cost = 150
			removal_cost = 10
			traits = { ideology_D FM_Biased_Intellectual }
		}
	# Richard Bennett
		CAN_FM_Richard_Bennett = {
			picture = Generic_Portrait
			allowed = { tag = CAN }
			visible = {
				date > 1921.1.1
				date < 1933.1.1
				D_Minister_Allowed = yes
				NOT = { has_country_flag = Richard_Bennett_unavailable }
			}
			cost = 150
			removal_cost = 10
			traits = { ideology_D FM_Apologetic_Clerk }
		}
	# R.B. Bennett
		CAN_FM_RB_Bennett = {
			picture = Generic_Portrait
			allowed = { tag = CAN }
			visible = {
				date > 1933.1.1
				date < 1964.1.1
				D_Minister_Allowed = yes
				NOT = { has_country_flag = RB_Bennett_unavailable }
			}
			cost = 150
			removal_cost = 10
			traits = { ideology_D FM_Iron_Fisted_Brute }
		}
	# Newton Wesley Rowell
		CAN_FM_Newton_Wesley_Rowell = {
			picture = Generic_Portrait
			allowed = { tag = CAN }
			visible = {
				date > 1938.1.1
				date < 1964.1.1
				D_Minister_Allowed = yes
				NOT = { has_country_flag = Newton_Wesley_Rowell_unavailable }
			}
			cost = 150
			removal_cost = 10
			traits = { ideology_D FM_Ideological_Crusader }
		}
	# Robert Manion
		CAN_FM_Robert_Manion = {
			picture = Generic_Portrait
			allowed = { tag = CAN }
			visible = {
				date > 1940.1.1
				date < 1964.1.1
				D_Minister_Allowed = yes
				NOT = { has_country_flag = Robert_Manion_unavailable }
			}
			cost = 150
			removal_cost = 10
			traits = { ideology_D FM_Apologetic_Clerk }
		}
	# John Bracken
		CAN_FM_John_Bracken = {
			picture = Generic_Portrait
			allowed = { tag = CAN }
			visible = {
				date > 1944.1.1
				date < 1964.1.1
				D_Minister_Allowed = yes
				NOT = { has_country_flag = John_Bracken_unavailable }
			}
			cost = 150
			removal_cost = 10
			traits = { ideology_D FM_Biased_Intellectual }
		}
	# Robert Stanfield
		CAN_FM_Robert_Stanfield = {
			picture = Generic_Portrait
			allowed = { tag = CAN }
			visible = {
				date > 1948.1.1
				date < 1964.1.1
				D_Minister_Allowed = yes
				NOT = { has_country_flag = Robert_Stanfield_unavailable }
			}
			cost = 150
			removal_cost = 10
			traits = { ideology_D FM_Biased_Intellectual }
		}
	# Howard Charles Green
		CAN_FM_Howard_Charles_Green = {
			picture = Generic_Portrait
			allowed = { tag = CAN }
			visible = {
				date > 1957.1.1
				date < 1964.1.1
				D_Minister_Allowed = yes
				NOT = { has_country_flag = Howard_Charles_Green_unavailable }
			}
			cost = 150
			removal_cost = 10
			traits = { ideology_D FM_Ideological_Crusader }
		}
	# John Diefenbaker
		CAN_FM_John_Diefenbaker = {
			picture = Generic_Portrait
			allowed = { tag = CAN }
			visible = {
				date > 1957.1.1
				date < 1964.1.1
				D_Minister_Allowed = yes
				NOT = { has_country_flag = John_Diefenbaker_unavailable }
			}
			cost = 150
			removal_cost = 10
			traits = { ideology_D FM_The_Cloak_N_Dagger_Schemer }
		}
	# Mackenzie King
		CAN_FM_Mackenzie_King = {
			picture = Generic_Portrait
			allowed = { tag = CAN }
			visible = {
				date > 1933.1.1
				date < 1964.1.1
				D_Minister_Allowed = yes
				NOT = { has_country_flag = Mackenzie_King_unavailable }
			}
			cost = 150
			removal_cost = 10
			traits = { ideology_D FM_Great_Compromiser }
		}
	# Louis St-Laurent
		CAN_FM_Louis_StLaurent = {
			picture = Generic_Portrait
			allowed = { tag = CAN }
			visible = {
				date > 1946.1.1
				date < 1964.1.1
				D_Minister_Allowed = yes
				NOT = { has_country_flag = Louis_StLaurent_unavailable }
			}
			cost = 150
			removal_cost = 10
			traits = { ideology_D FM_General_Staffer }
		}
	# Lester B. Pearson
		CAN_FM_Lester_B_Pearson = {
			picture = Generic_Portrait
			allowed = { tag = CAN }
			visible = {
				date > 1948.1.1
				date < 1964.1.1
				D_Minister_Allowed = yes
				NOT = { has_country_flag = Lester_B_Pearson_unavailable }
			}
			cost = 150
			removal_cost = 10
			traits = { ideology_D FM_Ideological_Crusader }
		}
	# Don Jamieson
		CAN_FM_Don_Jamieson = {
			picture = Generic_Portrait
			allowed = { tag = CAN }
			visible = {
				date > 1976.1.1
				date < 1986.1.1
				D_Minister_Allowed = yes
				NOT = { has_country_flag = Don_Jamieson_unavailable }
			}
			cost = 150
			removal_cost = 10
			traits = { ideology_D FM_Great_Compromiser }
		}
	# Flora MacDonald
		CAN_FM_Flora_MacDonald = {
			picture = Generic_Portrait
			allowed = { tag = CAN }
			visible = {
				date > 1979.1.1
				date < 2015.1.1
				D_Minister_Allowed = yes
				NOT = { has_country_flag = Flora_MacDonald_unavailable }
			}
			cost = 150
			removal_cost = 10
			traits = { ideology_D FM_Biased_Intellectual }
		}
	# Jean Chrétien
		CAN_FM_Jean_Chretien = {
			picture = Generic_Portrait
			allowed = { tag = CAN }
			visible = {
				date > 1984.1.1
				date < 2020.1.1
				D_Minister_Allowed = yes
				NOT = { has_country_flag = Jean_Chretien_unavailable }
			}
			cost = 150
			removal_cost = 10
			traits = { ideology_D FM_The_Cloak_N_Dagger_Schemer }
		}
	# Charles Murphy
		CAN_FM_Charles_Murphy = {
			picture = Generic_Portrait
			allowed = { tag = CAN }
			visible = {
				date > 1914.1.1
				date < 1933.1.1
				D_Minister_Allowed = yes
				NOT = { has_country_flag = Charles_Murphy_unavailable }
			}
			cost = 150
			removal_cost = 10
			traits = { ideology_D FM_Biased_Intellectual }
		}
	# Mackenzie King
		CAN_FM_Mackenzie_King_2 = {
			picture = Generic_Portrait
			allowed = { tag = CAN }
			visible = {
				date > 1918.1.1
				date < 1933.1.1
				D_Minister_Allowed = yes
				NOT = { has_country_flag = Mackenzie_King_unavailable }
			}
			cost = 150
			removal_cost = 10
			traits = { ideology_D FM_Ideological_Crusader }
		}
	# Paul Joseph Martin Sr.
		CAN_FM_Paul_Joseph_Martin_Sr = {
			picture = Generic_Portrait
			allowed = { tag = CAN }
			visible = {
				date > 1963.1.1
				date < 1978.1.1
				D_Minister_Allowed = yes
				NOT = { has_country_flag = Paul_Joseph_Martin_Sr_unavailable }
			}
			cost = 150
			removal_cost = 10
			traits = { ideology_D FM_Great_Compromiser }
		}
	# Mitchell Sharp
		CAN_FM_Mitchell_Sharp = {
			picture = Generic_Portrait
			allowed = { tag = CAN }
			visible = {
				date > 1968.1.1
				date < 1979.1.1
				D_Minister_Allowed = yes
				NOT = { has_country_flag = Mitchell_Sharp_unavailable }
			}
			cost = 150
			removal_cost = 10
			traits = { ideology_D FM_The_Cloak_N_Dagger_Schemer }
		}
	# Allen MacEachen
		CAN_FM_Allen_MacEachen = {
			picture = Generic_Portrait
			allowed = { tag = CAN }
			visible = {
				date > 1974.1.1
				date < 2020.1.1
				D_Minister_Allowed = yes
				NOT = { has_country_flag = Allen_MacEachen_unavailable }
			}
			cost = 150
			removal_cost = 10
			traits = { ideology_D FM_Apologetic_Clerk }
		}
	# Mark MacGuigan
		CAN_FM_Mark_MacGuigan = {
			picture = Generic_Portrait
			allowed = { tag = CAN }
			visible = {
				date > 1980.1.1
				date < 1985.1.1
				D_Minister_Allowed = yes
				NOT = { has_country_flag = Mark_MacGuigan_unavailable }
			}
			cost = 150
			removal_cost = 10
			traits = { ideology_D FM_Apologetic_Clerk }
		}
	# Armand Lavassieux
		CAN_FM_Armand_Lavassieux = {
			picture = Generic_Portrait
			allowed = { tag = CAN }
			visible = {
				date > 1942.1.1
				date < 1964.1.1
				S_Minister_Allowed = yes
				NOT = { has_country_flag = Armand_Lavassieux_unavailable }
			}
			cost = 150
			removal_cost = 10
			traits = { ideology_S FM_Biased_Intellectual }
		}
	# John Lethbridge
		CAN_FM_John_Lethbridge = {
			picture = Generic_Portrait
			allowed = { tag = CAN }
			visible = {
				date > 1945.1.1
				date < 1964.1.1
				C_Minister_Allowed = yes
				NOT = { has_country_flag = John_Lethbridge_unavailable }
			}
			cost = 150
			removal_cost = 10
			traits = { ideology_C FM_Ideological_Crusader }
		}
	# Tim Buck
		CAN_FM_Tim_Buck = {
			picture = Generic_Portrait
			allowed = { tag = CAN }
			visible = {
				date > 1933.1.1
				date < 1964.1.1
				C_Minister_Allowed = yes
				NOT = { has_country_flag = Tim_Buck_unavailable }
			}
			cost = 150
			removal_cost = 10
			traits = { ideology_C FM_The_Cloak_N_Dagger_Schemer }
		}
}
#################################################
### Minister of Security
#################################################
	Minister_of_Security = {
	# Chuck Crate
		CAN_MoS_Chuck_Crate = {
			picture = Generic_Portrait
			allowed = { tag = CAN }
			visible = {
				date > 1933.1.1
				date < 1964.1.1
				A_Minister_Allowed = yes
				NOT = { has_country_flag = Chuck_Crate_unavailable }
			}
			cost = 150
			removal_cost = 10
			traits = { ideology_A MoS_Prince_Of_Terror }
		}
	# Pierre St. Pierre
		CAN_MoS_Pierre_St_Pierre = {
			picture = Generic_Portrait
			allowed = { tag = CAN }
			visible = {
				date > 1937.1.1
				date < 1964.1.1
				A_Minister_Allowed = yes
				NOT = { has_country_flag = Pierre_St_Pierre_unavailable }
			}
			cost = 150
			removal_cost = 10
			traits = { ideology_A MoS_Man_Of_The_People }
		}
	# Thomas Adams
		CAN_MoS_Thomas_Adams = {
			picture = Generic_Portrait
			allowed = { tag = CAN }
			visible = {
				date > 1941.1.1
				date < 1964.1.1
				A_Minister_Allowed = yes
				NOT = { has_country_flag = Thomas_Adams_unavailable }
			}
			cost = 150
			removal_cost = 10
			traits = { ideology_A MoS_Compassionate_Gentleman }
		}
	# Pierre Gagnon
		CAN_MoS_Pierre_Gagnon = {
			picture = Generic_Portrait
			allowed = { tag = CAN }
			visible = {
				date > 1942.1.1
				date < 1964.1.1
				A_Minister_Allowed = yes
				NOT = { has_country_flag = Pierre_Gagnon_unavailable }
			}
			cost = 150
			removal_cost = 10
			traits = { ideology_A MoS_Crime_Fighter }
		}
	# Jean Couillard
		CAN_MoS_Jean_Couillard = {
			picture = Generic_Portrait
			allowed = { tag = CAN }
			visible = {
				date > 1943.1.1
				date < 1964.1.1
				A_Minister_Allowed = yes
				NOT = { has_country_flag = Jean_Couillard_unavailable }
			}
			cost = 150
			removal_cost = 10
			traits = { ideology_A MoS_Silent_Lawyer }
		}
	# William G. Adams
		CAN_MoS_William_G_Adams = {
			picture = Generic_Portrait
			allowed = { tag = CAN }
			visible = {
				date > 1945.1.1
				date < 1964.1.1
				A_Minister_Allowed = yes
				NOT = { has_country_flag = William_G_Adams_unavailable }
			}
			cost = 150
			removal_cost = 10
			traits = { ideology_A MoS_Back_Stabber }
		}
	# Charles Doherty
		CAN_MoS_Charles_Doherty = {
			picture = Generic_Portrait
			allowed = { tag = CAN }
			visible = {
				date > 1914.1.1
				date < 1933.1.1
				D_Minister_Allowed = yes
				NOT = { has_country_flag = Charles_Doherty_unavailable }
			}
			cost = 150
			removal_cost = 10
			traits = { ideology_D MoS_Compassionate_Gentleman }
		}
	# William Roche
		CAN_MoS_William_Roche = {
			picture = Generic_Portrait
			allowed = { tag = CAN }
			visible = {
				date > 1914.1.1
				date < 1933.1.1
				D_Minister_Allowed = yes
				NOT = { has_country_flag = William_Roche_unavailable }
			}
			cost = 150
			removal_cost = 10
			traits = { ideology_D MoS_Compassionate_Gentleman }
		}
	# Hugh Guthrie
		CAN_MoS_Hugh_Guthrie = {
			picture = Generic_Portrait
			allowed = { tag = CAN }
			visible = {
				date > 1917.1.1
				date < 1933.1.1
				D_Minister_Allowed = yes
				NOT = { has_country_flag = Hugh_Guthrie_unavailable }
			}
			cost = 150
			removal_cost = 10
			traits = { ideology_D MoS_Man_Of_The_People }
		}
	# Richard Bennett
		CAN_MoS_Richard_Bennett = {
			picture = Generic_Portrait
			allowed = { tag = CAN }
			visible = {
				date > 1921.1.1
				date < 1933.1.1
				D_Minister_Allowed = yes
				NOT = { has_country_flag = Richard_Bennett_unavailable }
			}
			cost = 150
			removal_cost = 10
			traits = { ideology_D MoS_Compassionate_Gentleman }
		}
	# Gordon Graydon
		CAN_MoS_Gordon_Graydon = {
			picture = Generic_Portrait
			allowed = { tag = CAN }
			visible = {
				date > 1940.1.1
				date < 1964.1.1
				D_Minister_Allowed = yes
				NOT = { has_country_flag = Gordon_Graydon_unavailable }
			}
			cost = 150
			removal_cost = 10
			traits = { ideology_D MoS_Silent_Lawyer }
		}
	# John Diefenbaker
		CAN_MoS_John_Diefenbaker = {
			picture = Generic_Portrait
			allowed = { tag = CAN }
			visible = {
				date > 1944.1.1
				date < 1964.1.1
				D_Minister_Allowed = yes
				NOT = { has_country_flag = John_Diefenbaker_unavailable }
			}
			cost = 150
			removal_cost = 10
			traits = { ideology_D MoS_Man_Of_The_People }
		}
	# Edmond David Fulton
		CAN_MoS_Edmond_David_Fulton = {
			picture = Generic_Portrait
			allowed = { tag = CAN }
			visible = {
				date > 1948.1.1
				date < 1964.1.1
				D_Minister_Allowed = yes
				NOT = { has_country_flag = Edmond_David_Fulton_unavailable }
			}
			cost = 150
			removal_cost = 10
			traits = { ideology_D MoS_Compassionate_Gentleman }
		}
	# Donald M. Fleming
		CAN_MoS_Donald_M_Fleming = {
			picture = Generic_Portrait
			allowed = { tag = CAN }
			visible = {
				date > 1962.1.1
				date < 1964.1.1
				D_Minister_Allowed = yes
				NOT = { has_country_flag = Donald_M_Fleming_unavailable }
			}
			cost = 150
			removal_cost = 10
			traits = { ideology_D MoS_Prince_Of_Terror }
		}
	# Ray Hnatyshyn
		CAN_MoS_Ray_Hnatyshyn = {
			picture = Generic_Portrait
			allowed = { tag = CAN }
			visible = {
				date > 1986.1.1
				date < 2003.1.1
				D_Minister_Allowed = yes
				NOT = { has_country_flag = Ray_Hnatyshyn_unavailable }
			}
			cost = 150
			removal_cost = 10
			traits = { ideology_D MoS_Crime_Fighter }
		}
	# Ernest Lapointe
		CAN_MoS_Ernest_Lapointe = {
			picture = Generic_Portrait
			allowed = { tag = CAN }
			visible = {
				date > 1933.1.1
				date < 1964.1.1
				D_Minister_Allowed = yes
				NOT = { has_country_flag = Ernest_Lapointe_unavailable }
			}
			cost = 150
			removal_cost = 10
			traits = { ideology_D MoS_Crime_Fighter }
		}
	# Thomas A. Crerar
		CAN_MoS_Thomas_A_Crerar = {
			picture = Generic_Portrait
			allowed = { tag = CAN }
			visible = {
				date > 1933.1.1
				date < 1964.1.1
				D_Minister_Allowed = yes
				NOT = { has_country_flag = Thomas_A_Crerar_unavailable }
			}
			cost = 150
			removal_cost = 10
			traits = { ideology_D MoS_Man_Of_The_People }
		}
	# Louis St. Laurent
		CAN_MoS_Louis_St_Laurent = {
			picture = Generic_Portrait
			allowed = { tag = CAN }
			visible = {
				date > 1941.1.1
				date < 1964.1.1
				D_Minister_Allowed = yes
				NOT = { has_country_flag = Louis_St_Laurent_unavailable }
			}
			cost = 150
			removal_cost = 10
			traits = { ideology_D MoS_Crime_Fighter }
		}
	# George W. Stephens
		CAN_MoS_George_W_Stephens = {
			picture = Generic_Portrait
			allowed = { tag = CAN }
			visible = {
				date > 1944.1.1
				date < 1964.1.1
				D_Minister_Allowed = yes
				NOT = { has_country_flag = George_W_Stephens_unavailable }
			}
			cost = 150
			removal_cost = 10
			traits = { ideology_D MoS_Compassionate_Gentleman }
		}
	# Stuart Sinclair Garson
		CAN_MoS_Stuart_Sinclair_Garson = {
			picture = Generic_Portrait
			allowed = { tag = CAN }
			visible = {
				date > 1948.1.1
				date < 1964.1.1
				D_Minister_Allowed = yes
				NOT = { has_country_flag = Stuart_Sinclair_Garson_unavailable }
			}
			cost = 150
			removal_cost = 10
			traits = { ideology_D MoS_Man_Of_The_People }
		}
	# Lionel Chevrier
		CAN_MoS_Lionel_Chevrier = {
			picture = Generic_Portrait
			allowed = { tag = CAN }
			visible = {
				date > 1963.1.1
				date < 1964.1.1
				D_Minister_Allowed = yes
				NOT = { has_country_flag = Lionel_Chevrier_unavailable }
			}
			cost = 150
			removal_cost = 10
			traits = { ideology_D MoS_Crime_Fighter }
		}
	# Lucien Cardin
		CAN_MoS_Lucien_Cardin = {
			picture = Generic_Portrait
			allowed = { tag = CAN }
			visible = {
				date > 1965.1.1
				date < 1979.1.1
				D_Minister_Allowed = yes
				NOT = { has_country_flag = Lucien_Cardin_unavailable }
			}
			cost = 150
			removal_cost = 10
			traits = { ideology_D MoS_Crime_Fighter }
		}
	# Otto Lang
		CAN_MoS_Otto_Lang = {
			picture = Generic_Portrait
			allowed = { tag = CAN }
			visible = {
				date > 1972.1.1
				date < 1979.1.1
				D_Minister_Allowed = yes
				NOT = { has_country_flag = Otto_Lang_unavailable }
			}
			cost = 150
			removal_cost = 10
			traits = { ideology_D MoS_Silent_Lawyer }
		}
	# Jacques Flynn
		CAN_MoS_Jacques_Flynn = {
			picture = Generic_Portrait
			allowed = { tag = CAN }
			visible = {
				date > 1979.1.1
				date < 1991.1.1
				D_Minister_Allowed = yes
				NOT = { has_country_flag = Jacques_Flynn_unavailable }
			}
			cost = 150
			removal_cost = 10
			traits = { ideology_D MoS_Silent_Lawyer }
		}
	# Jean Chrétien
		CAN_MoS_Jean_Chretien = {
			picture = Generic_Portrait
			allowed = { tag = CAN }
			visible = {
				date > 1980.1.1
				date < 2020.1.1
				D_Minister_Allowed = yes
				NOT = { has_country_flag = Jean_Chretien_unavailable }
			}
			cost = 150
			removal_cost = 10
			traits = { ideology_D MoS_Man_Of_The_People }
		}
	# John Crosbie
		CAN_MoS_John_Crosbie = {
			picture = Generic_Portrait
			allowed = { tag = CAN }
			visible = {
				date > 1984.1.1
				date < 2020.1.1
				D_Minister_Allowed = yes
				NOT = { has_country_flag = John_Crosbie_unavailable }
			}
			cost = 150
			removal_cost = 10
			traits = { ideology_D MoS_Back_Stabber }
		}
	# Allen Aylesworth
		CAN_MoS_Allen_Aylesworth = {
			picture = Generic_Portrait
			allowed = { tag = CAN }
			visible = {
				date > 1914.1.1
				date < 1933.1.1
				D_Minister_Allowed = yes
				NOT = { has_country_flag = Allen_Aylesworth_unavailable }
			}
			cost = 150
			removal_cost = 10
			traits = { ideology_D MoS_Silent_Lawyer }
		}
	# Charles Fitzpatrick
		CAN_MoS_Charles_Fitzpatrick = {
			picture = Generic_Portrait
			allowed = { tag = CAN }
			visible = {
				date > 1914.1.1
				date < 1933.1.1
				D_Minister_Allowed = yes
				NOT = { has_country_flag = Charles_Fitzpatrick_unavailable }
			}
			cost = 150
			removal_cost = 10
			traits = { ideology_D MoS_Man_Of_The_People }
		}
	# Ernest Lapointe
		CAN_MoS_Ernest_Lapointe_2 = {
			picture = Generic_Portrait
			allowed = { tag = CAN }
			visible = {
				date > 1919.1.1
				date < 1933.1.1
				D_Minister_Allowed = yes
				NOT = { has_country_flag = Ernest_Lapointe_unavailable }
			}
			cost = 150
			removal_cost = 10
			traits = { ideology_D MoS_Compassionate_Gentleman }
		}
	# Guy Favreau
		CAN_MoS_Guy_Favreau = {
			picture = Generic_Portrait
			allowed = { tag = CAN }
			visible = {
				date > 1964.1.1
				date < 1965.1.1
				D_Minister_Allowed = yes
				NOT = { has_country_flag = Guy_Favreau_unavailable }
			}
			cost = 150
			removal_cost = 10
			traits = { ideology_D MoS_Crooked_Kleptocrat }
		}
	# Pierre Trudeau
		CAN_MoS_Pierre_Trudeau = {
			picture = Generic_Portrait
			allowed = { tag = CAN }
			visible = {
				date > 1967.1.1
				date < 1969.1.1
				D_Minister_Allowed = yes
				NOT = { has_country_flag = Pierre_Trudeau_unavailable }
			}
			cost = 150
			removal_cost = 10
			traits = { ideology_D MoS_Crooked_Kleptocrat }
		}
	# John Turner
		CAN_MoS_John_Turner = {
			picture = Generic_Portrait
			allowed = { tag = CAN }
			visible = {
				date > 1968.1.1
				date < 2020.1.1
				D_Minister_Allowed = yes
				NOT = { has_country_flag = John_Turner_unavailable }
			}
			cost = 150
			removal_cost = 10
			traits = { ideology_D MoS_Compassionate_Gentleman }
		}
	# Ron Basford
		CAN_MoS_Ron_Basford = {
			picture = Generic_Portrait
			allowed = { tag = CAN }
			visible = {
				date > 1975.1.1
				date < 1979.1.1
				D_Minister_Allowed = yes
				NOT = { has_country_flag = Ron_Basford_unavailable }
			}
			cost = 150
			removal_cost = 10
			traits = { ideology_D MoS_Man_Of_The_People }
		}
	# Mark MacGuigan
		CAN_MoS_Mark_MacGuigan = {
			picture = Generic_Portrait
			allowed = { tag = CAN }
			visible = {
				date > 1980.1.1
				date < 1998.1.1
				D_Minister_Allowed = yes
				NOT = { has_country_flag = Mark_MacGuigan_unavailable }
			}
			cost = 150
			removal_cost = 10
			traits = { ideology_D MoS_Crime_Fighter }
		}
	# Robert Blackhawk
		CAN_MoS_Robert_Blackhawk = {
			picture = Generic_Portrait
			allowed = { tag = CAN }
			visible = {
				date > 1940.1.1
				date < 1964.1.1
				S_Minister_Allowed = yes
				NOT = { has_country_flag = Robert_Blackhawk_unavailable }
			}
			cost = 150
			removal_cost = 10
			traits = { ideology_S MoS_Man_Of_The_People }
		}
	# Tom McEwan
		CAN_MoS_Tom_McEwan = {
			picture = Generic_Portrait
			allowed = { tag = CAN }
			visible = {
				date > 1933.1.1
				date < 1964.1.1
				C_Minister_Allowed = yes
				NOT = { has_country_flag = Tom_McEwan_unavailable }
			}
			cost = 150
			removal_cost = 10
			traits = { ideology_C MoS_Crime_Fighter }
		}
	# Gino Verchiella
		CAN_MoS_Gino_Verchiella = {
			picture = Generic_Portrait
			allowed = { tag = CAN }
			visible = {
				date > 1941.1.1
				date < 1964.1.1
				C_Minister_Allowed = yes
				NOT = { has_country_flag = Gino_Verchiella_unavailable }
			}
			cost = 150
			removal_cost = 10
			traits = { ideology_C MoS_Efficient_Sociopath }
		}
	# Quentin Piggott
		CAN_MoS_Quentin_Piggott = {
			picture = Generic_Portrait
			allowed = { tag = CAN }
			visible = {
				date > 1943.1.1
				date < 1964.1.1
				C_Minister_Allowed = yes
				NOT = { has_country_flag = Quentin_Piggott_unavailable }
			}
			cost = 150
			removal_cost = 10
			traits = { ideology_C MoS_Compassionate_Gentleman }
		}
}
#################################################
### Armaments Minister
#################################################
	Armaments_Minister = {
	# John Ross Taylor
		CAN_AM_John_Ross_Taylor = {
			picture = Generic_Portrait
			allowed = { tag = CAN }
			visible = {
				date > 1933.1.1
				date < 1964.1.1
				A_Minister_Allowed = yes
				NOT = { has_country_flag = John_Ross_Taylor_unavailable }
			}
			cost = 150
			removal_cost = 10
			traits = { ideology_A AM_Corrupt_Kleptocrat }
		}
	# Tasker Cook
		CAN_AM_Tasker_Cook = {
			picture = Generic_Portrait
			allowed = { tag = CAN }
			visible = {
				date > 1939.1.1
				date < 1964.1.1
				A_Minister_Allowed = yes
				NOT = { has_country_flag = Tasker_Cook_unavailable }
			}
			cost = 150
			removal_cost = 10
			traits = { ideology_A AM_Air_To_Ground_Proponent }
		}
	# Charles J. Howlett
		CAN_AM_Charles_J_Howlett = {
			picture = Generic_Portrait
			allowed = { tag = CAN }
			visible = {
				date > 1942.1.1
				date < 1964.1.1
				A_Minister_Allowed = yes
				NOT = { has_country_flag = Charles_J_Howlett_unavailable }
			}
			cost = 150
			removal_cost = 10
			traits = { ideology_A AM_Infantry_Proponent }
		}
	# René St. Pierre
		CAN_AM_Rene_St_Pierre = {
			picture = Generic_Portrait
			allowed = { tag = CAN }
			visible = {
				date > 1944.1.1
				date < 1964.1.1
				A_Minister_Allowed = yes
				NOT = { has_country_flag = Rene_St_Pierre_unavailable }
			}
			cost = 150
			removal_cost = 10
			traits = { ideology_A AM_Battle_Fleet_Proponent }
		}
	# Pierre Gagnon
		CAN_AM_Pierre_Gagnon = {
			picture = Generic_Portrait
			allowed = { tag = CAN }
			visible = {
				date > 1945.1.1
				date < 1964.1.1
				A_Minister_Allowed = yes
				NOT = { has_country_flag = Pierre_Gagnon_unavailable }
			}
			cost = 150
			removal_cost = 10
			traits = { ideology_A AM_Resource_Industrialist }
		}
	# Thomas Crothers
		CAN_AM_Thomas_Crothers = {
			picture = Generic_Portrait
			allowed = { tag = CAN }
			visible = {
				date > 1914.1.1
				date < 1933.1.1
				D_Minister_Allowed = yes
				NOT = { has_country_flag = Thomas_Crothers_unavailable }
			}
			cost = 150
			removal_cost = 10
			traits = { ideology_D AM_Laissez-faire_Capitalist }
		}
	# William Fielding
		CAN_AM_William_Fielding = {
			picture = Generic_Portrait
			allowed = { tag = CAN }
			visible = {
				date > 1914.1.1
				date < 1933.1.1
				D_Minister_Allowed = yes
				NOT = { has_country_flag = William_Fielding_unavailable }
			}
			cost = 150
			removal_cost = 10
			traits = { ideology_D AM_Administrative_Genius }
		}
	# George Foster
		CAN_AM_George_Foster = {
			picture = Generic_Portrait
			allowed = { tag = CAN }
			visible = {
				date > 1914.1.1
				date < 1933.1.1
				D_Minister_Allowed = yes
				NOT = { has_country_flag = George_Foster_unavailable }
			}
			cost = 150
			removal_cost = 10
			traits = { ideology_D AM_Administrative_Genius }
		}
	# William White
		CAN_AM_William_White = {
			picture = Generic_Portrait
			allowed = { tag = CAN }
			visible = {
				date > 1914.1.1
				date < 1933.1.1
				D_Minister_Allowed = yes
				NOT = { has_country_flag = William_White_unavailable }
			}
			cost = 150
			removal_cost = 10
			traits = { ideology_D AM_Resource_Industrialist }
		}
	# Henry Drayton
		CAN_AM_Henry_Drayton = {
			picture = Generic_Portrait
			allowed = { tag = CAN }
			visible = {
				date > 1919.1.1
				date < 1933.1.1
				D_Minister_Allowed = yes
				NOT = { has_country_flag = Henry_Drayton_unavailable }
			}
			cost = 150
			removal_cost = 10
			traits = { ideology_D AM_Military_Entrepreneur }
		}
	# Grote Stirling
		CAN_AM_Grote_Stirling = {
			picture = Generic_Portrait
			allowed = { tag = CAN }
			visible = {
				date > 1924.1.1
				date < 1952.1.1
				D_Minister_Allowed = yes
				NOT = { has_country_flag = Grote_Stirling_unavailable }
			}
			cost = 150
			removal_cost = 10
			traits = { ideology_D AM_Laissez-faire_Capitalist }
		}
	# Donald Matheson Sutherland
		CAN_AM_Donald_Matheson_Sutherland = {
			picture = Generic_Portrait
			allowed = { tag = CAN }
			visible = {
				date > 1931.1.1
				date < 1935.1.1
				D_Minister_Allowed = yes
				NOT = { has_country_flag = Donald_Matheson_Sutherland_unavailable }
			}
			cost = 150
			removal_cost = 10
			traits = { ideology_D AM_Laissez-faire_Capitalist }
		}
	# Arthur Meighen
		CAN_AM_Arthur_Meighen = {
			picture = Generic_Portrait
			allowed = { tag = CAN }
			visible = {
				date > 1940.1.1
				date < 1964.1.1
				D_Minister_Allowed = yes
				NOT = { has_country_flag = Arthur_Meighen_unavailable }
			}
			cost = 150
			removal_cost = 10
			traits = { ideology_D AM_Resource_Industrialist }
		}
	# C.D. Howe
		CAN_AM_CD_Howe = {
			picture = Generic_Portrait
			allowed = { tag = CAN }
			visible = {
				date > 1940.1.1
				date < 1964.1.1
				D_Minister_Allowed = yes
				NOT = { has_country_flag = CD_Howe_unavailable }
			}
			cost = 150
			removal_cost = 10
			traits = { ideology_D AM_Administrative_Genius }
		}
	# Ralph Osbourne Campney
		CAN_AM_Ralph_Osbourne_Campney = {
			picture = Generic_Portrait
			allowed = { tag = CAN }
			visible = {
				date > 1948.1.1
				date < 1964.1.1
				D_Minister_Allowed = yes
				NOT = { has_country_flag = Ralph_Osbourne_Campney_unavailable }
			}
			cost = 150
			removal_cost = 10
			traits = { ideology_D AM_Laissez-faire_Capitalist }
		}
	# George Pearkes
		CAN_AM_George_Pearkes = {
			picture = Generic_Portrait
			allowed = { tag = CAN }
			visible = {
				date > 1957.1.1
				date < 1964.1.1
				D_Minister_Allowed = yes
				NOT = { has_country_flag = George_Pearkes_unavailable }
			}
			cost = 150
			removal_cost = 10
			traits = { ideology_D AM_Infantry_Proponent }
		}
	# Doug Harkness
		CAN_AM_Doug_Harkness = {
			picture = Generic_Portrait
			allowed = { tag = CAN }
			visible = {
				date > 1960.1.1
				date < 1964.1.1
				D_Minister_Allowed = yes
				NOT = { has_country_flag = Doug_Harkness_unavailable }
			}
			cost = 150
			removal_cost = 10
			traits = { ideology_D AM_Laissez-faire_Capitalist }
		}
	# Gordon M. Churchill
		CAN_AM_Gordon_M_Churchill = {
			picture = Generic_Portrait
			allowed = { tag = CAN }
			visible = {
				date > 1963.1.1
				date < 1964.1.1
				D_Minister_Allowed = yes
				NOT = { has_country_flag = Gordon_M_Churchill_unavailable }
			}
			cost = 150
			removal_cost = 10
			traits = { ideology_D AM_Strategic_Air_Proponent }
		}
	# Paul Hellyer
		CAN_AM_Paul_Hellyer_2 = {
			picture = Generic_Portrait
			allowed = { tag = CAN }
			visible = {
				date > 1963.1.1
				date < 1988.1.1
				D_Minister_Allowed = yes
				NOT = { has_country_flag = Paul_Hellyer_unavailable }
			}
			cost = 150
			removal_cost = 10
			traits = { ideology_D AM_Laissez-faire_Capitalist }
		}
	# Allan B. McKinnon
		CAN_AM_Allan_B_McKinnon = {
			picture = Generic_Portrait
			allowed = { tag = CAN }
			visible = {
				date > 1979.1.1
				date < 1990.1.1
				D_Minister_Allowed = yes
				NOT = { has_country_flag = Allan_B_McKinnon_unavailable }
			}
			cost = 150
			removal_cost = 10
			traits = { ideology_D AM_Theoretical_Scientist }
		}
	# Robert Coates
		CAN_AM_Robert_Coates = {
			picture = Generic_Portrait
			allowed = { tag = CAN }
			visible = {
				date > 1984.1.1
				date < 1999.1.1
				D_Minister_Allowed = yes
				NOT = { has_country_flag = Robert_Coates_unavailable }
			}
			cost = 150
			removal_cost = 10
			traits = { ideology_D AM_Infantry_Proponent }
		}
	# Erik H. Nielsen
		CAN_AM_Erik_H_Nielsen = {
			picture = Generic_Portrait
			allowed = { tag = CAN }
			visible = {
				date > 1985.1.1
				date < 1995.1.1
				D_Minister_Allowed = yes
				NOT = { has_country_flag = Erik_H_Nielsen_unavailable }
			}
			cost = 150
			removal_cost = 10
			traits = { ideology_D AM_Laissez-faire_Capitalist }
		}
	# Thomas Crerar
		CAN_AM_Thomas_Crerar = {
			picture = Generic_Portrait
			allowed = { tag = CAN }
			visible = {
				date > 1917.1.1
				date < 1933.1.1
				D_Minister_Allowed = yes
				NOT = { has_country_flag = Thomas_Crerar_unavailable }
			}
			cost = 150
			removal_cost = 10
			traits = { ideology_D AM_Laissez-faire_Capitalist }
		}
	# Ian A. Mackenzie
		CAN_AM_Ian_A_Mackenzie = {
			picture = Generic_Portrait
			allowed = { tag = CAN }
			visible = {
				date > 1933.1.1
				date < 1964.1.1
				D_Minister_Allowed = yes
				NOT = { has_country_flag = Ian_A_Mackenzie_unavailable }
			}
			cost = 150
			removal_cost = 10
			traits = { ideology_D AM_Administrative_Genius }
		}
	# Raoul Dandurand
		CAN_AM_Raoul_Dandurand = {
			picture = Generic_Portrait
			allowed = { tag = CAN }
			visible = {
				date > 1933.1.1
				date < 1964.1.1
				D_Minister_Allowed = yes
				NOT = { has_country_flag = Raoul_Dandurand_unavailable }
			}
			cost = 150
			removal_cost = 10
			traits = { ideology_D AM_Laissez-faire_Capitalist }
		}
	# James Ralston
		CAN_AM_James_Ralston = {
			picture = Generic_Portrait
			allowed = { tag = CAN }
			visible = {
				date > 1939.1.1
				date < 1964.1.1
				D_Minister_Allowed = yes
				NOT = { has_country_flag = James_Ralston_unavailable }
			}
			cost = 150
			removal_cost = 10
			traits = { ideology_D AM_Infantry_Proponent }
		}
	# Douglas S. Abbott
		CAN_AM_Douglas_S_Abbott = {
			picture = Generic_Portrait
			allowed = { tag = CAN }
			visible = {
				date > 1944.1.1
				date < 1964.1.1
				D_Minister_Allowed = yes
				NOT = { has_country_flag = Douglas_S_Abbott_unavailable }
			}
			cost = 150
			removal_cost = 10
			traits = { ideology_D AM_Submarine_Proponent }
		}
	# Brooke Claxton
		CAN_AM_Brooke_Claxton = {
			picture = Generic_Portrait
			allowed = { tag = CAN }
			visible = {
				date > 1948.1.1
				date < 1964.1.1
				D_Minister_Allowed = yes
				NOT = { has_country_flag = Brooke_Claxton_unavailable }
			}
			cost = 150
			removal_cost = 10
			traits = { ideology_D AM_Air_Superiority_Proponent }
		}
	# Paul Hellyer
		CAN_AM_Paul_Hellyer = {
			picture = Generic_Portrait
			allowed = { tag = CAN }
			visible = {
				date > 1963.1.1
				date < 1964.1.1
				D_Minister_Allowed = yes
				NOT = { has_country_flag = Paul_Hellyer_unavailable }
			}
			cost = 150
			removal_cost = 10
			traits = { ideology_D AM_Military_Entrepreneur }
		}
	# Donald S. Macdonald
		CAN_AM_Donald_S_Macdonald = {
			picture = Generic_Portrait
			allowed = { tag = CAN }
			visible = {
				date > 1970.1.1
				date < 1991.1.1
				D_Minister_Allowed = yes
				NOT = { has_country_flag = Donald_S_Macdonald_unavailable }
			}
			cost = 150
			removal_cost = 10
			traits = { ideology_D AM_Laissez-faire_Capitalist }
		}
	# James A. Richardson
		CAN_AM_James_A_Richardson = {
			picture = Generic_Portrait
			allowed = { tag = CAN }
			visible = {
				date > 1972.1.1
				date < 1979.1.1
				D_Minister_Allowed = yes
				NOT = { has_country_flag = James_A_Richardson_unavailable }
			}
			cost = 150
			removal_cost = 10
			traits = { ideology_D AM_Resource_Industrialist }
		}
	# Perrin Beatty
		CAN_AM_Perrin_Beatty = {
			picture = Generic_Portrait
			allowed = { tag = CAN }
			visible = {
				date > 1986.1.1
				date < 2020.1.1
				D_Minister_Allowed = yes
				NOT = { has_country_flag = Perrin_Beatty_unavailable }
			}
			cost = 150
			removal_cost = 10
			traits = { ideology_D AM_Resource_Industrialist }
		}
	# Bill McKnight
		CAN_AM_Bill_McKnight = {
			picture = Generic_Portrait
			allowed = { tag = CAN }
			visible = {
				date > 1989.1.1
				date < 2020.1.1
				D_Minister_Allowed = yes
				NOT = { has_country_flag = Bill_McKnight_unavailable }
			}
			cost = 150
			removal_cost = 10
			traits = { ideology_D AM_Steel_Magnate }
		}
	# James Robb
		CAN_AM_James_Robb = {
			picture = Generic_Portrait
			allowed = { tag = CAN }
			visible = {
				date > 1914.1.1
				date < 1933.1.1
				D_Minister_Allowed = yes
				NOT = { has_country_flag = James_Robb_unavailable }
			}
			cost = 150
			removal_cost = 10
			traits = { ideology_D AM_Military_Entrepreneur }
		}
	# Léo Cadieux
		CAN_AM_Leo_Cadieux = {
			picture = Generic_Portrait
			allowed = { tag = CAN }
			visible = {
				date > 1967.1.1
				date < 1971.1.1
				D_Minister_Allowed = yes
				NOT = { has_country_flag = Leo_Cadieux_unavailable }
			}
			cost = 150
			removal_cost = 10
			traits = { ideology_D AM_Keynesian_Economy }
		}
	# Barney Danson
		CAN_AM_Barney_Danson = {
			picture = Generic_Portrait
			allowed = { tag = CAN }
			visible = {
				date > 1976.1.1
				date < 1995.1.1
				D_Minister_Allowed = yes
				NOT = { has_country_flag = Barney_Danson_unavailable }
			}
			cost = 150
			removal_cost = 10
			traits = { ideology_D AM_Military_Entrepreneur }
		}
	# Gilles Lamontagne
		CAN_AM_Gilles_Lamontagne = {
			picture = Generic_Portrait
			allowed = { tag = CAN }
			visible = {
				date > 1980.1.1
				date < 1990.1.1
				D_Minister_Allowed = yes
				NOT = { has_country_flag = Gilles_Lamontagne_unavailable }
			}
			cost = 150
			removal_cost = 10
			traits = { ideology_D AM_Keynesian_Economy }
		}
	# Jean-Jacques Blais
		CAN_AM_JeanJacques_Blais = {
			picture = Generic_Portrait
			allowed = { tag = CAN }
			visible = {
				date > 1980.1.1
				date < 2002.1.1
				D_Minister_Allowed = yes
				NOT = { has_country_flag = JeanJacques_Blais_unavailable }
			}
			cost = 150
			removal_cost = 10
			traits = { ideology_D AM_Administrative_Genius }
		}
	# Matthew Popovich
		CAN_AM_Matthew_Popovich = {
			picture = Generic_Portrait
			allowed = { tag = CAN }
			visible = {
				date > 1933.1.1
				date < 1964.1.1
				S_Minister_Allowed = yes
				NOT = { has_country_flag = Matthew_Popovich_unavailable }
			}
			cost = 150
			removal_cost = 10
			traits = { ideology_S AM_Tank_Proponent }
		}
	# Robert M. Edwards
		CAN_AM_Robert_M_Edwards = {
			picture = Generic_Portrait
			allowed = { tag = CAN }
			visible = {
				date > 1941.1.1
				date < 1964.1.1
				S_Minister_Allowed = yes
				NOT = { has_country_flag = Robert_M_Edwards_unavailable }
			}
			cost = 150
			removal_cost = 10
			traits = { ideology_S AM_Infantry_Proponent }
		}
	# William Kashtan
		CAN_AM_William_Kashtan = {
			picture = Generic_Portrait
			allowed = { tag = CAN }
			visible = {
				date > 1938.1.1
				date < 1964.1.1
				C_Minister_Allowed = yes
				NOT = { has_country_flag = William_Kashtan_unavailable }
			}
			cost = 150
			removal_cost = 10
			traits = { ideology_C AM_Resource_Industrialist }
		}
	# Bob Mann
		CAN_AM_Bob_Mann = {
			picture = Generic_Portrait
			allowed = { tag = CAN }
			visible = {
				date > 1943.1.1
				date < 1964.1.1
				C_Minister_Allowed = yes
				NOT = { has_country_flag = Bob_Mann_unavailable }
			}
			cost = 150
			removal_cost = 10
			traits = { ideology_C AM_Air_Superiority_Proponent }
		}
}
#################################################
### Head of Intelligence
#################################################
	Head_of_Intelligence = {
	# Andrew Greene Carnell
		CAN_HoI_Andrew_Greene_Carnell = {
			picture = Generic_Portrait
			allowed = { tag = CAN }
			visible = {
				date > 1933.1.1
				date < 1964.1.1
				A_Minister_Allowed = yes
				NOT = { has_country_flag = Andrew_Greene_Carnell_unavailable }
			}
			cost = 150
			removal_cost = 10
			traits = { ideology_A HoI_Political_Specialist }
		}
	# Pierre Berton
		CAN_HoI_Pierre_Berton = {
			picture = Generic_Portrait
			allowed = { tag = CAN }
			visible = {
				date > 1938.1.1
				date < 1964.1.1
				A_Minister_Allowed = yes
				NOT = { has_country_flag = Pierre_Berton_unavailable }
			}
			cost = 150
			removal_cost = 10
			traits = { ideology_A HoI_Dismal_Enigma }
		}
	# René St. Pierre
		CAN_HoI_Rene_St_Pierre = {
			picture = Generic_Portrait
			allowed = { tag = CAN }
			visible = {
				date > 1941.1.1
				date < 1964.1.1
				A_Minister_Allowed = yes
				NOT = { has_country_flag = Rene_St_Pierre_unavailable }
			}
			cost = 150
			removal_cost = 10
			traits = { ideology_A HoI_Industrial_Specialist }
		}
	# Jean Couillard
		CAN_HoI_Jean_Couillard = {
			picture = Generic_Portrait
			allowed = { tag = CAN }
			visible = {
				date > 1943.1.1
				date < 1964.1.1
				A_Minister_Allowed = yes
				NOT = { has_country_flag = Jean_Couillard_unavailable }
			}
			cost = 150
			removal_cost = 10
			traits = { ideology_A HoI_Naval_Intelligence_Specialist }
		}
	# Aylesworth Perry
		CAN_HoI_Aylesworth_Perry = {
			picture = Generic_Portrait
			allowed = { tag = CAN }
			visible = {
				date > 1914.1.1
				date < 1933.1.1
				D_Minister_Allowed = yes
				NOT = { has_country_flag = Aylesworth_Perry_unavailable }
			}
			cost = 150
			removal_cost = 10
			traits = { ideology_D HoI_Political_Specialist }
		}
	# Maurice Pope
		CAN_HoI_Maurice_Pope = {
			picture = Generic_Portrait
			allowed = { tag = CAN }
			visible = {
				date > 1933.1.1
				date < 1964.1.1
				D_Minister_Allowed = yes
				NOT = { has_country_flag = Maurice_Pope_unavailable }
			}
			cost = 150
			removal_cost = 10
			traits = { ideology_D HoI_Political_Specialist }
		}
	# William G. Adams
		CAN_HoI_William_G_Adams = {
			picture = Generic_Portrait
			allowed = { tag = CAN }
			visible = {
				date > 1944.1.1
				date < 1964.1.1
				D_Minister_Allowed = yes
				NOT = { has_country_flag = William_G_Adams_unavailable }
			}
			cost = 150
			removal_cost = 10
			traits = { ideology_D HoI_Naval_Intelligence_Specialist }
		}
	# Bill Newson
		CAN_HoI_Bill_Newson = {
			picture = Generic_Portrait
			allowed = { tag = CAN }
			visible = {
				date > 1951.1.1
				date < 1964.1.1
				D_Minister_Allowed = yes
				NOT = { has_country_flag = Bill_Newson_unavailable }
			}
			cost = 150
			removal_cost = 10
			traits = { ideology_D HoI_Logistics_Specialist }
		}
	# Donald M. Fleming
		CAN_HoI_Donald_M_Fleming = {
			picture = Generic_Portrait
			allowed = { tag = CAN }
			visible = {
				date > 1957.1.1
				date < 1964.1.1
				D_Minister_Allowed = yes
				NOT = { has_country_flag = Donald_M_Fleming_unavailable }
			}
			cost = 150
			removal_cost = 10
			traits = { ideology_D HoI_Dismal_Enigma }
		}
	# Ray Hnatyshyn
		CAN_HoI_Ray_Hnatyshyn = {
			picture = Generic_Portrait
			allowed = { tag = CAN }
			visible = {
				date > 1986.1.1
				date < 2003.1.1
				D_Minister_Allowed = yes
				NOT = { has_country_flag = Ray_Hnatyshyn_unavailable }
			}
			cost = 150
			removal_cost = 10
			traits = { ideology_D HoI_Naval_Intelligence_Specialist }
		}
	# Henry Crerar
		CAN_HoI_Henry_Crerar = {
			picture = Generic_Portrait
			allowed = { tag = CAN }
			visible = {
				date > 1933.1.1
				date < 1964.1.1
				D_Minister_Allowed = yes
				NOT = { has_country_flag = Henry_Crerar_unavailable }
			}
			cost = 150
			removal_cost = 10
			traits = { ideology_D HoI_Technical_Specialist }
		}
	# Herbert Brown Ames
		CAN_HoI_Herbert_Brown_Ames = {
			picture = Generic_Portrait
			allowed = { tag = CAN }
			visible = {
				date > 1937.1.1
				date < 1964.1.1
				D_Minister_Allowed = yes
				NOT = { has_country_flag = Herbert_Brown_Ames_unavailable }
			}
			cost = 150
			removal_cost = 10
			traits = { ideology_D HoI_Dismal_Enigma }
		}
	# Kenneth Stuart
		CAN_HoI_Kenneth_Stuart = {
			picture = Generic_Portrait
			allowed = { tag = CAN }
			visible = {
				date > 1940.1.1
				date < 1964.1.1
				D_Minister_Allowed = yes
				NOT = { has_country_flag = Kenneth_Stuart_unavailable }
			}
			cost = 150
			removal_cost = 10
			traits = { ideology_D HoI_Technical_Specialist }
		}
	# Ralph Gibson
		CAN_HoI_Ralph_Gibson = {
			picture = Generic_Portrait
			allowed = { tag = CAN }
			visible = {
				date > 1944.1.1
				date < 1964.1.1
				D_Minister_Allowed = yes
				NOT = { has_country_flag = Ralph_Gibson_unavailable }
			}
			cost = 150
			removal_cost = 10
			traits = { ideology_D HoI_Industrial_Specialist }
		}
	# Walter Edward Harris
		CAN_HoI_Walter_Edward_Harris = {
			picture = Generic_Portrait
			allowed = { tag = CAN }
			visible = {
				date > 1948.1.1
				date < 1964.1.1
				D_Minister_Allowed = yes
				NOT = { has_country_flag = Walter_Edward_Harris_unavailable }
			}
			cost = 150
			removal_cost = 10
			traits = { ideology_D HoI_Dismal_Enigma }
		}
	# Douglas C. Abbott
		CAN_HoI_Douglas_C_Abbott = {
			picture = Generic_Portrait
			allowed = { tag = CAN }
			visible = {
				date > 1949.1.1
				date < 1964.1.1
				D_Minister_Allowed = yes
				NOT = { has_country_flag = Douglas_C_Abbott_unavailable }
			}
			cost = 150
			removal_cost = 10
			traits = { ideology_D HoI_Political_Specialist }
		}
	# George Nowlan
		CAN_HoI_George_Nowlan = {
			picture = Generic_Portrait
			allowed = { tag = CAN }
			visible = {
				date > 1963.1.1
				date < 1964.1.1
				D_Minister_Allowed = yes
				NOT = { has_country_flag = George_Nowlan_unavailable }
			}
			cost = 150
			removal_cost = 10
			traits = { ideology_D HoI_Technical_Specialist }
		}
	# Lucien Cardin
		CAN_HoI_Lucien_Cardin = {
			picture = Generic_Portrait
			allowed = { tag = CAN }
			visible = {
				date > 1965.1.1
				date < 1979.1.1
				D_Minister_Allowed = yes
				NOT = { has_country_flag = Lucien_Cardin_unavailable }
			}
			cost = 150
			removal_cost = 10
			traits = { ideology_D HoI_Technical_Specialist }
		}
	# Otto Lang
		CAN_HoI_Otto_Lang = {
			picture = Generic_Portrait
			allowed = { tag = CAN }
			visible = {
				date > 1972.1.1
				date < 1979.1.1
				D_Minister_Allowed = yes
				NOT = { has_country_flag = Otto_Lang_unavailable }
			}
			cost = 150
			removal_cost = 10
			traits = { ideology_D HoI_Industrial_Specialist }
		}
	# Jacques Flynn
		CAN_HoI_Jacques_Flynn = {
			picture = Generic_Portrait
			allowed = { tag = CAN }
			visible = {
				date > 1979.1.1
				date < 1991.1.1
				D_Minister_Allowed = yes
				NOT = { has_country_flag = Jacques_Flynn_unavailable }
			}
			cost = 150
			removal_cost = 10
			traits = { ideology_D HoI_Dismal_Enigma }
		}
	# Jean Chrétien
		CAN_HoI_Jean_Chretien = {
			picture = Generic_Portrait
			allowed = { tag = CAN }
			visible = {
				date > 1980.1.1
				date < 2020.1.1
				D_Minister_Allowed = yes
				NOT = { has_country_flag = Jean_Chretien_unavailable }
			}
			cost = 150
			removal_cost = 10
			traits = { ideology_D HoI_Political_Specialist }
		}
	# John Crosbie
		CAN_HoI_John_Crosbie = {
			picture = Generic_Portrait
			allowed = { tag = CAN }
			visible = {
				date > 1984.1.1
				date < 2020.1.1
				D_Minister_Allowed = yes
				NOT = { has_country_flag = John_Crosbie_unavailable }
			}
			cost = 150
			removal_cost = 10
			traits = { ideology_D HoI_Political_Specialist }
		}
	# Guy Favreau
		CAN_HoI_Guy_Favreau = {
			picture = Generic_Portrait
			allowed = { tag = CAN }
			visible = {
				date > 1964.1.1
				date < 1965.1.1
				D_Minister_Allowed = yes
				NOT = { has_country_flag = Guy_Favreau_unavailable }
			}
			cost = 150
			removal_cost = 10
			traits = { ideology_D HoI_Dismal_Enigma }
		}
	# Pierre Trudeau
		CAN_HoI_Pierre_Trudeau = {
			picture = Generic_Portrait
			allowed = { tag = CAN }
			visible = {
				date > 1967.1.1
				date < 1969.1.1
				D_Minister_Allowed = yes
				NOT = { has_country_flag = Pierre_Trudeau_unavailable }
			}
			cost = 150
			removal_cost = 10
			traits = { ideology_D HoI_Dismal_Enigma }
		}
	# John Turner
		CAN_HoI_John_Turner = {
			picture = Generic_Portrait
			allowed = { tag = CAN }
			visible = {
				date > 1968.1.1
				date < 2020.1.1
				D_Minister_Allowed = yes
				NOT = { has_country_flag = John_Turner_unavailable }
			}
			cost = 150
			removal_cost = 10
			traits = { ideology_D HoI_Political_Specialist }
		}
	# Ron Basford
		CAN_HoI_Ron_Basford = {
			picture = Generic_Portrait
			allowed = { tag = CAN }
			visible = {
				date > 1975.1.1
				date < 1979.1.1
				D_Minister_Allowed = yes
				NOT = { has_country_flag = Ron_Basford_unavailable }
			}
			cost = 150
			removal_cost = 10
			traits = { ideology_D HoI_Political_Specialist }
		}
	# Mark MacGuigan
		CAN_HoI_Mark_MacGuigan = {
			picture = Generic_Portrait
			allowed = { tag = CAN }
			visible = {
				date > 1980.1.1
				date < 1998.1.1
				D_Minister_Allowed = yes
				NOT = { has_country_flag = Mark_MacGuigan_unavailable }
			}
			cost = 150
			removal_cost = 10
			traits = { ideology_D HoI_Technical_Specialist }
		}
	# Jacques Robert
		CAN_HoI_Jacques_Robert = {
			picture = Generic_Portrait
			allowed = { tag = CAN }
			visible = {
				date > 1933.1.1
				date < 1964.1.1
				C_Minister_Allowed = yes
				NOT = { has_country_flag = Jacques_Robert_unavailable }
			}
			cost = 150
			removal_cost = 10
			traits = { ideology_C HoI_Political_Specialist }
		}
	# John Lethbridge
		CAN_HoI_John_Lethbridge = {
			picture = Generic_Portrait
			allowed = { tag = CAN }
			visible = {
				date > 1942.1.1
				date < 1964.1.1
				C_Minister_Allowed = yes
				NOT = { has_country_flag = John_Lethbridge_unavailable }
			}
			cost = 150
			removal_cost = 10
			traits = { ideology_C HoI_Logistics_Specialist }
		}
	# Jacques Richard
		CAN_HoI_Jacques_Richard = {
			picture = Generic_Portrait
			allowed = { tag = CAN }
			visible = {
				date > 1943.1.1
				date < 1964.1.1
				C_Minister_Allowed = yes
				NOT = { has_country_flag = Jacques_Richard_unavailable }
			}
			cost = 150
			removal_cost = 10
			traits = { ideology_C HoI_Naval_Intelligence_Specialist }
		}
	# William Dees
		CAN_HoI_William_Dees = {
			picture = Generic_Portrait
			allowed = { tag = CAN }
			visible = {
				date > 1945.1.1
				date < 1964.1.1
				C_Minister_Allowed = yes
				NOT = { has_country_flag = William_Dees_unavailable }
			}
			cost = 150
			removal_cost = 10
			traits = { ideology_C HoI_Technical_Specialist }
		}
}
#################################################
### Chief of Staff
#################################################
	Chief_of_Staff = {
	# Frederick M.W. Harvey
		CAN_CoStaff_Frederick_MW_Harvey = {
			picture = Generic_Portrait
			allowed = { tag = CAN }
			visible = {
				date > 1933.1.1
				date < 1964.1.1
				A_Minister_Allowed = yes
				NOT = { has_country_flag = Frederick_MW_Harvey_unavailable }
			}
			cost = 150
			removal_cost = 10
			traits = { ideology_A CoStaff_School_Of_Mass_Combat }
		}
	# Hugh Guthrie
		CAN_CoStaff_Hugh_Guthrie = {
			picture = Generic_Portrait
			allowed = { tag = CAN }
			visible = {
				date > 1914.1.1
				date < 1933.1.1
				D_Minister_Allowed = yes
				NOT = { has_country_flag = Hugh_Guthrie_unavailable }
			}
			cost = 150
			removal_cost = 10
			traits = { ideology_D CoStaff_School_Of_Fire_Support }
		}
	# Sam Hughes
		CAN_CoStaff_Sam_Hughes = {
			picture = Generic_Portrait
			allowed = { tag = CAN }
			visible = {
				date > 1914.1.1
				date < 1933.1.1
				D_Minister_Allowed = yes
				NOT = { has_country_flag = Sam_Hughes_unavailable }
			}
			cost = 150
			removal_cost = 10
			traits = { ideology_D CoStaff_School_Of_Defence }
		}
	# Albert Kemp
		CAN_CoStaff_Albert_Kemp = {
			picture = Generic_Portrait
			allowed = { tag = CAN }
			visible = {
				date > 1914.1.1
				date < 1933.1.1
				D_Minister_Allowed = yes
				NOT = { has_country_flag = Albert_Kemp_unavailable }
			}
			cost = 150
			removal_cost = 10
			traits = { ideology_D CoStaff_School_Of_Mass_Combat }
		}
	# Sydney Mewburn
		CAN_CoStaff_Sydney_Mewburn = {
			picture = Generic_Portrait
			allowed = { tag = CAN }
			visible = {
				date > 1914.1.1
				date < 1933.1.1
				D_Minister_Allowed = yes
				NOT = { has_country_flag = Sydney_Mewburn_unavailable }
			}
			cost = 150
			removal_cost = 10
			traits = { ideology_D CoStaff_School_Of_Defence }
		}
	# Willoughby Gwatkin
		CAN_CoStaff_Willoughby_Gwatkin = {
			picture = Generic_Portrait
			allowed = { tag = CAN }
			visible = {
				date > 1914.1.1
				date < 1933.1.1
				D_Minister_Allowed = yes
				NOT = { has_country_flag = Willoughby_Gwatkin_unavailable }
			}
			cost = 150
			removal_cost = 10
			traits = { ideology_D CoStaff_School_Of_Defence }
		}
	# Kenneth Stuart
		CAN_CoStaff_Kenneth_Stuart = {
			picture = Generic_Portrait
			allowed = { tag = CAN }
			visible = {
				date > 1933.1.1
				date < 1964.1.1
				D_Minister_Allowed = yes
				NOT = { has_country_flag = Kenneth_Stuart_unavailable }
			}
			cost = 150
			removal_cost = 10
			traits = { ideology_D CoStaff_School_Of_Mass_Combat }
		}
	# John Murchie
		CAN_CoStaff_John_Murchie = {
			picture = Generic_Portrait
			allowed = { tag = CAN }
			visible = {
				date > 1940.1.1
				date < 1964.1.1
				D_Minister_Allowed = yes
				NOT = { has_country_flag = John_Murchie_unavailable }
			}
			cost = 150
			removal_cost = 10
			traits = { ideology_D CoStaff_School_Of_Fire_Support }
		}
	# Charles Foulkes
		CAN_CoStaff_Charles_Foulkes = {
			picture = Generic_Portrait
			allowed = { tag = CAN }
			visible = {
				date > 1944.1.1
				date < 1964.1.1
				D_Minister_Allowed = yes
				NOT = { has_country_flag = Charles_Foulkes_unavailable }
			}
			cost = 150
			removal_cost = 10
			traits = { ideology_D CoStaff_School_Of_Manoeuvre }
		}
	# Frank Robert Miller
		CAN_CoStaff_Frank_Robert_Miller = {
			picture = Generic_Portrait
			allowed = { tag = CAN }
			visible = {
				date > 1955.1.1
				date < 1975.1.1
				D_Minister_Allowed = yes
				NOT = { has_country_flag = Frank_Robert_Miller_unavailable }
			}
			cost = 150
			removal_cost = 10
			traits = { ideology_D CoStaff_School_Of_Fire_Support }
		}
	# Geoffrey Walsh
		CAN_CoStaff_Geoffrey_Walsh = {
			picture = Generic_Portrait
			allowed = { tag = CAN }
			visible = {
				date > 1958.1.1
				date < 1964.1.1
				D_Minister_Allowed = yes
				NOT = { has_country_flag = Geoffrey_Walsh_unavailable }
			}
			cost = 150
			removal_cost = 10
			traits = { ideology_D CoStaff_School_Of_Mass_Combat }
		}
	# Ramsey M. Withers
		CAN_CoStaff_Ramsey_M_Withers = {
			picture = Generic_Portrait
			allowed = { tag = CAN }
			visible = {
				date > 1980.1.1
				date < 1989.1.1
				D_Minister_Allowed = yes
				NOT = { has_country_flag = Ramsey_M_Withers_unavailable }
			}
			cost = 150
			removal_cost = 10
			traits = { ideology_D CoStaff_School_Of_Defence }
		}
	# James Calder
		CAN_CoStaff_James_Calder = {
			picture = Generic_Portrait
			allowed = { tag = CAN }
			visible = {
				date > 1917.1.1
				date < 1933.1.1
				D_Minister_Allowed = yes
				NOT = { has_country_flag = James_Calder_unavailable }
			}
			cost = 150
			removal_cost = 10
			traits = { ideology_D CoStaff_School_Of_Defence }
		}
	# Ernest Ashton
		CAN_CoStaff_Ernest_Ashton = {
			picture = Generic_Portrait
			allowed = { tag = CAN }
			visible = {
				date > 1933.1.1
				date < 1964.1.1
				D_Minister_Allowed = yes
				NOT = { has_country_flag = Ernest_Ashton_unavailable }
			}
			cost = 150
			removal_cost = 10
			traits = { ideology_D CoStaff_School_Of_Fire_Support }
		}
	# Thomas Anderson
		CAN_CoStaff_Thomas_Anderson = {
			picture = Generic_Portrait
			allowed = { tag = CAN }
			visible = {
				date > 1940.1.1
				date < 1964.1.1
				D_Minister_Allowed = yes
				NOT = { has_country_flag = Thomas_Anderson_unavailable }
			}
			cost = 150
			removal_cost = 10
			traits = { ideology_D CoStaff_School_Of_Defence }
		}
	# Henry Crerar
		CAN_CoStaff_Henry_Crerar = {
			picture = Generic_Portrait
			allowed = { tag = CAN }
			visible = {
				date > 1942.1.1
				date < 1964.1.1
				D_Minister_Allowed = yes
				NOT = { has_country_flag = Henry_Crerar_unavailable }
			}
			cost = 150
			removal_cost = 10
			traits = { ideology_D CoStaff_School_Of_Psychology }
		}
	# Guy Simonds
		CAN_CoStaff_Guy_Simonds = {
			picture = Generic_Portrait
			allowed = { tag = CAN }
			visible = {
				date > 1951.1.1
				date < 1964.1.1
				D_Minister_Allowed = yes
				NOT = { has_country_flag = Guy_Simonds_unavailable }
			}
			cost = 150
			removal_cost = 10
			traits = { ideology_D CoStaff_School_Of_Manoeuvre }
		}
	# Howard Graham
		CAN_CoStaff_Howard_Graham = {
			picture = Generic_Portrait
			allowed = { tag = CAN }
			visible = {
				date > 1955.1.1
				date < 1964.1.1
				D_Minister_Allowed = yes
				NOT = { has_country_flag = Howard_Graham_unavailable }
			}
			cost = 150
			removal_cost = 10
			traits = { ideology_D CoStaff_School_Of_Fire_Support }
		}
	# Jean Victor Allard
		CAN_CoStaff_Jean_Victor_Allard = {
			picture = Generic_Portrait
			allowed = { tag = CAN }
			visible = {
				date > 1965.1.1
				date < 1979.1.1
				D_Minister_Allowed = yes
				NOT = { has_country_flag = Jean_Victor_Allard_unavailable }
			}
			cost = 150
			removal_cost = 10
			traits = { ideology_D CoStaff_School_Of_Manoeuvre }
		}
	# Frederick Ralph Sharp
		CAN_CoStaff_Frederick_Ralph_Sharp = {
			picture = Generic_Portrait
			allowed = { tag = CAN }
			visible = {
				date > 1969.1.1
				date < 1979.1.1
				D_Minister_Allowed = yes
				NOT = { has_country_flag = Frederick_Ralph_Sharp_unavailable }
			}
			cost = 150
			removal_cost = 10
			traits = { ideology_D CoStaff_School_Of_Defence }
		}
	# Jacques A. Dextraze
		CAN_CoStaff_Jacques_A_Dextraze = {
			picture = Generic_Portrait
			allowed = { tag = CAN }
			visible = {
				date > 1972.1.1
				date < 1979.1.1
				D_Minister_Allowed = yes
				NOT = { has_country_flag = Jacques_A_Dextraze_unavailable }
			}
			cost = 150
			removal_cost = 10
			traits = { ideology_D CoStaff_School_Of_Psychology }
		}
	# G.C.E. Theriault
		CAN_CoStaff_GCE_Theriault = {
			picture = Generic_Portrait
			allowed = { tag = CAN }
			visible = {
				date > 1983.1.1
				date < 1995.1.1
				D_Minister_Allowed = yes
				NOT = { has_country_flag = GCE_Theriault_unavailable }
			}
			cost = 150
			removal_cost = 10
			traits = { ideology_D CoStaff_School_Of_Manoeuvre }
		}
	# Paul D. Manson
		CAN_CoStaff_Paul_D_Manson = {
			picture = Generic_Portrait
			allowed = { tag = CAN }
			visible = {
				date > 1986.1.1
				date < 1999.1.1
				D_Minister_Allowed = yes
				NOT = { has_country_flag = Paul_D_Manson_unavailable }
			}
			cost = 150
			removal_cost = 10
			traits = { ideology_D CoStaff_School_Of_Psychology }
		}
	# John de Chastelain
		CAN_CoStaff_John_de_Chastelain = {
			picture = Generic_Portrait
			allowed = { tag = CAN }
			visible = {
				date > 1988.1.1
				date < 2020.1.1
				D_Minister_Allowed = yes
				NOT = { has_country_flag = John_de_Chastelain_unavailable }
			}
			cost = 150
			removal_cost = 10
			traits = { ideology_D CoStaff_School_Of_Manoeuvre }
		}
	# Frederick Borden
		CAN_CoStaff_Frederick_Borden = {
			picture = Generic_Portrait
			allowed = { tag = CAN }
			visible = {
				date > 1914.1.1
				date < 1933.1.1
				D_Minister_Allowed = yes
				NOT = { has_country_flag = Frederick_Borden_unavailable }
			}
			cost = 150
			removal_cost = 10
			traits = { ideology_D CoStaff_School_Of_Mass_Combat }
		}
	# George Graham
		CAN_CoStaff_George_Graham = {
			picture = Generic_Portrait
			allowed = { tag = CAN }
			visible = {
				date > 1914.1.1
				date < 1933.1.1
				D_Minister_Allowed = yes
				NOT = { has_country_flag = George_Graham_unavailable }
			}
			cost = 150
			removal_cost = 10
			traits = { ideology_D CoStaff_School_Of_Defence }
		}
	# Robert Hilborn Falls
		CAN_CoStaff_Robert_Hilborn_Falls = {
			picture = Generic_Portrait
			allowed = { tag = CAN }
			visible = {
				date > 1977.1.1
				date < 1981.1.1
				D_Minister_Allowed = yes
				NOT = { has_country_flag = Robert_Hilborn_Falls_unavailable }
			}
			cost = 150
			removal_cost = 10
			traits = { ideology_D CoStaff_School_Of_Mass_Combat }
		}
	# Robert M. Edwards
		CAN_CoStaff_Robert_M_Edwards = {
			picture = Generic_Portrait
			allowed = { tag = CAN }
			visible = {
				date > 1933.1.1
				date < 1964.1.1
				S_Minister_Allowed = yes
				NOT = { has_country_flag = Robert_M_Edwards_unavailable }
			}
			cost = 150
			removal_cost = 10
			traits = { ideology_S CoStaff_School_Of_Defence }
		}
	# Samuel Cino
		CAN_CoStaff_Samuel_Cino = {
			picture = Generic_Portrait
			allowed = { tag = CAN }
			visible = {
				date > 1943.1.1
				date < 1964.1.1
				C_Minister_Allowed = yes
				NOT = { has_country_flag = Samuel_Cino_unavailable }
			}
			cost = 150
			removal_cost = 10
			traits = { ideology_C CoStaff_School_Of_Fire_Support }
		}
}
#################################################
### Chief of Army
#################################################
	Chief_of_Army = {
	# Frederick M.W. Harvey
		CAN_CoArmy_Frederick_MW_Harvey = {
			picture = Generic_Portrait
			allowed = { tag = CAN }
			visible = {
				date > 1944.1.1
				date < 1964.1.1
				A_Minister_Allowed = yes
				NOT = { has_country_flag = Frederick_MW_Harvey_unavailable }
			}
			cost = 150
			removal_cost = 10
			traits = { ideology_A CoArmy_Guns_And_Butter_Doctrine }
		}
	# William Otter
		CAN_CoArmy_William_Otter = {
			picture = Generic_Portrait
			allowed = { tag = CAN }
			visible = {
				date > 1914.1.1
				date < 1933.1.1
				D_Minister_Allowed = yes
				NOT = { has_country_flag = William_Otter_unavailable }
			}
			cost = 150
			removal_cost = 10
			traits = { ideology_D CoArmy_Decisive_Battle_Doctrine }
		}
	# Willoughby Gwatkin
		CAN_CoArmy_Willoughby_Gwatkin = {
			picture = Generic_Portrait
			allowed = { tag = CAN }
			visible = {
				date > 1914.1.1
				date < 1933.1.1
				D_Minister_Allowed = yes
				NOT = { has_country_flag = Willoughby_Gwatkin_unavailable }
			}
			cost = 150
			removal_cost = 10
			traits = { ideology_D CoArmy_Static_Defence_Doctrine }
		}
	# Herbert Thacker
		CAN_CoArmy_Herbert_Thacker = {
			picture = Generic_Portrait
			allowed = { tag = CAN }
			visible = {
				date > 1917.1.1
				date < 1933.1.1
				D_Minister_Allowed = yes
				NOT = { has_country_flag = Herbert_Thacker_unavailable }
			}
			cost = 150
			removal_cost = 10
			traits = { ideology_D CoArmy_Guns_And_Butter_Doctrine }
		}
	# James MacBrien
		CAN_CoArmy_James_MacBrien = {
			picture = Generic_Portrait
			allowed = { tag = CAN }
			visible = {
				date > 1918.1.1
				date < 1933.1.1
				D_Minister_Allowed = yes
				NOT = { has_country_flag = James_MacBrien_unavailable }
			}
			cost = 150
			removal_cost = 10
			traits = { ideology_D CoArmy_Elastic_Defence_Doctrine }
		}
	# Kenneth Stuart
		CAN_CoArmy_Kenneth_Stuart = {
			picture = Generic_Portrait
			allowed = { tag = CAN }
			visible = {
				date > 1933.1.1
				date < 1964.1.1
				D_Minister_Allowed = yes
				NOT = { has_country_flag = Kenneth_Stuart_unavailable }
			}
			cost = 150
			removal_cost = 10
			traits = { ideology_D CoArmy_Decisive_Battle_Doctrine }
		}
	# John Murchie
		CAN_CoArmy_John_Murchie = {
			picture = Generic_Portrait
			allowed = { tag = CAN }
			visible = {
				date > 1940.1.1
				date < 1964.1.1
				D_Minister_Allowed = yes
				NOT = { has_country_flag = John_Murchie_unavailable }
			}
			cost = 150
			removal_cost = 10
			traits = { ideology_D CoArmy_Armoured_Spearhead_Doctrine }
		}
	# Charles Foulkes
		CAN_CoArmy_Charles_Foulkes = {
			picture = Generic_Portrait
			allowed = { tag = CAN }
			visible = {
				date > 1944.1.1
				date < 1964.1.1
				D_Minister_Allowed = yes
				NOT = { has_country_flag = Charles_Foulkes_unavailable }
			}
			cost = 150
			removal_cost = 10
			traits = { ideology_D CoArmy_Elastic_Defence_Doctrine }
		}
	# Samuel F. Clark
		CAN_CoArmy_Samuel_F_Clark = {
			picture = Generic_Portrait
			allowed = { tag = CAN }
			visible = {
				date > 1958.1.1
				date < 1970.1.1
				D_Minister_Allowed = yes
				NOT = { has_country_flag = Samuel_F_Clark_unavailable }
			}
			cost = 150
			removal_cost = 10
			traits = { ideology_D CoArmy_Static_Defence_Doctrine }
		}
	# Geoffrey Walsh
		CAN_CoArmy_Geoffrey_Walsh = {
			picture = Generic_Portrait
			allowed = { tag = CAN }
			visible = {
				date > 1958.1.1
				date < 1964.1.1
				D_Minister_Allowed = yes
				NOT = { has_country_flag = Geoffrey_Walsh_unavailable }
			}
			cost = 150
			removal_cost = 10
			traits = { ideology_D CoArmy_Commando_Doctrine_Army }
		}
	# Clarence Harpell
		CAN_CoArmy_Clarence_Harpell = {
			picture = Generic_Portrait
			allowed = { tag = CAN }
			visible = {
				date > 1961.1.1
				date < 1964.1.1
				D_Minister_Allowed = yes
				NOT = { has_country_flag = Clarence_Harpell_unavailable }
			}
			cost = 150
			removal_cost = 10
			traits = { ideology_D CoArmy_Elastic_Defence_Doctrine }
		}
	# Gilles Turcot
		CAN_CoArmy_Gilles_Turcot = {
			picture = Generic_Portrait
			allowed = { tag = CAN }
			visible = {
				date > 1969.1.1
				date < 1985.1.1
				D_Minister_Allowed = yes
				NOT = { has_country_flag = Gilles_Turcot_unavailable }
			}
			cost = 150
			removal_cost = 10
			traits = { ideology_D CoArmy_Commando_Doctrine_Army }
		}
	# Ernest Ashton
		CAN_CoArmy_Ernest_Ashton = {
			picture = Generic_Portrait
			allowed = { tag = CAN }
			visible = {
				date > 1933.1.1
				date < 1964.1.1
				D_Minister_Allowed = yes
				NOT = { has_country_flag = Ernest_Ashton_unavailable }
			}
			cost = 150
			removal_cost = 10
			traits = { ideology_D CoArmy_Guns_And_Butter_Doctrine }
		}
	# Thomas Anderson
		CAN_CoArmy_Thomas_Anderson = {
			picture = Generic_Portrait
			allowed = { tag = CAN }
			visible = {
				date > 1940.1.1
				date < 1964.1.1
				D_Minister_Allowed = yes
				NOT = { has_country_flag = Thomas_Anderson_unavailable }
			}
			cost = 150
			removal_cost = 10
			traits = { ideology_D CoArmy_Static_Defence_Doctrine }
		}
	# Henry Crerar
		CAN_CoArmy_Henry_Crerar = {
			picture = Generic_Portrait
			allowed = { tag = CAN }
			visible = {
				date > 1944.1.1
				date < 1964.1.1
				D_Minister_Allowed = yes
				NOT = { has_country_flag = Henry_Crerar_unavailable }
			}
			cost = 150
			removal_cost = 10
			traits = { ideology_D CoArmy_Armoured_Spearhead_Doctrine }
		}
	# Guy Simonds
		CAN_CoArmy_Guy_Simonds = {
			picture = Generic_Portrait
			allowed = { tag = CAN }
			visible = {
				date > 1951.1.1
				date < 1964.1.1
				D_Minister_Allowed = yes
				NOT = { has_country_flag = Guy_Simonds_unavailable }
			}
			cost = 150
			removal_cost = 10
			traits = { ideology_D CoArmy_Armoured_Spearhead_Doctrine }
		}
	# Ralph Keefler
		CAN_CoArmy_Ralph_Keefler = {
			picture = Generic_Portrait
			allowed = { tag = CAN }
			visible = {
				date > 1952.1.1
				date < 1964.1.1
				D_Minister_Allowed = yes
				NOT = { has_country_flag = Ralph_Keefler_unavailable }
			}
			cost = 150
			removal_cost = 10
			traits = { ideology_D CoArmy_Guns_And_Butter_Doctrine }
		}
	# Howard Graham
		CAN_CoArmy_Howard_Graham = {
			picture = Generic_Portrait
			allowed = { tag = CAN }
			visible = {
				date > 1955.1.1
				date < 1964.1.1
				D_Minister_Allowed = yes
				NOT = { has_country_flag = Howard_Graham_unavailable }
			}
			cost = 150
			removal_cost = 10
			traits = { ideology_D CoArmy_Decisive_Battle_Doctrine }
		}
	# Edward Plow
		CAN_CoArmy_Edward_Plow = {
			picture = Generic_Portrait
			allowed = { tag = CAN }
			visible = {
				date > 1956.1.1
				date < 1964.1.1
				D_Minister_Allowed = yes
				NOT = { has_country_flag = Edward_Plow_unavailable }
			}
			cost = 150
			removal_cost = 10
			traits = { ideology_D CoArmy_Static_Defence_Doctrine }
		}
	# Jean Victor Allard
		CAN_CoArmy_Jean_Victor_Allard = {
			picture = Generic_Portrait
			allowed = { tag = CAN }
			visible = {
				date > 1965.1.1
				date < 1979.1.1
				D_Minister_Allowed = yes
				NOT = { has_country_flag = Jean_Victor_Allard_unavailable }
			}
			cost = 150
			removal_cost = 10
			traits = { ideology_D CoArmy_Armoured_Spearhead_Doctrine }
		}
	# William A.B. Anderson
		CAN_CoArmy_William_AB_Anderson = {
			picture = Generic_Portrait
			allowed = { tag = CAN }
			visible = {
				date > 1966.1.1
				date < 1975.1.1
				D_Minister_Allowed = yes
				NOT = { has_country_flag = William_AB_Anderson_unavailable }
			}
			cost = 150
			removal_cost = 10
			traits = { ideology_D CoArmy_Doctrine_Of_Autonomy }
		}
	# Stanley Waters
		CAN_CoArmy_Stanley_Waters = {
			picture = Generic_Portrait
			allowed = { tag = CAN }
			visible = {
				date > 1973.1.1
				date < 1979.1.1
				D_Minister_Allowed = yes
				NOT = { has_country_flag = Stanley_Waters_unavailable }
			}
			cost = 150
			removal_cost = 10
			traits = { ideology_D CoArmy_Guns_And_Butter_Doctrine }
		}
	# Jean Jaques Paradis
		CAN_CoArmy_Jean_Jaques_Paradis = {
			picture = Generic_Portrait
			allowed = { tag = CAN }
			visible = {
				date > 1977.1.1
				date < 1995.1.1
				D_Minister_Allowed = yes
				NOT = { has_country_flag = Jean_Jaques_Paradis_unavailable }
			}
			cost = 150
			removal_cost = 10
			traits = { ideology_D CoArmy_Elastic_Defence_Doctrine }
		}
	# Charles H. Belzile
		CAN_CoArmy_Charles_H_Belzile = {
			picture = Generic_Portrait
			allowed = { tag = CAN }
			visible = {
				date > 1981.1.1
				date < 2016.1.1
				D_Minister_Allowed = yes
				NOT = { has_country_flag = Charles_H_Belzile_unavailable }
			}
			cost = 150
			removal_cost = 10
			traits = { ideology_D CoArmy_Armoured_Spearhead_Doctrine }
		}
	# James A. Fox
		CAN_CoArmy_James_A_Fox = {
			picture = Generic_Portrait
			allowed = { tag = CAN }
			visible = {
				date > 1986.1.1
				date < 2020.1.1
				D_Minister_Allowed = yes
				NOT = { has_country_flag = James_A_Fox_unavailable }
			}
			cost = 150
			removal_cost = 10
			traits = { ideology_D CoArmy_Armoured_Spearhead_Doctrine }
		}
	# Kent Foster
		CAN_CoArmy_Kent_Foster = {
			picture = Generic_Portrait
			allowed = { tag = CAN }
			visible = {
				date > 1989.1.1
				date < 2020.1.1
				D_Minister_Allowed = yes
				NOT = { has_country_flag = Kent_Foster_unavailable }
			}
			cost = 150
			removal_cost = 10
			traits = { ideology_D CoArmy_Elastic_Defence_Doctrine }
		}
	# Jaques Chouinard
		CAN_CoArmy_Jaques_Chouinard = {
			picture = Generic_Portrait
			allowed = { tag = CAN }
			visible = {
				date > 1975.1.1
				date < 1979.1.1
				D_Minister_Allowed = yes
				NOT = { has_country_flag = Jaques_Chouinard_unavailable }
			}
			cost = 150
			removal_cost = 10
			traits = { ideology_D CoArmy_Doctrine_Of_Autonomy }
		}
	# Jacques Robert
		CAN_CoArmy_Jacques_Robert = {
			picture = Generic_Portrait
			allowed = { tag = CAN }
			visible = {
				date > 1933.1.1
				date < 1964.1.1
				C_Minister_Allowed = yes
				NOT = { has_country_flag = Jacques_Robert_unavailable }
			}
			cost = 150
			removal_cost = 10
			traits = { ideology_C CoArmy_Static_Defence_Doctrine }
		}
	# John Lethbridge
		CAN_CoArmy_John_Lethbridge = {
			picture = Generic_Portrait
			allowed = { tag = CAN }
			visible = {
				date > 1942.1.1
				date < 1964.1.1
				C_Minister_Allowed = yes
				NOT = { has_country_flag = John_Lethbridge_unavailable }
			}
			cost = 150
			removal_cost = 10
			traits = { ideology_C CoArmy_Elastic_Defence_Doctrine }
		}
}
#################################################
### Chief of Navy
#################################################
	Chief_of_Navy = {
	# Alasdair Murray
		CAN_CoNavy_Alasdair_Murray = {
			picture = Generic_Portrait
			allowed = { tag = CAN }
			visible = {
				date > 1933.1.1
				date < 1964.1.1
				A_Minister_Allowed = yes
				NOT = { has_country_flag = Alasdair_Murray_unavailable }
			}
			cost = 150
			removal_cost = 10
			traits = { ideology_A CoNavy_Base_Control_Doctrine }
		}
	# Jean Couillard
		CAN_CoNavy_Jean_Couillard = {
			picture = Generic_Portrait
			allowed = { tag = CAN }
			visible = {
				date > 1938.1.1
				date < 1964.1.1
				A_Minister_Allowed = yes
				NOT = { has_country_flag = Jean_Couillard_unavailable }
			}
			cost = 150
			removal_cost = 10
			traits = { ideology_A CoNavy_Indirect_Approach_Doctrine }
		}
	# John Hazen
		CAN_CoNavy_John_Hazen = {
			picture = Generic_Portrait
			allowed = { tag = CAN }
			visible = {
				date > 1914.1.1
				date < 1933.1.1
				D_Minister_Allowed = yes
				NOT = { has_country_flag = John_Hazen_unavailable }
			}
			cost = 150
			removal_cost = 10
			traits = { ideology_D CoNavy_Decisive_Naval_Battle_Doctrine }
		}
	# Charles Kingsmill
		CAN_CoNavy_Charles_Kingsmill = {
			picture = Generic_Portrait
			allowed = { tag = CAN }
			visible = {
				date > 1914.1.1
				date < 1933.1.1
				D_Minister_Allowed = yes
				NOT = { has_country_flag = Charles_Kingsmill_unavailable }
			}
			cost = 150
			removal_cost = 10
			traits = { ideology_D CoNavy_Decisive_Naval_Battle_Doctrine }
		}
	# H.T.W. Grant
		CAN_CoNavy_HTW_Grant = {
			picture = Generic_Portrait
			allowed = { tag = CAN }
			visible = {
				date > 1947.1.1
				date < 1964.1.1
				D_Minister_Allowed = yes
				NOT = { has_country_flag = HTW_Grant_unavailable }
			}
			cost = 150
			removal_cost = 10
			traits = { ideology_D CoNavy_Power_Projection_Doctrine }
		}
	# Edmond R. Mainguy
		CAN_CoNavy_Edmond_R_Mainguy = {
			picture = Generic_Portrait
			allowed = { tag = CAN }
			visible = {
				date > 1951.1.1
				date < 1964.1.1
				D_Minister_Allowed = yes
				NOT = { has_country_flag = Edmond_R_Mainguy_unavailable }
			}
			cost = 150
			removal_cost = 10
			traits = { ideology_D CoNavy_Indirect_Approach_Doctrine }
		}
	# H.G. DeWolf
		CAN_CoNavy_HG_DeWolf = {
			picture = Generic_Portrait
			allowed = { tag = CAN }
			visible = {
				date > 1956.1.1
				date < 1964.1.1
				D_Minister_Allowed = yes
				NOT = { has_country_flag = HG_DeWolf_unavailable }
			}
			cost = 150
			removal_cost = 10
			traits = { ideology_D CoNavy_Open_Seas_Doctrine }
		}
	# Daniel Hanington
		CAN_CoNavy_Daniel_Hanington = {
			picture = Generic_Portrait
			allowed = { tag = CAN }
			visible = {
				date > 1957.1.1
				date < 1964.1.1
				D_Minister_Allowed = yes
				NOT = { has_country_flag = Daniel_Hanington_unavailable }
			}
			cost = 150
			removal_cost = 10
			traits = { ideology_D CoNavy_Open_Seas_Doctrine }
		}
	# Robert Timbrell
		CAN_CoNavy_Robert_Timbrell = {
			picture = Generic_Portrait
			allowed = { tag = CAN }
			visible = {
				date > 1971.1.1
				date < 1978.1.1
				D_Minister_Allowed = yes
				NOT = { has_country_flag = Robert_Timbrell_unavailable }
			}
			cost = 150
			removal_cost = 10
			traits = { ideology_D CoNavy_Indirect_Approach_Doctrine }
		}
	# James A. Fulton
		CAN_CoNavy_James_A_Fulton = {
			picture = Generic_Portrait
			allowed = { tag = CAN }
			visible = {
				date > 1978.1.1
				date < 1989.1.1
				D_Minister_Allowed = yes
				NOT = { has_country_flag = James_A_Fulton_unavailable }
			}
			cost = 150
			removal_cost = 10
			traits = { ideology_D CoNavy_Decisive_Naval_Battle_Doctrine }
		}
	# Percy Nelles
		CAN_CoNavy_Percy_Nelles = {
			picture = Generic_Portrait
			allowed = { tag = CAN }
			visible = {
				date > 1933.1.1
				date < 1964.1.1
				D_Minister_Allowed = yes
				NOT = { has_country_flag = Percy_Nelles_unavailable }
			}
			cost = 150
			removal_cost = 10
			traits = { ideology_D CoNavy_Open_Seas_Doctrine }
		}
	# John C. O'Brien
		CAN_CoNavy_John_C_OBrien = {
			picture = Generic_Portrait
			allowed = { tag = CAN }
			visible = {
				date > 1966.1.1
				date < 1975.1.1
				D_Minister_Allowed = yes
				NOT = { has_country_flag = John_C_OBrien_unavailable }
			}
			cost = 150
			removal_cost = 10
			traits = { ideology_D CoNavy_Indirect_Approach_Doctrine }
		}
	# John Allan
		CAN_CoNavy_John_Allan = {
			picture = Generic_Portrait
			allowed = { tag = CAN }
			visible = {
				date > 1968.1.1
				date < 1980.1.1
				D_Minister_Allowed = yes
				NOT = { has_country_flag = John_Allan_unavailable }
			}
			cost = 150
			removal_cost = 10
			traits = { ideology_D CoNavy_Indirect_Approach_Doctrine }
		}
	# Henry A. Porter
		CAN_CoNavy_Henry_A_Porter = {
			picture = Generic_Portrait
			allowed = { tag = CAN }
			visible = {
				date > 1970.1.1
				date < 1977.1.1
				D_Minister_Allowed = yes
				NOT = { has_country_flag = Henry_A_Porter_unavailable }
			}
			cost = 150
			removal_cost = 10
			traits = { ideology_D CoNavy_Base_Control_Doctrine }
		}
	# Douglas S. Boyle
		CAN_CoNavy_Douglas_S_Boyle = {
			picture = Generic_Portrait
			allowed = { tag = CAN }
			visible = {
				date > 1973.1.1
				date < 1979.1.1
				D_Minister_Allowed = yes
				NOT = { has_country_flag = Douglas_S_Boyle_unavailable }
			}
			cost = 150
			removal_cost = 10
			traits = { ideology_D CoNavy_Power_Projection_Doctrine }
		}
	# James C. Wood
		CAN_CoNavy_James_C_Wood = {
			picture = Generic_Portrait
			allowed = { tag = CAN }
			visible = {
				date > 1983.1.1
				date < 1995.1.1
				D_Minister_Allowed = yes
				NOT = { has_country_flag = James_C_Wood_unavailable }
			}
			cost = 150
			removal_cost = 10
			traits = { ideology_D CoNavy_Open_Seas_Doctrine }
		}
	# Charles M.W. Thomas
		CAN_CoNavy_Charles_MW_Thomas = {
			picture = Generic_Portrait
			allowed = { tag = CAN }
			visible = {
				date > 1987.1.1
				date < 1995.1.1
				D_Minister_Allowed = yes
				NOT = { has_country_flag = Charles_MW_Thomas_unavailable }
			}
			cost = 150
			removal_cost = 10
			traits = { ideology_D CoNavy_Base_Control_Doctrine }
		}
	# Robert E.D. George
		CAN_CoNavy_Robert_ED_George = {
			picture = Generic_Portrait
			allowed = { tag = CAN }
			visible = {
				date > 1989.1.1
				date < 2020.1.1
				D_Minister_Allowed = yes
				NOT = { has_country_flag = Robert_ED_George_unavailable }
			}
			cost = 150
			removal_cost = 10
			traits = { ideology_D CoNavy_Open_Seas_Doctrine }
		}
	# Louis-Philippe Brodeur
		CAN_CoNavy_LouisPhilippe_Brodeur = {
			picture = Generic_Portrait
			allowed = { tag = CAN }
			visible = {
				date > 1914.1.1
				date < 1933.1.1
				D_Minister_Allowed = yes
				NOT = { has_country_flag = LouisPhilippe_Brodeur_unavailable }
			}
			cost = 150
			removal_cost = 10
			traits = { ideology_D CoNavy_Open_Seas_Doctrine }
		}
	# John F. King
		CAN_CoNavy_John_F_King = {
			picture = Generic_Portrait
			allowed = { tag = CAN }
			visible = {
				date > 1933.1.1
				date < 1964.1.1
				S_Minister_Allowed = yes
				NOT = { has_country_flag = John_F_King_unavailable }
			}
			cost = 150
			removal_cost = 10
			traits = { ideology_S CoNavy_Indirect_Approach_Doctrine }
		}
	# Jacques Richard
		CAN_CoNavy_Jacques_Richard = {
			picture = Generic_Portrait
			allowed = { tag = CAN }
			visible = {
				date > 1939.1.1
				date < 1964.1.1
				C_Minister_Allowed = yes
				NOT = { has_country_flag = Jacques_Richard_unavailable }
			}
			cost = 150
			removal_cost = 10
			traits = { ideology_C CoNavy_Power_Projection_Doctrine }
		}
}
#################################################
### Chief of Airforce
#################################################
	Chief_of_Airforce = {
	# P.W. Oland
		CAN_CoAir_PW_Oland = {
			picture = Generic_Portrait
			allowed = { tag = CAN }
			visible = {
				date > 1933.1.1
				date < 1964.1.1
				A_Minister_Allowed = yes
				NOT = { has_country_flag = PW_Oland_unavailable }
			}
			cost = 150
			removal_cost = 10
			traits = { ideology_A CoAir_Army_Aviation_Doctrine }
		}
	# William Bishop
		CAN_CoAir_William_Bishop = {
			picture = Generic_Portrait
			allowed = { tag = CAN }
			visible = {
				date > 1918.1.1
				date < 1933.1.1
				D_Minister_Allowed = yes
				NOT = { has_country_flag = William_Bishop_unavailable }
			}
			cost = 150
			removal_cost = 10
			traits = { ideology_D CoAir_Air_Superiority_Doctrine }
		}
	# Joseph Roméo Vachon
		CAN_CoAir_Joseph_Romeo_Vachon = {
			picture = Generic_Portrait
			allowed = { tag = CAN }
			visible = {
				date > 1933.1.1
				date < 1964.1.1
				D_Minister_Allowed = yes
				NOT = { has_country_flag = Joseph_Romeo_Vachon_unavailable }
			}
			cost = 150
			removal_cost = 10
			traits = { ideology_D CoAir_Air_Superiority_Doctrine }
		}
	# Roy Slemon
		CAN_CoAir_Roy_Slemon = {
			picture = Generic_Portrait
			allowed = { tag = CAN }
			visible = {
				date > 1953.1.1
				date < 1964.1.1
				D_Minister_Allowed = yes
				NOT = { has_country_flag = Roy_Slemon_unavailable }
			}
			cost = 150
			removal_cost = 10
			traits = { ideology_D CoAir_Carpet_Bombing_Doctrine }
		}
	# Clarence Dunlap
		CAN_CoAir_Clarence_Dunlap = {
			picture = Generic_Portrait
			allowed = { tag = CAN }
			visible = {
				date > 1962.1.1
				date < 1964.1.1
				D_Minister_Allowed = yes
				NOT = { has_country_flag = Clarence_Dunlap_unavailable }
			}
			cost = 150
			removal_cost = 10
			traits = { ideology_D CoAir_Carpet_Bombing_Doctrine }
		}
	# George Croil
		CAN_CoAir_George_Croil = {
			picture = Generic_Portrait
			allowed = { tag = CAN }
			visible = {
				date > 1933.1.1
				date < 1964.1.1
				D_Minister_Allowed = yes
				NOT = { has_country_flag = George_Croil_unavailable }
			}
			cost = 150
			removal_cost = 10
			traits = { ideology_D CoAir_Carpet_Bombing_Doctrine }
		}
	# Lloyd Breadner
		CAN_CoAir_Lloyd_Breadner = {
			picture = Generic_Portrait
			allowed = { tag = CAN }
			visible = {
				date > 1941.1.1
				date < 1952.1.1
				D_Minister_Allowed = yes
				NOT = { has_country_flag = Lloyd_Breadner_unavailable }
			}
			cost = 150
			removal_cost = 10
			traits = { ideology_D CoAir_Army_Aviation_Doctrine }
		}
	# Robert Leckie
		CAN_CoAir_Robert_Leckie = {
			picture = Generic_Portrait
			allowed = { tag = CAN }
			visible = {
				date > 1953.1.1
				date < 1964.1.1
				D_Minister_Allowed = yes
				NOT = { has_country_flag = Robert_Leckie_unavailable }
			}
			cost = 150
			removal_cost = 10
			traits = { ideology_D CoAir_Naval_Aviation_Doctrine }
		}
	# Hugh L. Campbell
		CAN_CoAir_Hugh_L_Campbell = {
			picture = Generic_Portrait
			allowed = { tag = CAN }
			visible = {
				date > 1957.1.1
				date < 1964.1.1
				D_Minister_Allowed = yes
				NOT = { has_country_flag = Hugh_L_Campbell_unavailable }
			}
			cost = 150
			removal_cost = 10
			traits = { ideology_D CoAir_Air_Superiority_Doctrine }
		}
	# William K. Carr
		CAN_CoAir_William_K_Carr = {
			picture = Generic_Portrait
			allowed = { tag = CAN }
			visible = {
				date > 1975.1.1
				date < 1984.1.1
				D_Minister_Allowed = yes
				NOT = { has_country_flag = William_K_Carr_unavailable }
			}
			cost = 150
			removal_cost = 10
			traits = { ideology_D CoAir_Air_Superiority_Doctrine }
		}
	# Kenneth Lewis
		CAN_CoAir_Kenneth_Lewis = {
			picture = Generic_Portrait
			allowed = { tag = CAN }
			visible = {
				date > 1980.1.1
				date < 1990.1.1
				D_Minister_Allowed = yes
				NOT = { has_country_flag = Kenneth_Lewis_unavailable }
			}
			cost = 150
			removal_cost = 10
			traits = { ideology_D CoAir_Army_Aviation_Doctrine }
		}
	# Larry A. Ashley
		CAN_CoAir_Larry_A_Ashley = {
			picture = Generic_Portrait
			allowed = { tag = CAN }
			visible = {
				date > 1985.1.1
				date < 1995.1.1
				D_Minister_Allowed = yes
				NOT = { has_country_flag = Larry_A_Ashley_unavailable }
			}
			cost = 150
			removal_cost = 10
			traits = { ideology_D CoAir_Naval_Aviation_Doctrine }
		}
	# Paul D. Manson
		CAN_CoAir_Paul_D_Manson = {
			picture = Generic_Portrait
			allowed = { tag = CAN }
			visible = {
				date > 1986.1.1
				date < 1999.1.1
				D_Minister_Allowed = yes
				NOT = { has_country_flag = Paul_D_Manson_unavailable }
			}
			cost = 150
			removal_cost = 10
			traits = { ideology_D CoAir_Air_Superiority_Doctrine }
		}
	# Donald McNaughton
		CAN_CoAir_Donald_McNaughton = {
			picture = Generic_Portrait
			allowed = { tag = CAN }
			visible = {
				date > 1986.1.1
				date < 1999.1.1
				D_Minister_Allowed = yes
				NOT = { has_country_flag = Donald_McNaughton_unavailable }
			}
			cost = 150
			removal_cost = 10
			traits = { ideology_D CoAir_Army_Aviation_Doctrine }
		}
	# Fred Sutherland
		CAN_CoAir_Fred_Sutherland = {
			picture = Generic_Portrait
			allowed = { tag = CAN }
			visible = {
				date > 1988.1.1
				date < 2020.1.1
				D_Minister_Allowed = yes
				NOT = { has_country_flag = Fred_Sutherland_unavailable }
			}
			cost = 150
			removal_cost = 10
			traits = { ideology_D CoAir_Air_Superiority_Doctrine }
		}
	# G.A. MacKenzie
		CAN_CoAir_GA_MacKenzie = {
			picture = Generic_Portrait
			allowed = { tag = CAN }
			visible = {
				date > 1978.1.1
				date < 1980.1.1
				D_Minister_Allowed = yes
				NOT = { has_country_flag = GA_MacKenzie_unavailable }
			}
			cost = 150
			removal_cost = 10
			traits = { ideology_D CoAir_Vertical_Envelopment_Doctrine }
		}
	# Gino Verchiella
		CAN_CoAir_Gino_Verchiella = {
			picture = Generic_Portrait
			allowed = { tag = CAN }
			visible = {
				date > 1933.1.1
				date < 1964.1.1
				C_Minister_Allowed = yes
				NOT = { has_country_flag = Gino_Verchiella_unavailable }
			}
			cost = 150
			removal_cost = 10
			traits = { ideology_C CoAir_Air_Superiority_Doctrine }
		}
	# Bob Mann
		CAN_CoAir_Bob_Mann = {
			picture = Generic_Portrait
			allowed = { tag = CAN }
			visible = {
				date > 1943.1.1
				date < 1964.1.1
				C_Minister_Allowed = yes
				NOT = { has_country_flag = Bob_Mann_unavailable }
			}
			cost = 150
			removal_cost = 10
			traits = { ideology_C CoAir_Army_Aviation_Doctrine }
		}
	}
}
