ideas = {
#################################################
### Head of Government
#################################################
	Head_of_Government = {
	# Döme Sztójay
		HUN_HoG_Dome_Sztojay = {
			picture = Generic_Portrait
			allowed = { tag = HUN }
			visible = {
				date > 1939.1.1
				date < 1964.1.1
				F_Minister_Allowed = yes
				NOT = { has_country_flag = Dome_Sztojay_unavailable }
			}
			cost = 150
			removal_cost = 10
			traits = { ideology_F HoG_Happy_Amateur }
		}
	# Jenö Rácz
		HUN_HoG_Jeno_Racz = {
			picture = Generic_Portrait
			allowed = { tag = HUN }
			visible = {
				date > 1944.1.1
				date < 1964.1.1
				F_Minister_Allowed = yes
				NOT = { has_country_flag = Jeno_Racz_unavailable }
			}
			cost = 150
			removal_cost = 10
			traits = { ideology_F HoG_Political_Protege }
		}
	# Ferenc Szálasi
		HUN_HoG_Ferenc_Szalasi = {
			picture = Generic_Portrait
			allowed = { tag = HUN }
			visible = {
				date > 1944.1.1
				date < 1964.1.1
				F_Minister_Allowed = yes
				NOT = { has_country_flag = Ferenc_Szalasi_unavailable }
			}
			cost = 150
			removal_cost = 10
			traits = { ideology_F HoG_Happy_Amateur }
		}
	# Gyula Károlyi de Nagykároly
		HUN_HoG_Gyula_Karolyi_de_Nagykaroly = {
			picture = Generic_Portrait
			allowed = { tag = HUN }
			visible = {
				date > 1920.1.1
				date < 1933.1.1
				F_Minister_Allowed = yes
				NOT = { has_country_flag = Gyula_Karolyi_de_Nagykaroly_unavailable }
			}
			cost = 150
			removal_cost = 10
			traits = { ideology_F HoG_Naive_Optimist }
		}
	# Gyula Gömbös de Jakfa
		HUN_HoG_Gyula_Gombos_de_Jakfa = {
			picture = Generic_Portrait
			allowed = { tag = HUN }
			visible = {
				date > 1932.1.1
				date < 1937.1.1
				F_Minister_Allowed = yes
				NOT = { has_country_flag = Gyula_Gombos_de_Jakfa_unavailable }
			}
			cost = 150
			removal_cost = 10
			traits = { ideology_F POSITION_Prime_Minister HoG_Flamboyant_Tough_Guy }
		}
	# K. Darányi de Pusztaszentgyörgyi
		HUN_HoG_K_Daranyi_de_Pusztaszentgyorgyi = {
			picture = Generic_Portrait
			allowed = { tag = HUN }
			visible = {
				date > 1933.1.1
				date < 1964.1.1
				F_Minister_Allowed = yes
				NOT = { has_country_flag = K_Daranyi_de_Pusztaszentgyorgyi_unavailable }
			}
			cost = 150
			removal_cost = 10
			traits = { ideology_F HoG_Smiling_Oilman }
		}
	# Béla Imrédy de Omoravia
		HUN_HoG_Bela_Imredy_de_Omoravia = {
			picture = Generic_Portrait
			allowed = { tag = HUN }
			visible = {
				date > 1938.1.1
				date < 1964.1.1
				F_Minister_Allowed = yes
				NOT = { has_country_flag = Bela_Imredy_de_Omoravia_unavailable }
			}
			cost = 150
			removal_cost = 10
			traits = { ideology_F HoG_Corporate_Suit }
		}
	# Pál Teleki de Szek
		HUN_HoG_Pal_Teleki_de_Szek = {
			picture = Generic_Portrait
			allowed = { tag = HUN }
			visible = {
				date > 1939.1.1
				date < 1964.1.1
				F_Minister_Allowed = yes
				NOT = { has_country_flag = Pal_Teleki_de_Szek_unavailable }
			}
			cost = 150
			removal_cost = 10
			traits = { ideology_F HoG_Naive_Optimist }
		}
	# László Bárdossy
		HUN_HoG_Laszlo_Bardossy = {
			picture = Generic_Portrait
			allowed = { tag = HUN }
			visible = {
				date > 1941.1.1
				date < 1964.1.1
				F_Minister_Allowed = yes
				NOT = { has_country_flag = Laszlo_Bardossy_unavailable }
			}
			cost = 150
			removal_cost = 10
			traits = { ideology_F HoG_Silent_Workhorse }
		}
	# M. Kállay de Nagy-Kalló
		HUN_HoG_M_Kallay_de_NagyKallo = {
			picture = Generic_Portrait
			allowed = { tag = HUN }
			visible = {
				date > 1942.1.1
				date < 1964.1.1
				F_Minister_Allowed = yes
				NOT = { has_country_flag = M_Kallay_de_NagyKallo_unavailable }
			}
			cost = 150
			removal_cost = 10
			traits = { ideology_F HoG_Happy_Amateur }
		}
	# Ferenc Keresztes-Fischer
		HUN_HoG_Ferenc_KeresztesFischer = {
			picture = Generic_Portrait
			allowed = { tag = HUN }
			visible = {
				date > 1942.1.1
				date < 1964.1.1
				F_Minister_Allowed = yes
				NOT = { has_country_flag = Ferenc_KeresztesFischer_unavailable }
			}
			cost = 150
			removal_cost = 10
			traits = { ideology_F HoG_Happy_Amateur }
		}
	# Géza Lakatos
		HUN_HoG_Geza_Lakatos = {
			picture = Generic_Portrait
			allowed = { tag = HUN }
			visible = {
				date > 1944.1.1
				date < 1964.1.1
				F_Minister_Allowed = yes
				NOT = { has_country_flag = Geza_Lakatos_unavailable }
			}
			cost = 150
			removal_cost = 10
			traits = { ideology_F HoG_Old_General }
		}
	# Béla Miklós de Dalnók
		HUN_HoG_Bela_Miklos_de_Dalnok = {
			picture = Generic_Portrait
			allowed = { tag = HUN }
			visible = {
				date > 1944.1.1
				date < 1964.1.1
				A_Minister_Allowed = yes
				NOT = { has_country_flag = Bela_Miklos_de_Dalnok_unavailable }
			}
			cost = 150
			removal_cost = 10
			traits = { ideology_A HoG_Corporate_Suit }
		}
	# Karoly Bartha von Dálnokfalva
		HUN_HoG_Karoly_Bartha_von_Dalnokfalva = {
			picture = Generic_Portrait
			allowed = { tag = HUN }
			visible = {
				date > 1945.1.1
				date < 1964.1.1
				A_Minister_Allowed = yes
				NOT = { has_country_flag = Karoly_Bartha_von_Dalnokfalva_unavailable }
			}
			cost = 150
			removal_cost = 10
			traits = { ideology_A HoG_Old_General }
		}
	# Miklós Kállay 
		HUN_HoG_Miklos_Kallay_ = {
			picture = Generic_Portrait
			allowed = { tag = HUN }
			visible = {
				date > 1980.1.1
				date < 1996.1.1
				A_Minister_Allowed = yes
				NOT = { has_country_flag = Miklos_Kallay__unavailable }
			}
			cost = 150
			removal_cost = 10
			traits = { ideology_A HoG_Silent_Workhorse }
		}
	# Károly Huszár de Sárvár
		HUN_HoG_Karoly_Huszar_de_Sarvar = {
			picture = Generic_Portrait
			allowed = { tag = HUN }
			visible = {
				date > 1919.1.1
				date < 1933.1.1
				D_Minister_Allowed = yes
				NOT = { has_country_flag = Karoly_Huszar_de_Sarvar_unavailable }
			}
			cost = 150
			removal_cost = 10
			traits = { ideology_D HoG_Happy_Amateur }
		}
	# Zoltán Tildy
		HUN_HoG_Zoltan_Tildy = {
			picture = Generic_Portrait
			allowed = { tag = HUN }
			visible = {
				date > 1933.1.1
				date < 1964.1.1
				D_Minister_Allowed = yes
				NOT = { has_country_flag = Zoltan_Tildy_unavailable }
			}
			cost = 150
			removal_cost = 10
			traits = { ideology_D HoG_Silent_Workhorse }
		}
	# Ferenc Nagy
		HUN_HoG_Ferenc_Nagy = {
			picture = Generic_Portrait
			allowed = { tag = HUN }
			visible = {
				date > 1946.1.1
				date < 1964.1.1
				D_Minister_Allowed = yes
				NOT = { has_country_flag = Ferenc_Nagy_unavailable }
			}
			cost = 150
			removal_cost = 10
			traits = { ideology_D HoG_Happy_Amateur }
		}
	# István Bethlen
		HUN_HoG_Istvan_Bethlen = {
			picture = Generic_Portrait
			allowed = { tag = HUN }
			visible = {
				date > 1918.1.1
				date < 1933.1.1
				D_Minister_Allowed = yes
				NOT = { has_country_flag = Istvan_Bethlen_unavailable }
			}
			cost = 150
			removal_cost = 10
			traits = { ideology_D HoG_Backroom_Backstabber }
		}
	# Dénes Berinkey
		HUN_HoG_Denes_Berinkey = {
			picture = Generic_Portrait
			allowed = { tag = HUN }
			visible = {
				date > 1919.1.1
				date < 1933.1.1
				D_Minister_Allowed = yes
				NOT = { has_country_flag = Denes_Berinkey_unavailable }
			}
			cost = 150
			removal_cost = 10
			traits = { ideology_D HoG_Political_Protege }
		}
	# József Antall
		HUN_HoG_Jozsef_Antall = {
			picture = Generic_Portrait
			allowed = { tag = HUN }
			visible = {
				date > 1990.1.1
				date < 1994.1.1
				D_Minister_Allowed = yes
				NOT = { has_country_flag = Jozsef_Antall_unavailable }
			}
			cost = 150
			removal_cost = 10
			traits = { ideology_D HoG_Flamboyant_Tough_Guy }
		}
	# Mihály Károlyi
		HUN_HoG_Mihaly_Karolyi = {
			picture = Generic_Portrait
			allowed = { tag = HUN }
			visible = {
				date > 1914.1.1
				date < 1933.1.1
				D_Minister_Allowed = yes
				NOT = { has_country_flag = Mihaly_Karolyi_unavailable }
			}
			cost = 150
			removal_cost = 10
			traits = { ideology_D HoG_Backroom_Backstabber }
		}
	# Gyula Horn
		HUN_HoG_Gyula_Horn = {
			picture = Generic_Portrait
			allowed = { tag = HUN }
			visible = {
				date > 1990.1.1
				date < 2014.1.1
				D_Minister_Allowed = yes
				NOT = { has_country_flag = Gyula_Horn_unavailable }
			}
			cost = 150
			removal_cost = 10
			traits = { ideology_D HoG_Old_Airmarshal }
		}
	# István Friedrich
		HUN_HoG_Istvan_Friedrich = {
			picture = Generic_Portrait
			allowed = { tag = HUN }
			visible = {
				date > 1919.1.1
				date < 1933.1.1
				D_Minister_Allowed = yes
				NOT = { has_country_flag = Istvan_Friedrich_unavailable }
			}
			cost = 150
			removal_cost = 10
			traits = { ideology_D HoG_Naive_Optimist }
		}
	# Gyula Peidl
		HUN_HoG_Gyula_Peidl = {
			picture = Generic_Portrait
			allowed = { tag = HUN }
			visible = {
				date > 1919.1.1
				date < 1931.1.1
				D_Minister_Allowed = yes
				NOT = { has_country_flag = Gyula_Peidl_unavailable }
			}
			cost = 150
			removal_cost = 10
			traits = { ideology_D HoG_Ambitious_Union_Boss }
		}
	# Sándor Simonyi-Semadam
		HUN_HoG_Sandor_SimonyiSemadam = {
			picture = Generic_Portrait
			allowed = { tag = HUN }
			visible = {
				date > 1920.1.1
				date < 1933.1.1
				D_Minister_Allowed = yes
				NOT = { has_country_flag = Sandor_SimonyiSemadam_unavailable }
			}
			cost = 150
			removal_cost = 10
			traits = { ideology_D HoG_Political_Protege }
		}
	# Arpád Szakasits
		HUN_HoG_Arpad_Szakasits = {
			picture = Generic_Portrait
			allowed = { tag = HUN }
			visible = {
				date > 1945.1.1
				date < 1964.1.1
				D_Minister_Allowed = yes
				NOT = { has_country_flag = Arpad_Szakasits_unavailable }
			}
			cost = 150
			removal_cost = 10
			traits = { ideology_D HoG_Happy_Amateur }
		}
	# Lajos Dinnyes
		HUN_HoG_Lajos_Dinnyes_2 = {
			picture = Generic_Portrait
			allowed = { tag = HUN }
			visible = {
				date > 1947.1.1
				date < 1964.1.1
				D_Minister_Allowed = yes
				NOT = { has_country_flag = Lajos_Dinnyes_unavailable }
			}
			cost = 150
			removal_cost = 10
			traits = { ideology_D HoG_Ambitious_Union_Boss }
		}
	# Istvan Dobi
		HUN_HoG_Istvan_Dobi_2 = {
			picture = Generic_Portrait
			allowed = { tag = HUN }
			visible = {
				date > 1948.1.1
				date < 1964.1.1
				D_Minister_Allowed = yes
				NOT = { has_country_flag = Istvan_Dobi_unavailable }
			}
			cost = 150
			removal_cost = 10
			traits = { ideology_D HoG_Naive_Optimist }
		}
	# Miklós Németh
		HUN_HoG_Miklos_Nemeth = {
			picture = Generic_Portrait
			allowed = { tag = HUN }
			visible = {
				date > 1985.1.1
				date < 2020.1.1
				D_Minister_Allowed = yes
				NOT = { has_country_flag = Miklos_Nemeth_unavailable }
			}
			cost = 150
			removal_cost = 10
			traits = { ideology_D HoG_Naive_Optimist }
		}
	# György Lázár
		HUN_HoG_Gyorgy_Lazar = {
			picture = Generic_Portrait
			allowed = { tag = HUN }
			visible = {
				date > 1985.1.1
				date < 2020.1.1
				C_Minister_Allowed = yes
				NOT = { has_country_flag = Gyorgy_Lazar_unavailable }
			}
			cost = 150
			removal_cost = 10
			traits = { ideology_C HoG_Political_Protege }
		}
	# Sándor Garbai
		HUN_HoG_Sandor_Garbai = {
			picture = Generic_Portrait
			allowed = { tag = HUN }
			visible = {
				date > 1914.1.1
				date < 1933.1.1
				C_Minister_Allowed = yes
				NOT = { has_country_flag = Sandor_Garbai_unavailable }
			}
			cost = 150
			removal_cost = 10
			traits = { ideology_C HoG_Flamboyant_Tough_Guy }
		}
	# László Rajk
		HUN_HoG_Laszlo_Rajk = {
			picture = Generic_Portrait
			allowed = { tag = HUN }
			visible = {
				date > 1933.1.1
				date < 1964.1.1
				C_Minister_Allowed = yes
				NOT = { has_country_flag = Laszlo_Rajk_unavailable }
			}
			cost = 150
			removal_cost = 10
			traits = { ideology_C HoG_Flamboyant_Tough_Guy }
		}
	# Mátyas Rákosi
		HUN_HoG_Matyas_Rakosi = {
			picture = Generic_Portrait
			allowed = { tag = HUN }
			visible = {
				date > 1944.1.1
				date < 1964.1.1
				C_Minister_Allowed = yes
				NOT = { has_country_flag = Matyas_Rakosi_unavailable }
			}
			cost = 150
			removal_cost = 10
			traits = { ideology_C HoG_Local_Tyrant }
		}
	# Lajos Dinnyes
		HUN_HoG_Lajos_Dinnyes = {
			picture = Generic_Portrait
			allowed = { tag = HUN }
			visible = {
				date > 1947.1.1
				date < 1964.1.1
				C_Minister_Allowed = yes
				NOT = { has_country_flag = Lajos_Dinnyes_unavailable }
			}
			cost = 150
			removal_cost = 10
			traits = { ideology_C HoG_Happy_Amateur }
		}
	# Istvan Dobi
		HUN_HoG_Istvan_Dobi = {
			picture = Generic_Portrait
			allowed = { tag = HUN }
			visible = {
				date > 1948.1.1
				date < 1964.1.1
				C_Minister_Allowed = yes
				NOT = { has_country_flag = Istvan_Dobi_unavailable }
			}
			cost = 150
			removal_cost = 10
			traits = { ideology_C HoG_Ambitious_Union_Boss }
		}
	# Imre Nagy
		HUN_HoG_Imre_Nagy = {
			picture = Generic_Portrait
			allowed = { tag = HUN }
			visible = {
				date > 1953.1.1
				date < 1964.1.1
				C_Minister_Allowed = yes
				NOT = { has_country_flag = Imre_Nagy_unavailable }
			}
			cost = 150
			removal_cost = 10
			traits = { ideology_C HoG_Naive_Optimist }
		}
}
#################################################
### Foreign Minister
#################################################
	Foreign_Minister = {
	# Ferenc Szálasi
		HUN_FM_Ferenc_Szalasi = {
			picture = Generic_Portrait
			allowed = { tag = HUN }
			visible = {
				date > 1939.1.1
				date < 1964.1.1
				F_Minister_Allowed = yes
				NOT = { has_country_flag = Ferenc_Szalasi_unavailable }
			}
			cost = 150
			removal_cost = 10
			traits = { ideology_F FM_Iron_Fisted_Brute }
		}
	# Döme Sztójay
		HUN_FM_Dome_Sztojay = {
			picture = Generic_Portrait
			allowed = { tag = HUN }
			visible = {
				date > 1944.1.1
				date < 1964.1.1
				F_Minister_Allowed = yes
				NOT = { has_country_flag = Dome_Sztojay_unavailable }
			}
			cost = 150
			removal_cost = 10
			traits = { ideology_F FM_Ideological_Crusader }
		}
	# Gábor Kemény
		HUN_FM_Gabor_Kemeny = {
			picture = Generic_Portrait
			allowed = { tag = HUN }
			visible = {
				date > 1944.1.1
				date < 1964.1.1
				F_Minister_Allowed = yes
				NOT = { has_country_flag = Gabor_Kemeny_unavailable }
			}
			cost = 150
			removal_cost = 10
			traits = { ideology_F FM_Great_Compromiser }
		}
	# Tibor Scitovszky de Nagykér
		HUN_FM_Tibor_Scitovszky_de_Nagyker = {
			picture = Generic_Portrait
			allowed = { tag = HUN }
			visible = {
				date > 1924.1.1
				date < 1933.1.1
				F_Minister_Allowed = yes
				NOT = { has_country_flag = Tibor_Scitovszky_de_Nagyker_unavailable }
			}
			cost = 150
			removal_cost = 10
			traits = { ideology_F FM_Iron_Fisted_Brute }
		}
	# Lajos Walko
		HUN_FM_Lajos_Walko = {
			picture = Generic_Portrait
			allowed = { tag = HUN }
			visible = {
				date > 1931.1.1
				date < 1964.1.1
				F_Minister_Allowed = yes
				NOT = { has_country_flag = Lajos_Walko_unavailable }
			}
			cost = 150
			removal_cost = 10
			traits = { ideology_F FM_Ideological_Crusader }
		}
	# Endre Puky
		HUN_FM_Endre_Puky = {
			picture = Generic_Portrait
			allowed = { tag = HUN }
			visible = {
				date > 1932.1.1
				date < 1964.1.1
				F_Minister_Allowed = yes
				NOT = { has_country_flag = Endre_Puky_unavailable }
			}
			cost = 150
			removal_cost = 10
			traits = { ideology_F FM_The_Cloak_N_Dagger_Schemer }
		}
	# Kálmán Kánya
		HUN_FM_Kalman_Kanya = {
			picture = Generic_Portrait
			allowed = { tag = HUN }
			visible = {
				date > 1933.1.1
				date < 1964.1.1
				F_Minister_Allowed = yes
				NOT = { has_country_flag = Kalman_Kanya_unavailable }
			}
			cost = 150
			removal_cost = 10
			traits = { ideology_F FM_Great_Compromiser }
		}
	# Gyula Gömbös de Jakfa
		HUN_FM_Gyula_Gombos_de_Jakfa = {
			picture = Generic_Portrait
			allowed = { tag = HUN }
			visible = {
				date > 1933.1.1
				date < 1964.1.1
				F_Minister_Allowed = yes
				NOT = { has_country_flag = Gyula_Gombos_de_Jakfa_unavailable }
			}
			cost = 150
			removal_cost = 10
			traits = { ideology_F FM_Ideological_Crusader }
		}
	# Béla Imrédy de Omoravia
		HUN_FM_Bela_Imredy_de_Omoravia = {
			picture = Generic_Portrait
			allowed = { tag = HUN }
			visible = {
				date > 1938.1.1
				date < 1964.1.1
				F_Minister_Allowed = yes
				NOT = { has_country_flag = Bela_Imredy_de_Omoravia_unavailable }
			}
			cost = 150
			removal_cost = 10
			traits = { ideology_F FM_Ideological_Crusader }
		}
	# István Csáky
		HUN_FM_Istvan_Csaky = {
			picture = Generic_Portrait
			allowed = { tag = HUN }
			visible = {
				date > 1939.1.1
				date < 1964.1.1
				F_Minister_Allowed = yes
				NOT = { has_country_flag = Istvan_Csaky_unavailable }
			}
			cost = 150
			removal_cost = 10
			traits = { ideology_F FM_The_Cloak_N_Dagger_Schemer }
		}
	# László Bárdossy
		HUN_FM_Laszlo_Bardossy = {
			picture = Generic_Portrait
			allowed = { tag = HUN }
			visible = {
				date > 1941.1.1
				date < 1964.1.1
				F_Minister_Allowed = yes
				NOT = { has_country_flag = Laszlo_Bardossy_unavailable }
			}
			cost = 150
			removal_cost = 10
			traits = { ideology_F FM_Iron_Fisted_Brute }
		}
	# Pál Teleki de Szek
		HUN_FM_Pal_Teleki_de_Szek = {
			picture = Generic_Portrait
			allowed = { tag = HUN }
			visible = {
				date > 1941.1.1
				date < 1964.1.1
				F_Minister_Allowed = yes
				NOT = { has_country_flag = Pal_Teleki_de_Szek_unavailable }
			}
			cost = 150
			removal_cost = 10
			traits = { ideology_F FM_Great_Compromiser }
		}
	# Ferenc Keresztes-Fischer
		HUN_FM_Ferenc_KeresztesFischer = {
			picture = Generic_Portrait
			allowed = { tag = HUN }
			visible = {
				date > 1942.1.1
				date < 1964.1.1
				F_Minister_Allowed = yes
				NOT = { has_country_flag = Ferenc_KeresztesFischer_unavailable }
			}
			cost = 150
			removal_cost = 10
			traits = { ideology_F FM_Apologetic_Clerk }
		}
	# M. Kállay de Nagy-Kalló
		HUN_FM_M_Kallay_de_NagyKallo = {
			picture = Generic_Portrait
			allowed = { tag = HUN }
			visible = {
				date > 1942.1.1
				date < 1964.1.1
				F_Minister_Allowed = yes
				NOT = { has_country_flag = M_Kallay_de_NagyKallo_unavailable }
			}
			cost = 150
			removal_cost = 10
			traits = { ideology_F FM_General_Staffer }
		}
	# Jenö Ghyczy
		HUN_FM_Jeno_Ghyczy = {
			picture = Generic_Portrait
			allowed = { tag = HUN }
			visible = {
				date > 1943.1.1
				date < 1964.1.1
				F_Minister_Allowed = yes
				NOT = { has_country_flag = Jeno_Ghyczy_unavailable }
			}
			cost = 150
			removal_cost = 10
			traits = { ideology_F FM_Apologetic_Clerk }
		}
	# Gustáv Henneyey
		HUN_FM_Gustav_Henneyey = {
			picture = Generic_Portrait
			allowed = { tag = HUN }
			visible = {
				date > 1944.1.1
				date < 1964.1.1
				F_Minister_Allowed = yes
				NOT = { has_country_flag = Gustav_Henneyey_unavailable }
			}
			cost = 150
			removal_cost = 10
			traits = { ideology_F FM_General_Staffer }
		}
	# Pál Teleki de Szek
		HUN_FM_Pal_Teleki_de_Szek_2 = {
			picture = Generic_Portrait
			allowed = { tag = HUN }
			visible = {
				date > 1920.1.1
				date < 1941.1.1
				A_Minister_Allowed = yes
				NOT = { has_country_flag = Pal_Teleki_de_Szek_unavailable }
			}
			cost = 150
			removal_cost = 10
			traits = { ideology_A FM_Apologetic_Clerk }
		}
	# István Bethlen
		HUN_FM_Istvan_Bethlen = {
			picture = Generic_Portrait
			allowed = { tag = HUN }
			visible = {
				date > 1924.1.1
				date < 1933.1.1
				A_Minister_Allowed = yes
				NOT = { has_country_flag = Istvan_Bethlen_unavailable }
			}
			cost = 150
			removal_cost = 10
			traits = { ideology_A FM_Great_Compromiser }
		}
	# Kálmán de Kánya
		HUN_FM_Kalman_de_Kanya = {
			picture = Generic_Portrait
			allowed = { tag = HUN }
			visible = {
				date > 1933.1.1
				date < 1964.1.1
				A_Minister_Allowed = yes
				NOT = { has_country_flag = Kalman_de_Kanya_unavailable }
			}
			cost = 150
			removal_cost = 10
			traits = { ideology_A FM_Great_Compromiser }
		}
	# Edgar Keksz
		HUN_FM_Edgar_Keksz = {
			picture = Generic_Portrait
			allowed = { tag = HUN }
			visible = {
				date > 1944.1.1
				date < 1964.1.1
				A_Minister_Allowed = yes
				NOT = { has_country_flag = Edgar_Keksz_unavailable }
			}
			cost = 150
			removal_cost = 10
			traits = { ideology_A FM_Iron_Fisted_Brute }
		}
	# Endre Bajcsy-Zsilinszky
		HUN_FM_Endre_BajcsyZsilinszky = {
			picture = Generic_Portrait
			allowed = { tag = HUN }
			visible = {
				date > 1945.1.1
				date < 1964.1.1
				A_Minister_Allowed = yes
				NOT = { has_country_flag = Endre_BajcsyZsilinszky_unavailable }
			}
			cost = 150
			removal_cost = 10
			traits = { ideology_A FM_General_Staffer }
		}
	# Sándor Rácz 
		HUN_FM_Sandor_Racz_ = {
			picture = Generic_Portrait
			allowed = { tag = HUN }
			visible = {
				date > 1980.1.1
				date < 2013.1.1
				A_Minister_Allowed = yes
				NOT = { has_country_flag = Sandor_Racz__unavailable }
			}
			cost = 150
			removal_cost = 10
			traits = { ideology_A FM_General_Staffer }
		}
	# Francois Deak
		HUN_FM_Francois_Deak = {
			picture = Generic_Portrait
			allowed = { tag = HUN }
			visible = {
				date > 1933.1.1
				date < 1964.1.1
				D_Minister_Allowed = yes
				NOT = { has_country_flag = Francois_Deak_unavailable }
			}
			cost = 150
			removal_cost = 10
			traits = { ideology_D FM_Apologetic_Clerk }
		}
	# Ferenc Nagy
		HUN_FM_Ferenc_Nagy = {
			picture = Generic_Portrait
			allowed = { tag = HUN }
			visible = {
				date > 1939.1.1
				date < 1964.1.1
				D_Minister_Allowed = yes
				NOT = { has_country_flag = Ferenc_Nagy_unavailable }
			}
			cost = 150
			removal_cost = 10
			traits = { ideology_D FM_Great_Compromiser }
		}
	# János Gyöngyösi
		HUN_FM_Janos_Gyongyosi = {
			picture = Generic_Portrait
			allowed = { tag = HUN }
			visible = {
				date > 1944.1.1
				date < 1964.1.1
				D_Minister_Allowed = yes
				NOT = { has_country_flag = Janos_Gyongyosi_unavailable }
			}
			cost = 150
			removal_cost = 10
			traits = { ideology_D FM_Great_Compromiser }
		}
	# Gábor Tánczos
		HUN_FM_Gabor_Tanczos = {
			picture = Generic_Portrait
			allowed = { tag = HUN }
			visible = {
				date > 1919.1.1
				date < 1933.1.1
				D_Minister_Allowed = yes
				NOT = { has_country_flag = Gabor_Tanczos_unavailable }
			}
			cost = 150
			removal_cost = 10
			traits = { ideology_D FM_General_Staffer }
		}
	# Márton Lovászy
		HUN_FM_Marton_Lovaszy = {
			picture = Generic_Portrait
			allowed = { tag = HUN }
			visible = {
				date > 1919.1.1
				date < 1933.1.1
				D_Minister_Allowed = yes
				NOT = { has_country_flag = Marton_Lovaszy_unavailable }
			}
			cost = 150
			removal_cost = 10
			traits = { ideology_D FM_Biased_Intellectual }
		}
	# József Somssich
		HUN_FM_Jozsef_Somssich = {
			picture = Generic_Portrait
			allowed = { tag = HUN }
			visible = {
				date > 1919.1.1
				date < 1933.1.1
				D_Minister_Allowed = yes
				NOT = { has_country_flag = Jozsef_Somssich_unavailable }
			}
			cost = 150
			removal_cost = 10
			traits = { ideology_D FM_Great_Compromiser }
		}
	# Imre Csáky
		HUN_FM_Imre_Csaky = {
			picture = Generic_Portrait
			allowed = { tag = HUN }
			visible = {
				date > 1920.1.1
				date < 1933.1.1
				D_Minister_Allowed = yes
				NOT = { has_country_flag = Imre_Csaky_unavailable }
			}
			cost = 150
			removal_cost = 10
			traits = { ideology_D FM_Great_Compromiser }
		}
	# Gusztáv Gratz
		HUN_FM_Gusztav_Gratz = {
			picture = Generic_Portrait
			allowed = { tag = HUN }
			visible = {
				date > 1921.1.1
				date < 1933.1.1
				D_Minister_Allowed = yes
				NOT = { has_country_flag = Gusztav_Gratz_unavailable }
			}
			cost = 150
			removal_cost = 10
			traits = { ideology_D FM_Ideological_Crusader }
		}
	# Géza Daruváry
		HUN_FM_Geza_Daruvary = {
			picture = Generic_Portrait
			allowed = { tag = HUN }
			visible = {
				date > 1922.1.1
				date < 1933.1.1
				D_Minister_Allowed = yes
				NOT = { has_country_flag = Geza_Daruvary_unavailable }
			}
			cost = 150
			removal_cost = 10
			traits = { ideology_D FM_Biased_Intellectual }
		}
	# Mihály Károlyi
		HUN_FM_Mihaly_Karolyi = {
			picture = Generic_Portrait
			allowed = { tag = HUN }
			visible = {
				date > 1914.1.1
				date < 1933.1.1
				D_Minister_Allowed = yes
				NOT = { has_country_flag = Mihaly_Karolyi_unavailable }
			}
			cost = 150
			removal_cost = 10
			traits = { ideology_D FM_Apologetic_Clerk }
		}
	# Dénes Berinkey
		HUN_FM_Denes_Berinkey = {
			picture = Generic_Portrait
			allowed = { tag = HUN }
			visible = {
				date > 1919.1.1
				date < 1933.1.1
				D_Minister_Allowed = yes
				NOT = { has_country_flag = Denes_Berinkey_unavailable }
			}
			cost = 150
			removal_cost = 10
			traits = { ideology_D FM_Apologetic_Clerk }
		}
	# Ferenc Harrer
		HUN_FM_Ferenc_Harrer = {
			picture = Generic_Portrait
			allowed = { tag = HUN }
			visible = {
				date > 1919.1.1
				date < 1933.1.1
				D_Minister_Allowed = yes
				NOT = { has_country_flag = Ferenc_Harrer_unavailable }
			}
			cost = 150
			removal_cost = 10
			traits = { ideology_D FM_Biased_Intellectual }
		}
	# Miklós Bánffy
		HUN_FM_Miklos_Banffy = {
			picture = Generic_Portrait
			allowed = { tag = HUN }
			visible = {
				date > 1921.1.1
				date < 1933.1.1
				D_Minister_Allowed = yes
				NOT = { has_country_flag = Miklos_Banffy_unavailable }
			}
			cost = 150
			removal_cost = 10
			traits = { ideology_D FM_Biased_Intellectual }
		}
	# Péter Ágoston
		HUN_FM_Peter_Agoston = {
			picture = Generic_Portrait
			allowed = { tag = HUN }
			visible = {
				date > 1919.1.1
				date < 1933.1.1
				D_Minister_Allowed = yes
				NOT = { has_country_flag = Peter_Agoston_unavailable }
			}
			cost = 150
			removal_cost = 10
			traits = { ideology_D FM_Great_Compromiser }
		}
	# Sándor Simonyi-Semadam
		HUN_FM_Sandor_SimonyiSemadam = {
			picture = Generic_Portrait
			allowed = { tag = HUN }
			visible = {
				date > 1920.1.1
				date < 1933.1.1
				D_Minister_Allowed = yes
				NOT = { has_country_flag = Sandor_SimonyiSemadam_unavailable }
			}
			cost = 150
			removal_cost = 10
			traits = { ideology_D FM_Great_Compromiser }
		}
	# Arpád Szakasits
		HUN_FM_Arpad_Szakasits = {
			picture = Generic_Portrait
			allowed = { tag = HUN }
			visible = {
				date > 1945.1.1
				date < 1964.1.1
				D_Minister_Allowed = yes
				NOT = { has_country_flag = Arpad_Szakasits_unavailable }
			}
			cost = 150
			removal_cost = 10
			traits = { ideology_D FM_Biased_Intellectual }
		}
	# Géza Jeszenszky
		HUN_FM_Geza_Jeszenszky = {
			picture = Generic_Portrait
			allowed = { tag = HUN }
			visible = {
				date > 1985.1.1
				date < 2020.1.1
				D_Minister_Allowed = yes
				NOT = { has_country_flag = Geza_Jeszenszky_unavailable }
			}
			cost = 150
			removal_cost = 10
			traits = { ideology_D FM_Biased_Intellectual }
		}
	# Antal Dovcsák
		HUN_FM_Antal_Dovcsak = {
			picture = Generic_Portrait
			allowed = { tag = HUN }
			visible = {
				date > 1914.1.1
				date < 1933.1.1
				C_Minister_Allowed = yes
				NOT = { has_country_flag = Antal_Dovcsak_unavailable }
			}
			cost = 150
			removal_cost = 10
			traits = { ideology_C FM_Ideological_Crusader }
		}
	# Béla Kun
		HUN_FM_Bela_Kun = {
			picture = Generic_Portrait
			allowed = { tag = HUN }
			visible = {
				date > 1914.1.1
				date < 1933.1.1
				C_Minister_Allowed = yes
				NOT = { has_country_flag = Bela_Kun_unavailable }
			}
			cost = 150
			removal_cost = 10
			traits = { ideology_C FM_Ideological_Crusader }
		}
	# Béla Kun
		HUN_FM_Bela_Kun_2 = {
			picture = Generic_Portrait
			allowed = { tag = HUN }
			visible = {
				date > 1914.1.1
				date < 1933.1.1
				C_Minister_Allowed = yes
				NOT = { has_country_flag = Bela_Kun_unavailable }
			}
			cost = 150
			removal_cost = 10
			traits = { ideology_C FM_Ideological_Crusader }
		}
	# József Pogány
		HUN_FM_Jozsef_Pogany = {
			picture = Generic_Portrait
			allowed = { tag = HUN }
			visible = {
				date > 1919.1.1
				date < 1933.1.1
				C_Minister_Allowed = yes
				NOT = { has_country_flag = Jozsef_Pogany_unavailable }
			}
			cost = 150
			removal_cost = 10
			traits = { ideology_C FM_Ideological_Crusader }
		}
	# Péter Várkonyi
		HUN_FM_Peter_Varkonyi = {
			picture = Generic_Portrait
			allowed = { tag = HUN }
			visible = {
				date > 1985.1.1
				date < 2009.1.1
				C_Minister_Allowed = yes
				NOT = { has_country_flag = Peter_Varkonyi_unavailable }
			}
			cost = 150
			removal_cost = 10
			traits = { ideology_C FM_Great_Compromiser }
		}
	# Erik Molnár
		HUN_FM_Erik_Molnar = {
			picture = Generic_Portrait
			allowed = { tag = HUN }
			visible = {
				date > 1933.1.1
				date < 1964.1.1
				C_Minister_Allowed = yes
				NOT = { has_country_flag = Erik_Molnar_unavailable }
			}
			cost = 150
			removal_cost = 10
			traits = { ideology_C FM_Ideological_Crusader }
		}
	# Matta Zalka
		HUN_FM_Matta_Zalka = {
			picture = Generic_Portrait
			allowed = { tag = HUN }
			visible = {
				date > 1944.1.1
				date < 1964.1.1
				C_Minister_Allowed = yes
				NOT = { has_country_flag = Matta_Zalka_unavailable }
			}
			cost = 150
			removal_cost = 10
			traits = { ideology_C FM_General_Staffer }
		}
	# László Rajk
		HUN_FM_Laszlo_Rajk = {
			picture = Generic_Portrait
			allowed = { tag = HUN }
			visible = {
				date > 1947.1.1
				date < 1964.1.1
				C_Minister_Allowed = yes
				NOT = { has_country_flag = Laszlo_Rajk_unavailable }
			}
			cost = 150
			removal_cost = 10
			traits = { ideology_C FM_Iron_Fisted_Brute }
		}
	# Gyula Kallai
		HUN_FM_Gyula_Kallai = {
			picture = Generic_Portrait
			allowed = { tag = HUN }
			visible = {
				date > 1948.1.1
				date < 1964.1.1
				C_Minister_Allowed = yes
				NOT = { has_country_flag = Gyula_Kallai_unavailable }
			}
			cost = 150
			removal_cost = 10
			traits = { ideology_C FM_The_Cloak_N_Dagger_Schemer }
		}
	# Karoly Kiss
		HUN_FM_Karoly_Kiss = {
			picture = Generic_Portrait
			allowed = { tag = HUN }
			visible = {
				date > 1952.1.1
				date < 1964.1.1
				C_Minister_Allowed = yes
				NOT = { has_country_flag = Karoly_Kiss_unavailable }
			}
			cost = 150
			removal_cost = 10
			traits = { ideology_C FM_Apologetic_Clerk }
		}
}
#################################################
### Minister of Security
#################################################
	Minister_of_Security = {
	# Andor Jaross
		HUN_MoS_Andor_Jaross = {
			picture = Generic_Portrait
			allowed = { tag = HUN }
			visible = {
				date > 1939.1.1
				date < 1964.1.1
				F_Minister_Allowed = yes
				NOT = { has_country_flag = Andor_Jaross_unavailable }
			}
			cost = 150
			removal_cost = 10
			traits = { ideology_F MoS_Prince_Of_Terror }
		}
	# Gábor Vajna
		HUN_MoS_Gabor_Vajna = {
			picture = Generic_Portrait
			allowed = { tag = HUN }
			visible = {
				date > 1944.1.1
				date < 1964.1.1
				F_Minister_Allowed = yes
				NOT = { has_country_flag = Gabor_Vajna_unavailable }
			}
			cost = 150
			removal_cost = 10
			traits = { ideology_F MoS_Man_Of_The_People }
		}
	# Miklós Kozma
		HUN_MoS_Miklos_Kozma = {
			picture = Generic_Portrait
			allowed = { tag = HUN }
			visible = {
				date > 1933.1.1
				date < 1964.1.1
				F_Minister_Allowed = yes
				NOT = { has_country_flag = Miklos_Kozma_unavailable }
			}
			cost = 150
			removal_cost = 10
			traits = { ideology_F MoS_Prince_Of_Terror }
		}
	# K. Darányi de Pusztaszentgyörgyi
		HUN_MoS_K_Daranyi_de_Pusztaszentgyorgyi = {
			picture = Generic_Portrait
			allowed = { tag = HUN }
			visible = {
				date > 1938.1.1
				date < 1964.1.1
				F_Minister_Allowed = yes
				NOT = { has_country_flag = K_Daranyi_de_Pusztaszentgyorgyi_unavailable }
			}
			cost = 150
			removal_cost = 10
			traits = { ideology_F MoS_Back_Stabber }
		}
	# Pál Teleki de Szek
		HUN_MoS_Pal_Teleki_de_Szek = {
			picture = Generic_Portrait
			allowed = { tag = HUN }
			visible = {
				date > 1939.1.1
				date < 1964.1.1
				F_Minister_Allowed = yes
				NOT = { has_country_flag = Pal_Teleki_de_Szek_unavailable }
			}
			cost = 150
			removal_cost = 10
			traits = { ideology_F MoS_Compassionate_Gentleman }
		}
	# Ferenc Keresztes-Fischer
		HUN_MoS_Ferenc_KeresztesFischer = {
			picture = Generic_Portrait
			allowed = { tag = HUN }
			visible = {
				date > 1941.1.1
				date < 1964.1.1
				F_Minister_Allowed = yes
				NOT = { has_country_flag = Ferenc_KeresztesFischer_unavailable }
			}
			cost = 150
			removal_cost = 10
			traits = { ideology_F MoS_Secret_Police_Chief }
		}
	# M. Kállay de Nagy-Kalló
		HUN_MoS_M_Kallay_de_NagyKallo = {
			picture = Generic_Portrait
			allowed = { tag = HUN }
			visible = {
				date > 1942.1.1
				date < 1964.1.1
				F_Minister_Allowed = yes
				NOT = { has_country_flag = M_Kallay_de_NagyKallo_unavailable }
			}
			cost = 150
			removal_cost = 10
			traits = { ideology_F MoS_Man_Of_The_People }
		}
	# Kalmán Szell
		HUN_MoS_Kalman_Szell = {
			picture = Generic_Portrait
			allowed = { tag = HUN }
			visible = {
				date > 1944.1.1
				date < 1964.1.1
				F_Minister_Allowed = yes
				NOT = { has_country_flag = Kalman_Szell_unavailable }
			}
			cost = 150
			removal_cost = 10
			traits = { ideology_F MoS_Crime_Fighter }
		}
	# Edgar Keksz
		HUN_MoS_Edgar_Keksz = {
			picture = Generic_Portrait
			allowed = { tag = HUN }
			visible = {
				date > 1944.1.1
				date < 1964.1.1
				A_Minister_Allowed = yes
				NOT = { has_country_flag = Edgar_Keksz_unavailable }
			}
			cost = 150
			removal_cost = 10
			traits = { ideology_A MoS_Crooked_Kleptocrat }
		}
	# Laszlo Baky
		HUN_MoS_Laszlo_Baky = {
			picture = Generic_Portrait
			allowed = { tag = HUN }
			visible = {
				date > 1945.1.1
				date < 1964.1.1
				A_Minister_Allowed = yes
				NOT = { has_country_flag = Laszlo_Baky_unavailable }
			}
			cost = 150
			removal_cost = 10
			traits = { ideology_A MoS_Crime_Fighter }
		}
	# Béla Király
		HUN_MoS_Bela_Kiraly = {
			picture = Generic_Portrait
			allowed = { tag = HUN }
			visible = {
				date > 1980.1.1
				date < 2009.1.1
				A_Minister_Allowed = yes
				NOT = { has_country_flag = Bela_Kiraly_unavailable }
			}
			cost = 150
			removal_cost = 10
			traits = { ideology_A MoS_Crime_Fighter }
		}
	# József Széll
		HUN_MoS_Jozsef_Szell = {
			picture = Generic_Portrait
			allowed = { tag = HUN }
			visible = {
				date > 1933.1.1
				date < 1964.1.1
				D_Minister_Allowed = yes
				NOT = { has_country_flag = Jozsef_Szell_unavailable }
			}
			cost = 150
			removal_cost = 10
			traits = { ideology_D MoS_Efficient_Sociopath }
		}
	# Miklós Bonczos
		HUN_MoS_Miklos_Bonczos = {
			picture = Generic_Portrait
			allowed = { tag = HUN }
			visible = {
				date > 1944.1.1
				date < 1964.1.1
				D_Minister_Allowed = yes
				NOT = { has_country_flag = Miklos_Bonczos_unavailable }
			}
			cost = 150
			removal_cost = 10
			traits = { ideology_D MoS_Silent_Lawyer }
		}
	# Jozsef Revay
		HUN_MoS_Jozsef_Revay = {
			picture = Generic_Portrait
			allowed = { tag = HUN }
			visible = {
				date > 1945.1.1
				date < 1964.1.1
				D_Minister_Allowed = yes
				NOT = { has_country_flag = Jozsef_Revay_unavailable }
			}
			cost = 150
			removal_cost = 10
			traits = { ideology_D MoS_Crime_Fighter }
		}
	# Balázs Horváth
		HUN_MoS_Balazs_Horvath = {
			picture = Generic_Portrait
			allowed = { tag = HUN }
			visible = {
				date > 1985.1.1
				date < 2007.1.1
				D_Minister_Allowed = yes
				NOT = { has_country_flag = Balazs_Horvath_unavailable }
			}
			cost = 150
			removal_cost = 10
			traits = { ideology_D MoS_Silent_Lawyer }
		}
	# István Horváth
		HUN_MoS_Istvan_Horvath = {
			picture = Generic_Portrait
			allowed = { tag = HUN }
			visible = {
				date > 1985.1.1
				date < 2020.1.1
				C_Minister_Allowed = yes
				NOT = { has_country_flag = Istvan_Horvath_unavailable }
			}
			cost = 150
			removal_cost = 10
			traits = { ideology_C MoS_Silent_Lawyer }
		}
	# Mihaly Farkas
		HUN_MoS_Mihaly_Farkas = {
			picture = Generic_Portrait
			allowed = { tag = HUN }
			visible = {
				date > 1933.1.1
				date < 1964.1.1
				C_Minister_Allowed = yes
				NOT = { has_country_flag = Mihaly_Farkas_unavailable }
			}
			cost = 150
			removal_cost = 10
			traits = { ideology_C MoS_Prince_Of_Terror }
		}
	# László Rajk
		HUN_MoS_Laszlo_Rajk = {
			picture = Generic_Portrait
			allowed = { tag = HUN }
			visible = {
				date > 1939.1.1
				date < 1964.1.1
				C_Minister_Allowed = yes
				NOT = { has_country_flag = Laszlo_Rajk_unavailable }
			}
			cost = 150
			removal_cost = 10
			traits = { ideology_C MoS_Crime_Fighter }
		}
	# Mátyás Rákosi
		HUN_MoS_Matyas_Rakosi = {
			picture = Generic_Portrait
			allowed = { tag = HUN }
			visible = {
				date > 1944.1.1
				date < 1964.1.1
				C_Minister_Allowed = yes
				NOT = { has_country_flag = Matyas_Rakosi_unavailable }
			}
			cost = 150
			removal_cost = 10
			traits = { ideology_C MoS_Secret_Police_Chief }
		}
	# Imre Nagy
		HUN_MoS_Imre_Nagy = {
			picture = Generic_Portrait
			allowed = { tag = HUN }
			visible = {
				date > 1945.1.1
				date < 1964.1.1
				C_Minister_Allowed = yes
				NOT = { has_country_flag = Imre_Nagy_unavailable }
			}
			cost = 150
			removal_cost = 10
			traits = { ideology_C MoS_Back_Stabber }
		}
	# Ferenc Erdei
		HUN_MoS_Ferenc_Erdei = {
			picture = Generic_Portrait
			allowed = { tag = HUN }
			visible = {
				date > 1947.1.1
				date < 1964.1.1
				C_Minister_Allowed = yes
				NOT = { has_country_flag = Ferenc_Erdei_unavailable }
			}
			cost = 150
			removal_cost = 10
			traits = { ideology_C MoS_Compassionate_Gentleman }
		}
	# János Kádár
		HUN_MoS_Janos_Kadar = {
			picture = Generic_Portrait
			allowed = { tag = HUN }
			visible = {
				date > 1952.1.1
				date < 1964.1.1
				C_Minister_Allowed = yes
				NOT = { has_country_flag = Janos_Kadar_unavailable }
			}
			cost = 150
			removal_cost = 10
			traits = { ideology_C MoS_Back_Stabber }
		}
}
#################################################
### Armaments Minister
#################################################
	Armaments_Minister = {
	# Jenö Rácz
		HUN_AM_Jeno_Racz = {
			picture = Generic_Portrait
			allowed = { tag = HUN }
			visible = {
				date > 1939.1.1
				date < 1964.1.1
				F_Minister_Allowed = yes
				NOT = { has_country_flag = Jeno_Racz_unavailable }
			}
			cost = 150
			removal_cost = 10
			traits = { ideology_F AM_Planned_Economy_Proponent }
		}
	# Tihamér Fabinyi
		HUN_AM_Tihamer_Fabinyi = {
			picture = Generic_Portrait
			allowed = { tag = HUN }
			visible = {
				date > 1933.1.1
				date < 1964.1.1
				F_Minister_Allowed = yes
				NOT = { has_country_flag = Tihamer_Fabinyi_unavailable }
			}
			cost = 150
			removal_cost = 10
			traits = { ideology_F AM_Military_Entrepreneur }
		}
	# Bela Imrédy de Omoravia
		HUN_AM_Bela_Imredy_de_Omoravia = {
			picture = Generic_Portrait
			allowed = { tag = HUN }
			visible = {
				date > 1933.1.1
				date < 1964.1.1
				F_Minister_Allowed = yes
				NOT = { has_country_flag = Bela_Imredy_de_Omoravia_unavailable }
			}
			cost = 150
			removal_cost = 10
			traits = { ideology_F AM_Infantry_Proponent }
		}
	# Lajos Reményi-Schneller
		HUN_AM_Lajos_RemenyiSchneller = {
			picture = Generic_Portrait
			allowed = { tag = HUN }
			visible = {
				date > 1938.1.1
				date < 1964.1.1
				F_Minister_Allowed = yes
				NOT = { has_country_flag = Lajos_RemenyiSchneller_unavailable }
			}
			cost = 150
			removal_cost = 10
			traits = { ideology_F AM_Keynesian_Economy }
		}
	# Laszlo Endre
		HUN_AM_Laszlo_Endre = {
			picture = Generic_Portrait
			allowed = { tag = HUN }
			visible = {
				date > 1944.1.1
				date < 1964.1.1
				F_Minister_Allowed = yes
				NOT = { has_country_flag = Laszlo_Endre_unavailable }
			}
			cost = 150
			removal_cost = 10
			traits = { ideology_F AM_Strategic_Air_Proponent }
		}
	# Lóránt Hegedüs
		HUN_AM_Lorant_Hegedus = {
			picture = Generic_Portrait
			allowed = { tag = HUN }
			visible = {
				date > 1920.1.1
				date < 1933.1.1
				A_Minister_Allowed = yes
				NOT = { has_country_flag = Lorant_Hegedus_unavailable }
			}
			cost = 150
			removal_cost = 10
			traits = { ideology_A AM_Laissez-faire_Capitalist }
		}
	# Lajos Hegyeshalmi
		HUN_AM_Lajos_Hegyeshalmi = {
			picture = Generic_Portrait
			allowed = { tag = HUN }
			visible = {
				date > 1921.1.1
				date < 1933.1.1
				A_Minister_Allowed = yes
				NOT = { has_country_flag = Lajos_Hegyeshalmi_unavailable }
			}
			cost = 150
			removal_cost = 10
			traits = { ideology_A AM_Resource_Industrialist }
		}
	# István Bethlen
		HUN_AM_Istvan_Bethlen = {
			picture = Generic_Portrait
			allowed = { tag = HUN }
			visible = {
				date > 1921.1.1
				date < 1933.1.1
				A_Minister_Allowed = yes
				NOT = { has_country_flag = Istvan_Bethlen_unavailable }
			}
			cost = 150
			removal_cost = 10
			traits = { ideology_A AM_Administrative_Genius }
		}
	# Tibor Kállay de Nagykálló
		HUN_AM_Tibor_Kallay_de_Nagykallo = {
			picture = Generic_Portrait
			allowed = { tag = HUN }
			visible = {
				date > 1921.1.1
				date < 1933.1.1
				A_Minister_Allowed = yes
				NOT = { has_country_flag = Tibor_Kallay_de_Nagykallo_unavailable }
			}
			cost = 150
			removal_cost = 10
			traits = { ideology_A AM_Laissez-faire_Capitalist }
		}
	# Lajos Walko
		HUN_AM_Lajos_Walko = {
			picture = Generic_Portrait
			allowed = { tag = HUN }
			visible = {
				date > 1924.1.1
				date < 1933.1.1
				A_Minister_Allowed = yes
				NOT = { has_country_flag = Lajos_Walko_unavailable }
			}
			cost = 150
			removal_cost = 10
			traits = { ideology_A AM_Planned_Economy_Proponent }
		}
	# János Bud
		HUN_AM_Janos_Bud = {
			picture = Generic_Portrait
			allowed = { tag = HUN }
			visible = {
				date > 1924.1.1
				date < 1933.1.1
				A_Minister_Allowed = yes
				NOT = { has_country_flag = Janos_Bud_unavailable }
			}
			cost = 150
			removal_cost = 10
			traits = { ideology_A AM_Resource_Industrialist }
		}
	# Sándor Wekerle
		HUN_AM_Sandor_Wekerle = {
			picture = Generic_Portrait
			allowed = { tag = HUN }
			visible = {
				date > 1928.1.1
				date < 1933.1.1
				A_Minister_Allowed = yes
				NOT = { has_country_flag = Sandor_Wekerle_unavailable }
			}
			cost = 150
			removal_cost = 10
			traits = { ideology_A AM_Military_Entrepreneur }
		}
	# Gyula Károlyi de Nagykároly
		HUN_AM_Gyula_Karolyi_de_Nagykaroly = {
			picture = Generic_Portrait
			allowed = { tag = HUN }
			visible = {
				date > 1931.1.1
				date < 1964.1.1
				A_Minister_Allowed = yes
				NOT = { has_country_flag = Gyula_Karolyi_de_Nagykaroly_unavailable }
			}
			cost = 150
			removal_cost = 10
			traits = { ideology_A AM_Keynesian_Economy }
		}
	# Imre Oltványi
		HUN_AM_Imre_Oltvanyi = {
			picture = Generic_Portrait
			allowed = { tag = HUN }
			visible = {
				date > 1944.1.1
				date < 1964.1.1
				A_Minister_Allowed = yes
				NOT = { has_country_flag = Imre_Oltvanyi_unavailable }
			}
			cost = 150
			removal_cost = 10
			traits = { ideology_A AM_Balanced_Budget_Economy }
		}
	# Edgar Keksz
		HUN_AM_Edgar_Keksz = {
			picture = Generic_Portrait
			allowed = { tag = HUN }
			visible = {
				date > 1945.1.1
				date < 1964.1.1
				A_Minister_Allowed = yes
				NOT = { has_country_flag = Edgar_Keksz_unavailable }
			}
			cost = 150
			removal_cost = 10
			traits = { ideology_A AM_Corrupt_Kleptocrat }
		}
	# Etienne de Winchkler
		HUN_AM_Etienne_de_Winchkler = {
			picture = Generic_Portrait
			allowed = { tag = HUN }
			visible = {
				date > 1946.1.1
				date < 1964.1.1
				A_Minister_Allowed = yes
				NOT = { has_country_flag = Etienne_de_Winchkler_unavailable }
			}
			cost = 150
			removal_cost = 10
			traits = { ideology_A AM_Resource_Industrialist }
		}
	# Lajos Für
		HUN_AM_Lajos_Fur = {
			picture = Generic_Portrait
			allowed = { tag = HUN }
			visible = {
				date > 1975.1.1
				date < 2013.1.1
				A_Minister_Allowed = yes
				NOT = { has_country_flag = Lajos_Fur_unavailable }
			}
			cost = 150
			removal_cost = 10
			traits = { ideology_A AM_Laissez-faire_Capitalist }
		}
	# Albert Apponyi
		HUN_AM_Albert_Apponyi = {
			picture = Generic_Portrait
			allowed = { tag = HUN }
			visible = {
				date > 1933.1.1
				date < 1964.1.1
				D_Minister_Allowed = yes
				NOT = { has_country_flag = Albert_Apponyi_unavailable }
			}
			cost = 150
			removal_cost = 10
			traits = { ideology_D AM_Strategic_Air_Proponent }
		}
	# Miklos Olgyay
		HUN_AM_Miklos_Olgyay = {
			picture = Generic_Portrait
			allowed = { tag = HUN }
			visible = {
				date > 1939.1.1
				date < 1964.1.1
				D_Minister_Allowed = yes
				NOT = { has_country_flag = Miklos_Olgyay_unavailable }
			}
			cost = 150
			removal_cost = 10
			traits = { ideology_D AM_Resource_Industrialist }
		}
	# János Grünn
		HUN_AM_Janos_Grunn = {
			picture = Generic_Portrait
			allowed = { tag = HUN }
			visible = {
				date > 1919.1.1
				date < 1933.1.1
				D_Minister_Allowed = yes
				NOT = { has_country_flag = Janos_Grunn_unavailable }
			}
			cost = 150
			removal_cost = 10
			traits = { ideology_D AM_Industrial_Chemist }
		}
	# Frigyes Korányi de Tolcsva
		HUN_AM_Frigyes_Koranyi_de_Tolcsva = {
			picture = Generic_Portrait
			allowed = { tag = HUN }
			visible = {
				date > 1919.1.1
				date < 1933.1.1
				D_Minister_Allowed = yes
				NOT = { has_country_flag = Frigyes_Koranyi_de_Tolcsva_unavailable }
			}
			cost = 150
			removal_cost = 10
			traits = { ideology_D AM_Laissez-faire_Capitalist }
		}
	# Mihály Károlyi
		HUN_AM_Mihaly_Karolyi = {
			picture = Generic_Portrait
			allowed = { tag = HUN }
			visible = {
				date > 1914.1.1
				date < 1933.1.1
				D_Minister_Allowed = yes
				NOT = { has_country_flag = Mihaly_Karolyi_unavailable }
			}
			cost = 150
			removal_cost = 10
			traits = { ideology_D AM_Theoretical_Scientist }
		}
	# Pál Szende
		HUN_AM_Pal_Szende = {
			picture = Generic_Portrait
			allowed = { tag = HUN }
			visible = {
				date > 1919.1.1
				date < 1933.1.1
				D_Minister_Allowed = yes
				NOT = { has_country_flag = Pal_Szende_unavailable }
			}
			cost = 150
			removal_cost = 10
			traits = { ideology_D AM_Laissez-faire_Capitalist }
		}
	# Gyula Peidl
		HUN_AM_Gyula_Peidl = {
			picture = Generic_Portrait
			allowed = { tag = HUN }
			visible = {
				date > 1919.1.1
				date < 1933.1.1
				D_Minister_Allowed = yes
				NOT = { has_country_flag = Gyula_Peidl_unavailable }
			}
			cost = 150
			removal_cost = 10
			traits = { ideology_D AM_Laissez-faire_Capitalist }
		}
	# Reszö Kastner
		HUN_AM_Reszo_Kastner = {
			picture = Generic_Portrait
			allowed = { tag = HUN }
			visible = {
				date > 1945.1.1
				date < 1964.1.1
				D_Minister_Allowed = yes
				NOT = { has_country_flag = Reszo_Kastner_unavailable }
			}
			cost = 150
			removal_cost = 10
			traits = { ideology_D AM_Administrative_Genius }
		}
	# Ferenc Rabár
		HUN_AM_Ferenc_Rabar = {
			picture = Generic_Portrait
			allowed = { tag = HUN }
			visible = {
				date > 1985.1.1
				date < 2000.1.1
				D_Minister_Allowed = yes
				NOT = { has_country_flag = Ferenc_Rabar_unavailable }
			}
			cost = 150
			removal_cost = 10
			traits = { ideology_D AM_Laissez-faire_Capitalist }
		}
	# Eugen Samuilovich Varga
		HUN_AM_Eugen_Samuilovich_Varga = {
			picture = Generic_Portrait
			allowed = { tag = HUN }
			visible = {
				date > 1914.1.1
				date < 1933.1.1
				C_Minister_Allowed = yes
				NOT = { has_country_flag = Eugen_Samuilovich_Varga_unavailable }
			}
			cost = 150
			removal_cost = 10
			traits = { ideology_C AM_Resource_Industrialist }
		}
	# Gyula Lengyel
		HUN_AM_Gyula_Lengyel = {
			picture = Generic_Portrait
			allowed = { tag = HUN }
			visible = {
				date > 1919.1.1
				date < 1933.1.1
				C_Minister_Allowed = yes
				NOT = { has_country_flag = Gyula_Lengyel_unavailable }
			}
			cost = 150
			removal_cost = 10
			traits = { ideology_C AM_Administrative_Genius }
		}
	# Béla Székely
		HUN_AM_Bela_Szekely = {
			picture = Generic_Portrait
			allowed = { tag = HUN }
			visible = {
				date > 1919.1.1
				date < 1933.1.1
				C_Minister_Allowed = yes
				NOT = { has_country_flag = Bela_Szekely_unavailable }
			}
			cost = 150
			removal_cost = 10
			traits = { ideology_C AM_Oil_Baron }
		}
	# Ferenc Miákits
		HUN_AM_Ferenc_Miakits = {
			picture = Generic_Portrait
			allowed = { tag = HUN }
			visible = {
				date > 1919.1.1
				date < 1933.1.1
				C_Minister_Allowed = yes
				NOT = { has_country_flag = Ferenc_Miakits_unavailable }
			}
			cost = 150
			removal_cost = 10
			traits = { ideology_C AM_Steel_Magnate }
		}
	# István Hetényi
		HUN_AM_Istvan_Hetenyi = {
			picture = Generic_Portrait
			allowed = { tag = HUN }
			visible = {
				date > 1985.1.1
				date < 2009.1.1
				C_Minister_Allowed = yes
				NOT = { has_country_flag = Istvan_Hetenyi_unavailable }
			}
			cost = 150
			removal_cost = 10
			traits = { ideology_C AM_Administrative_Genius }
		}
	# Béla Zsedényi
		HUN_AM_Bela_Zsedenyi = {
			picture = Generic_Portrait
			allowed = { tag = HUN }
			visible = {
				date > 1933.1.1
				date < 1964.1.1
				C_Minister_Allowed = yes
				NOT = { has_country_flag = Bela_Zsedenyi_unavailable }
			}
			cost = 150
			removal_cost = 10
			traits = { ideology_C AM_Infantry_Proponent }
		}
	# Ernö Gerö
		HUN_AM_Erno_Gero = {
			picture = Generic_Portrait
			allowed = { tag = HUN }
			visible = {
				date > 1939.1.1
				date < 1964.1.1
				C_Minister_Allowed = yes
				NOT = { has_country_flag = Erno_Gero_unavailable }
			}
			cost = 150
			removal_cost = 10
			traits = { ideology_C AM_Planned_Economy_Proponent }
		}
	# Zoltán Vas
		HUN_AM_Zoltan_Vas = {
			picture = Generic_Portrait
			allowed = { tag = HUN }
			visible = {
				date > 1946.1.1
				date < 1964.1.1
				C_Minister_Allowed = yes
				NOT = { has_country_flag = Zoltan_Vas_unavailable }
			}
			cost = 150
			removal_cost = 10
			traits = { ideology_C AM_Military_Entrepreneur }
		}
	# Imre Horvath
		HUN_AM_Imre_Horvath = {
			picture = Generic_Portrait
			allowed = { tag = HUN }
			visible = {
				date > 1952.1.1
				date < 1964.1.1
				C_Minister_Allowed = yes
				NOT = { has_country_flag = Imre_Horvath_unavailable }
			}
			cost = 150
			removal_cost = 10
			traits = { ideology_C AM_Theoretical_Scientist }
		}
}
#################################################
### Head of Intelligence
#################################################
	Head_of_Intelligence = {
	# Sandor Csia
		HUN_HoI_Sandor_Csia = {
			picture = Generic_Portrait
			allowed = { tag = HUN }
			visible = {
				date > 1939.1.1
				date < 1964.1.1
				F_Minister_Allowed = yes
				NOT = { has_country_flag = Sandor_Csia_unavailable }
			}
			cost = 150
			removal_cost = 10
			traits = { ideology_F HoI_Industrial_Specialist }
		}
	# Ferenc Rajniss
		HUN_HoI_Ferenc_Rajniss = {
			picture = Generic_Portrait
			allowed = { tag = HUN }
			visible = {
				date > 1944.1.1
				date < 1964.1.1
				F_Minister_Allowed = yes
				NOT = { has_country_flag = Ferenc_Rajniss_unavailable }
			}
			cost = 150
			removal_cost = 10
			traits = { ideology_F HoI_Dismal_Enigma }
		}
	# Andor Jaross
		HUN_HoI_Andor_Jaross = {
			picture = Generic_Portrait
			allowed = { tag = HUN }
			visible = {
				date > 1944.1.1
				date < 1964.1.1
				F_Minister_Allowed = yes
				NOT = { has_country_flag = Andor_Jaross_unavailable }
			}
			cost = 150
			removal_cost = 10
			traits = { ideology_F HoI_Political_Specialist }
		}
	# Gyula Gömbös de Jakfa
		HUN_HoI_Gyula_Gombos_de_Jakfa = {
			picture = Generic_Portrait
			allowed = { tag = HUN }
			visible = {
				date > 1933.1.1
				date < 1964.1.1
				F_Minister_Allowed = yes
				NOT = { has_country_flag = Gyula_Gombos_de_Jakfa_unavailable }
			}
			cost = 150
			removal_cost = 10
			traits = { ideology_F HoI_Political_Specialist }
		}
	# Rezsö Andorka
		HUN_HoI_Rezso_Andorka = {
			picture = Generic_Portrait
			allowed = { tag = HUN }
			visible = {
				date > 1933.1.1
				date < 1964.1.1
				F_Minister_Allowed = yes
				NOT = { has_country_flag = Rezso_Andorka_unavailable }
			}
			cost = 150
			removal_cost = 10
			traits = { ideology_F HoI_Technical_Specialist }
		}
	# Mihaly Ujvári
		HUN_HoI_Mihaly_Ujvari = {
			picture = Generic_Portrait
			allowed = { tag = HUN }
			visible = {
				date > 1939.1.1
				date < 1964.1.1
				F_Minister_Allowed = yes
				NOT = { has_country_flag = Mihaly_Ujvari_unavailable }
			}
			cost = 150
			removal_cost = 10
			traits = { ideology_F HoI_Logistics_Specialist }
		}
	# András Zákó
		HUN_HoI_Andras_Zako = {
			picture = Generic_Portrait
			allowed = { tag = HUN }
			visible = {
				date > 1941.1.1
				date < 1964.1.1
				F_Minister_Allowed = yes
				NOT = { has_country_flag = Andras_Zako_unavailable }
			}
			cost = 150
			removal_cost = 10
			traits = { ideology_F HoI_Political_Specialist }
		}
	# Kádár Gyula
		HUN_HoI_Kadar_Gyula = {
			picture = Generic_Portrait
			allowed = { tag = HUN }
			visible = {
				date > 1943.1.1
				date < 1964.1.1
				F_Minister_Allowed = yes
				NOT = { has_country_flag = Kadar_Gyula_unavailable }
			}
			cost = 150
			removal_cost = 10
			traits = { ideology_F HoI_Dismal_Enigma }
		}
	# Edgar Keksz
		HUN_HoI_Edgar_Keksz = {
			picture = Generic_Portrait
			allowed = { tag = HUN }
			visible = {
				date > 1944.1.1
				date < 1964.1.1
				A_Minister_Allowed = yes
				NOT = { has_country_flag = Edgar_Keksz_unavailable }
			}
			cost = 150
			removal_cost = 10
			traits = { ideology_A HoI_Naval_Intelligence_Specialist }
		}
	# Ferenc Keresztes-Fischer
		HUN_HoI_Ferenc_KeresztesFischer = {
			picture = Generic_Portrait
			allowed = { tag = HUN }
			visible = {
				date > 1945.1.1
				date < 1964.1.1
				A_Minister_Allowed = yes
				NOT = { has_country_flag = Ferenc_KeresztesFischer_unavailable }
			}
			cost = 150
			removal_cost = 10
			traits = { ideology_A HoI_Industrial_Specialist }
		}
	# Béla Király
		HUN_HoI_Bela_Kiraly = {
			picture = Generic_Portrait
			allowed = { tag = HUN }
			visible = {
				date > 1980.1.1
				date < 2009.1.1
				A_Minister_Allowed = yes
				NOT = { has_country_flag = Bela_Kiraly_unavailable }
			}
			cost = 150
			removal_cost = 10
			traits = { ideology_A HoI_Technical_Specialist }
		}
	# Zoltán Tildy
		HUN_HoI_Zoltan_Tildy = {
			picture = Generic_Portrait
			allowed = { tag = HUN }
			visible = {
				date > 1933.1.1
				date < 1964.1.1
				D_Minister_Allowed = yes
				NOT = { has_country_flag = Zoltan_Tildy_unavailable }
			}
			cost = 150
			removal_cost = 10
			traits = { ideology_D HoI_Dismal_Enigma }
		}
	# József Széll
		HUN_HoI_Jozsef_Szell = {
			picture = Generic_Portrait
			allowed = { tag = HUN }
			visible = {
				date > 1944.1.1
				date < 1964.1.1
				D_Minister_Allowed = yes
				NOT = { has_country_flag = Jozsef_Szell_unavailable }
			}
			cost = 150
			removal_cost = 10
			traits = { ideology_D HoI_Political_Specialist }
		}
	# Károly Peyer
		HUN_HoI_Karoly_Peyer = {
			picture = Generic_Portrait
			allowed = { tag = HUN }
			visible = {
				date > 1945.1.1
				date < 1964.1.1
				D_Minister_Allowed = yes
				NOT = { has_country_flag = Karoly_Peyer_unavailable }
			}
			cost = 150
			removal_cost = 10
			traits = { ideology_D HoI_Industrial_Specialist }
		}
	# Ferenc Kárpáti
		HUN_HoI_Ferenc_Karpati = {
			picture = Generic_Portrait
			allowed = { tag = HUN }
			visible = {
				date > 1985.1.1
				date < 2014.1.1
				D_Minister_Allowed = yes
				NOT = { has_country_flag = Ferenc_Karpati_unavailable }
			}
			cost = 150
			removal_cost = 10
			traits = { ideology_D HoI_Logistics_Specialist }
		}
	# István Oláh
		HUN_HoI_Istvan_Olah = {
			picture = Generic_Portrait
			allowed = { tag = HUN }
			visible = {
				date > 1985.1.1
				date < 1986.1.1
				C_Minister_Allowed = yes
				NOT = { has_country_flag = Istvan_Olah_unavailable }
			}
			cost = 150
			removal_cost = 10
			traits = { ideology_C HoI_Logistics_Specialist }
		}
	# Ernö Gerö
		HUN_HoI_Erno_Gero = {
			picture = Generic_Portrait
			allowed = { tag = HUN }
			visible = {
				date > 1933.1.1
				date < 1964.1.1
				C_Minister_Allowed = yes
				NOT = { has_country_flag = Erno_Gero_unavailable }
			}
			cost = 150
			removal_cost = 10
			traits = { ideology_C HoI_Logistics_Specialist }
		}
	# László Rajk
		HUN_HoI_Laszlo_Rajk = {
			picture = Generic_Portrait
			allowed = { tag = HUN }
			visible = {
				date > 1946.1.1
				date < 1964.1.1
				C_Minister_Allowed = yes
				NOT = { has_country_flag = Laszlo_Rajk_unavailable }
			}
			cost = 150
			removal_cost = 10
			traits = { ideology_C HoI_Political_Specialist }
		}
}
#################################################
### Chief of Staff
#################################################
	Chief_of_Staff = {
	# Lajos Csatay von Csatai
		HUN_CoStaff_Lajos_Csatay_von_Csatai = {
			picture = Generic_Portrait
			allowed = { tag = HUN }
			visible = {
				date > 1939.1.1
				date < 1964.1.1
				F_Minister_Allowed = yes
				NOT = { has_country_flag = Lajos_Csatay_von_Csatai_unavailable }
			}
			cost = 150
			removal_cost = 10
			traits = { ideology_F CoStaff_School_Of_Manoeuvre }
		}
	# Károlyi Beregffy
		HUN_CoStaff_Karolyi_Beregffy = {
			picture = Generic_Portrait
			allowed = { tag = HUN }
			visible = {
				date > 1944.1.1
				date < 1964.1.1
				F_Minister_Allowed = yes
				NOT = { has_country_flag = Karolyi_Beregffy_unavailable }
			}
			cost = 150
			removal_cost = 10
			traits = { ideology_F CoStaff_School_Of_Manoeuvre }
		}
	# Gustáv Henneyey
		HUN_CoStaff_Gustav_Henneyey = {
			picture = Generic_Portrait
			allowed = { tag = HUN }
			visible = {
				date > 1933.1.1
				date < 1964.1.1
				F_Minister_Allowed = yes
				NOT = { has_country_flag = Gustav_Henneyey_unavailable }
			}
			cost = 150
			removal_cost = 10
			traits = { ideology_F CoStaff_School_Of_Mass_Combat }
		}
	# Karoly Barthá von Dálnokfalva
		HUN_CoStaff_Karoly_Bartha_von_Dalnokfalva = {
			picture = Generic_Portrait
			allowed = { tag = HUN }
			visible = {
				date > 1938.1.1
				date < 1964.1.1
				F_Minister_Allowed = yes
				NOT = { has_country_flag = Karoly_Bartha_von_Dalnokfalva_unavailable }
			}
			cost = 150
			removal_cost = 10
			traits = { ideology_F CoStaff_School_Of_Psychology }
		}
	# Vilmos Nagy
		HUN_CoStaff_Vilmos_Nagy = {
			picture = Generic_Portrait
			allowed = { tag = HUN }
			visible = {
				date > 1942.1.1
				date < 1964.1.1
				F_Minister_Allowed = yes
				NOT = { has_country_flag = Vilmos_Nagy_unavailable }
			}
			cost = 150
			removal_cost = 10
			traits = { ideology_F CoStaff_School_Of_Defence }
		}
	# Sandór Szurmay
		HUN_CoStaff_Sandor_Szurmay = {
			picture = Generic_Portrait
			allowed = { tag = HUN }
			visible = {
				date > 1944.1.1
				date < 1964.1.1
				F_Minister_Allowed = yes
				NOT = { has_country_flag = Sandor_Szurmay_unavailable }
			}
			cost = 150
			removal_cost = 10
			traits = { ideology_F CoStaff_School_Of_Fire_Support }
		}
	# Vilmos Röder
		HUN_CoStaff_Vilmos_Roder = {
			picture = Generic_Portrait
			allowed = { tag = HUN }
			visible = {
				date > 1945.1.1
				date < 1964.1.1
				A_Minister_Allowed = yes
				NOT = { has_country_flag = Vilmos_Roder_unavailable }
			}
			cost = 150
			removal_cost = 10
			traits = { ideology_A CoStaff_Commando_Doctrine_Staff }
		}
	# Béla Király
		HUN_CoStaff_Bela_Kiraly = {
			picture = Generic_Portrait
			allowed = { tag = HUN }
			visible = {
				date > 1980.1.1
				date < 2009.1.1
				A_Minister_Allowed = yes
				NOT = { has_country_flag = Bela_Kiraly_unavailable }
			}
			cost = 150
			removal_cost = 10
			traits = { ideology_A CoStaff_School_Of_Psychology }
		}
	# János Vörös
		HUN_CoStaff_Janos_Voros = {
			picture = Generic_Portrait
			allowed = { tag = HUN }
			visible = {
				date > 1933.1.1
				date < 1964.1.1
				D_Minister_Allowed = yes
				NOT = { has_country_flag = Janos_Voros_unavailable }
			}
			cost = 150
			removal_cost = 10
			traits = { ideology_D CoStaff_School_Of_Manoeuvre }
		}
	# Ferenc Kárpáti
		HUN_CoStaff_Ferenc_Karpati = {
			picture = Generic_Portrait
			allowed = { tag = HUN }
			visible = {
				date > 1985.1.1
				date < 2014.1.1
				D_Minister_Allowed = yes
				NOT = { has_country_flag = Ferenc_Karpati_unavailable }
			}
			cost = 150
			removal_cost = 10
			traits = { ideology_D CoStaff_School_Of_Psychology }
		}
	# István Oláh
		HUN_CoStaff_Istvan_Olah = {
			picture = Generic_Portrait
			allowed = { tag = HUN }
			visible = {
				date > 1985.1.1
				date < 1986.1.1
				C_Minister_Allowed = yes
				NOT = { has_country_flag = Istvan_Olah_unavailable }
			}
			cost = 150
			removal_cost = 10
			traits = { ideology_C CoStaff_School_Of_Defence }
		}
	# Matta Zalka
		HUN_CoStaff_Matta_Zalka = {
			picture = Generic_Portrait
			allowed = { tag = HUN }
			visible = {
				date > 1933.1.1
				date < 1964.1.1
				C_Minister_Allowed = yes
				NOT = { has_country_flag = Matta_Zalka_unavailable }
			}
			cost = 150
			removal_cost = 10
			traits = { ideology_C CoStaff_School_Of_Psychology }
		}
	# Gabor Sziszkalatay
		HUN_CoStaff_Gabor_Sziszkalatay = {
			picture = Generic_Portrait
			allowed = { tag = HUN }
			visible = {
				date > 1947.1.1
				date < 1964.1.1
				C_Minister_Allowed = yes
				NOT = { has_country_flag = Gabor_Sziszkalatay_unavailable }
			}
			cost = 150
			removal_cost = 10
			traits = { ideology_C CoStaff_Commando_Doctrine_Staff }
		}
}
#################################################
### Chief of Army
#################################################
	Chief_of_Army = {
	# Ferenc Feketehalmy-Czeydner
		HUN_CoArmy_Ferenc_FeketehalmyCzeydner = {
			picture = Generic_Portrait
			allowed = { tag = HUN }
			visible = {
				date > 1939.1.1
				date < 1964.1.1
				F_Minister_Allowed = yes
				NOT = { has_country_flag = Ferenc_FeketehalmyCzeydner_unavailable }
			}
			cost = 150
			removal_cost = 10
			traits = { ideology_F CoArmy_Elastic_Defence_Doctrine }
		}
	# Lajos Csatay von Csatai
		HUN_CoArmy_Lajos_Csatay_von_Csatai = {
			picture = Generic_Portrait
			allowed = { tag = HUN }
			visible = {
				date > 1944.1.1
				date < 1964.1.1
				F_Minister_Allowed = yes
				NOT = { has_country_flag = Lajos_Csatay_von_Csatai_unavailable }
			}
			cost = 150
			removal_cost = 10
			traits = { ideology_F CoArmy_Armoured_Spearhead_Doctrine }
		}
	# Károlyi Beregffy
		HUN_CoArmy_Karolyi_Beregffy = {
			picture = Generic_Portrait
			allowed = { tag = HUN }
			visible = {
				date > 1944.1.1
				date < 1964.1.1
				F_Minister_Allowed = yes
				NOT = { has_country_flag = Karolyi_Beregffy_unavailable }
			}
			cost = 150
			removal_cost = 10
			traits = { ideology_F CoArmy_Guns_And_Butter_Doctrine }
		}
	# István Shvoy
		HUN_CoArmy_Istvan_Shvoy = {
			picture = Generic_Portrait
			allowed = { tag = HUN }
			visible = {
				date > 1933.1.1
				date < 1964.1.1
				F_Minister_Allowed = yes
				NOT = { has_country_flag = Istvan_Shvoy_unavailable }
			}
			cost = 150
			removal_cost = 10
			traits = { ideology_F CoArmy_Decisive_Battle_Doctrine }
		}
	# Henrik Werth
		HUN_CoArmy_Henrik_Werth = {
			picture = Generic_Portrait
			allowed = { tag = HUN }
			visible = {
				date > 1938.1.1
				date < 1964.1.1
				F_Minister_Allowed = yes
				NOT = { has_country_flag = Henrik_Werth_unavailable }
			}
			cost = 150
			removal_cost = 10
			traits = { ideology_F CoArmy_Static_Defence_Doctrine }
		}
	# Edgar Keksz
		HUN_CoArmy_Edgar_Keksz = {
			picture = Generic_Portrait
			allowed = { tag = HUN }
			visible = {
				date > 1942.1.1
				date < 1964.1.1
				F_Minister_Allowed = yes
				NOT = { has_country_flag = Edgar_Keksz_unavailable }
			}
			cost = 150
			removal_cost = 10
			traits = { ideology_F CoArmy_Guns_And_Butter_Doctrine }
		}
	# Géza Lakatos
		HUN_CoArmy_Geza_Lakatos = {
			picture = Generic_Portrait
			allowed = { tag = HUN }
			visible = {
				date > 1944.1.1
				date < 1964.1.1
				F_Minister_Allowed = yes
				NOT = { has_country_flag = Geza_Lakatos_unavailable }
			}
			cost = 150
			removal_cost = 10
			traits = { ideology_F CoArmy_Elastic_Defence_Doctrine }
		}
	# Béla Miklós de Dalnók
		HUN_CoArmy_Bela_Miklos_de_Dalnok = {
			picture = Generic_Portrait
			allowed = { tag = HUN }
			visible = {
				date > 1944.1.1
				date < 1964.1.1
				A_Minister_Allowed = yes
				NOT = { has_country_flag = Bela_Miklos_de_Dalnok_unavailable }
			}
			cost = 150
			removal_cost = 10
			traits = { ideology_A CoArmy_Static_Defence_Doctrine }
		}
	# Hugó Sónyi
		HUN_CoArmy_Hugo_Sonyi = {
			picture = Generic_Portrait
			allowed = { tag = HUN }
			visible = {
				date > 1945.1.1
				date < 1964.1.1
				A_Minister_Allowed = yes
				NOT = { has_country_flag = Hugo_Sonyi_unavailable }
			}
			cost = 150
			removal_cost = 10
			traits = { ideology_A CoArmy_Decisive_Battle_Doctrine }
		}
	# Béla Király
		HUN_CoArmy_Bela_Kiraly = {
			picture = Generic_Portrait
			allowed = { tag = HUN }
			visible = {
				date > 1980.1.1
				date < 2009.1.1
				A_Minister_Allowed = yes
				NOT = { has_country_flag = Bela_Kiraly_unavailable }
			}
			cost = 150
			removal_cost = 10
			traits = { ideology_A CoArmy_Guerilla_Warfare_Doctrine }
		}
	# Ferenc Szombathelyi
		HUN_CoArmy_Ferenc_Szombathelyi = {
			picture = Generic_Portrait
			allowed = { tag = HUN }
			visible = {
				date > 1933.1.1
				date < 1964.1.1
				D_Minister_Allowed = yes
				NOT = { has_country_flag = Ferenc_Szombathelyi_unavailable }
			}
			cost = 150
			removal_cost = 10
			traits = { ideology_D CoArmy_Static_Defence_Doctrine }
		}
	# János Vörös
		HUN_CoArmy_Janos_Voros = {
			picture = Generic_Portrait
			allowed = { tag = HUN }
			visible = {
				date > 1944.1.1
				date < 1964.1.1
				D_Minister_Allowed = yes
				NOT = { has_country_flag = Janos_Voros_unavailable }
			}
			cost = 150
			removal_cost = 10
			traits = { ideology_D CoArmy_Elastic_Defence_Doctrine }
		}
	# Gabor Sziszkalatay
		HUN_CoArmy_Gabor_Sziszkalatay = {
			picture = Generic_Portrait
			allowed = { tag = HUN }
			visible = {
				date > 1945.1.1
				date < 1964.1.1
				D_Minister_Allowed = yes
				NOT = { has_country_flag = Gabor_Sziszkalatay_unavailable }
			}
			cost = 150
			removal_cost = 10
			traits = { ideology_D CoArmy_Commando_Doctrine_Army }
		}
	# Ferenc Kárpáti
		HUN_CoArmy_Ferenc_Karpati = {
			picture = Generic_Portrait
			allowed = { tag = HUN }
			visible = {
				date > 1985.1.1
				date < 2014.1.1
				D_Minister_Allowed = yes
				NOT = { has_country_flag = Ferenc_Karpati_unavailable }
			}
			cost = 150
			removal_cost = 10
			traits = { ideology_D CoArmy_Guns_And_Butter_Doctrine }
		}
	# István Oláh
		HUN_CoArmy_Istvan_Olah = {
			picture = Generic_Portrait
			allowed = { tag = HUN }
			visible = {
				date > 1985.1.1
				date < 1986.1.1
				C_Minister_Allowed = yes
				NOT = { has_country_flag = Istvan_Olah_unavailable }
			}
			cost = 150
			removal_cost = 10
			traits = { ideology_C CoArmy_Static_Defence_Doctrine }
		}
	# Nikolaj Berzin
		HUN_CoArmy_Nikolaj_Berzin = {
			picture = Generic_Portrait
			allowed = { tag = HUN }
			visible = {
				date > 1933.1.1
				date < 1964.1.1
				C_Minister_Allowed = yes
				NOT = { has_country_flag = Nikolaj_Berzin_unavailable }
			}
			cost = 150
			removal_cost = 10
			traits = { ideology_C CoArmy_Decisive_Battle_Doctrine }
		}
}
#################################################
### Chief of Navy
#################################################
	Chief_of_Navy = {
	# Sandor Csia
		HUN_CoNavy_Sandor_Csia = {
			picture = Generic_Portrait
			allowed = { tag = HUN }
			visible = {
				date > 1939.1.1
				date < 1964.1.1
				F_Minister_Allowed = yes
				NOT = { has_country_flag = Sandor_Csia_unavailable }
			}
			cost = 150
			removal_cost = 10
			traits = { ideology_F CoNavy_Base_Control_Doctrine }
		}
	# Miklós Horthy de Nagybánya
		HUN_CoNavy_Miklos_Horthy_de_Nagybanya = {
			picture = Generic_Portrait
			allowed = { tag = HUN }
			visible = {
				date > 1933.1.1
				date < 1964.1.1
				F_Minister_Allowed = yes
				NOT = { has_country_flag = Miklos_Horthy_de_Nagybanya_unavailable }
			}
			cost = 150
			removal_cost = 10
			traits = { ideology_F CoNavy_Decisive_Naval_Battle_Doctrine }
		}
	# Miklós Horthy
		HUN_CoNavy_Miklos_Horthy_2 = {
			picture = Generic_Portrait
			allowed = { tag = HUN }
			visible = {
				date > 1914.1.1
				date < 1933.1.1
				A_Minister_Allowed = yes
				NOT = { has_country_flag = Miklos_Horthy_unavailable }
			}
			cost = 150
			removal_cost = 10
			traits = { ideology_A CoNavy_Decisive_Naval_Battle_Doctrine }
		}
	# Edgar Keksz
		HUN_CoNavy_Edgar_Keksz = {
			picture = Generic_Portrait
			allowed = { tag = HUN }
			visible = {
				date > 1944.1.1
				date < 1964.1.1
				A_Minister_Allowed = yes
				NOT = { has_country_flag = Edgar_Keksz_unavailable }
			}
			cost = 150
			removal_cost = 10
			traits = { ideology_A CoNavy_Base_Control_Doctrine }
		}
	# Otto I Habsburg
		HUN_CoNavy_Otto_I_Habsburg = {
			picture = Generic_Portrait
			allowed = { tag = HUN }
			visible = {
				date > 1945.1.1
				date < 1964.1.1
				A_Minister_Allowed = yes
				NOT = { has_country_flag = Otto_I_Habsburg_unavailable }
			}
			cost = 150
			removal_cost = 10
			traits = { ideology_A CoNavy_Indirect_Approach_Doctrine }
		}
	# Francois Deak
		HUN_CoNavy_Francois_Deak = {
			picture = Generic_Portrait
			allowed = { tag = HUN }
			visible = {
				date > 1933.1.1
				date < 1964.1.1
				D_Minister_Allowed = yes
				NOT = { has_country_flag = Francois_Deak_unavailable }
			}
			cost = 150
			removal_cost = 10
			traits = { ideology_D CoNavy_Power_Projection_Doctrine }
		}
	# Reszö Kastner
		HUN_CoNavy_Reszo_Kastner = {
			picture = Generic_Portrait
			allowed = { tag = HUN }
			visible = {
				date > 1945.1.1
				date < 1964.1.1
				D_Minister_Allowed = yes
				NOT = { has_country_flag = Reszo_Kastner_unavailable }
			}
			cost = 150
			removal_cost = 10
			traits = { ideology_D CoNavy_Base_Control_Doctrine }
		}
	# Ferenc Kárpáti
		HUN_CoNavy_Ferenc_Karpati = {
			picture = Generic_Portrait
			allowed = { tag = HUN }
			visible = {
				date > 1985.1.1
				date < 2014.1.1
				D_Minister_Allowed = yes
				NOT = { has_country_flag = Ferenc_Karpati_unavailable }
			}
			cost = 150
			removal_cost = 10
			traits = { ideology_D CoNavy_Decisive_Naval_Battle_Doctrine }
		}
	# István Oláh
		HUN_CoNavy_Istvan_Olah = {
			picture = Generic_Portrait
			allowed = { tag = HUN }
			visible = {
				date > 1985.1.1
				date < 1986.1.1
				C_Minister_Allowed = yes
				NOT = { has_country_flag = Istvan_Olah_unavailable }
			}
			cost = 150
			removal_cost = 10
			traits = { ideology_C CoNavy_Decisive_Naval_Battle_Doctrine }
		}
	# Kálmán Hardy
		HUN_CoNavy_Kalman_Hardy = {
			picture = Generic_Portrait
			allowed = { tag = HUN }
			visible = {
				date > 1933.1.1
				date < 1964.1.1
				C_Minister_Allowed = yes
				NOT = { has_country_flag = Kalman_Hardy_unavailable }
			}
			cost = 150
			removal_cost = 10
			traits = { ideology_C CoNavy_Decisive_Naval_Battle_Doctrine }
		}
}
#################################################
### Chief of Airforce
#################################################
	Chief_of_Airforce = {
	# Sandor Maguarosy
		HUN_CoAir_Sandor_Maguarosy = {
			picture = Generic_Portrait
			allowed = { tag = HUN }
			visible = {
				date > 1939.1.1
				date < 1964.1.1
				F_Minister_Allowed = yes
				NOT = { has_country_flag = Sandor_Maguarosy_unavailable }
			}
			cost = 150
			removal_cost = 10
			traits = { ideology_F CoAir_Army_Aviation_Doctrine }
		}
	# Ferenc Szálasi
		HUN_CoAir_Ferenc_Szalasi = {
			picture = Generic_Portrait
			allowed = { tag = HUN }
			visible = {
				date > 1944.1.1
				date < 1964.1.1
				F_Minister_Allowed = yes
				NOT = { has_country_flag = Ferenc_Szalasi_unavailable }
			}
			cost = 150
			removal_cost = 10
			traits = { ideology_F CoAir_Naval_Aviation_Doctrine }
		}
	# László Tomor
		HUN_CoAir_Laszlo_Tomor = {
			picture = Generic_Portrait
			allowed = { tag = HUN }
			visible = {
				date > 1933.1.1
				date < 1964.1.1
				F_Minister_Allowed = yes
				NOT = { has_country_flag = Laszlo_Tomor_unavailable }
			}
			cost = 150
			removal_cost = 10
			traits = { ideology_F CoAir_Air_Superiority_Doctrine }
		}
	# Ferenc Feketehalmy-Czeydner
		HUN_CoAir_Ferenc_FeketehalmyCzeydner = {
			picture = Generic_Portrait
			allowed = { tag = HUN }
			visible = {
				date > 1938.1.1
				date < 1964.1.1
				F_Minister_Allowed = yes
				NOT = { has_country_flag = Ferenc_FeketehalmyCzeydner_unavailable }
			}
			cost = 150
			removal_cost = 10
			traits = { ideology_F CoAir_Army_Aviation_Doctrine }
		}
	# Györghyi De Brody
		HUN_CoAir_Gyorghyi_De_Brody = {
			picture = Generic_Portrait
			allowed = { tag = HUN }
			visible = {
				date > 1941.1.1
				date < 1964.1.1
				F_Minister_Allowed = yes
				NOT = { has_country_flag = Gyorghyi_De_Brody_unavailable }
			}
			cost = 150
			removal_cost = 10
			traits = { ideology_F CoAir_Vertical_Envelopment_Doctrine }
		}
	# Kálmán Ternegg-Ratz
		HUN_CoAir_Kalman_TerneggRatz = {
			picture = Generic_Portrait
			allowed = { tag = HUN }
			visible = {
				date > 1944.1.1
				date < 1964.1.1
				A_Minister_Allowed = yes
				NOT = { has_country_flag = Kalman_TerneggRatz_unavailable }
			}
			cost = 150
			removal_cost = 10
			traits = { ideology_A CoAir_Army_Aviation_Doctrine }
		}
	# Ferenc Keresztes-Fischer
		HUN_CoAir_Ferenc_KeresztesFischer = {
			picture = Generic_Portrait
			allowed = { tag = HUN }
			visible = {
				date > 1946.1.1
				date < 1964.1.1
				A_Minister_Allowed = yes
				NOT = { has_country_flag = Ferenc_KeresztesFischer_unavailable }
			}
			cost = 150
			removal_cost = 10
			traits = { ideology_A CoAir_Air_Superiority_Doctrine }
		}
	# Béla Király
		HUN_CoAir_Bela_Kiraly = {
			picture = Generic_Portrait
			allowed = { tag = HUN }
			visible = {
				date > 1980.1.1
				date < 2009.1.1
				A_Minister_Allowed = yes
				NOT = { has_country_flag = Bela_Kiraly_unavailable }
			}
			cost = 150
			removal_cost = 10
			traits = { ideology_A CoAir_Army_Aviation_Doctrine }
		}
	# Béla Rákosi
		HUN_CoAir_Bela_Rakosi = {
			picture = Generic_Portrait
			allowed = { tag = HUN }
			visible = {
				date > 1933.1.1
				date < 1964.1.1
				D_Minister_Allowed = yes
				NOT = { has_country_flag = Bela_Rakosi_unavailable }
			}
			cost = 150
			removal_cost = 10
			traits = { ideology_D CoAir_Vertical_Envelopment_Doctrine }
		}
	# Edgar Keksz
		HUN_CoAir_Edgar_Keksz = {
			picture = Generic_Portrait
			allowed = { tag = HUN }
			visible = {
				date > 1945.1.1
				date < 1964.1.1
				D_Minister_Allowed = yes
				NOT = { has_country_flag = Edgar_Keksz_unavailable }
			}
			cost = 150
			removal_cost = 10
			traits = { ideology_D CoAir_Air_Superiority_Doctrine }
		}
	# Ferenc Kárpáti
		HUN_CoAir_Ferenc_Karpati = {
			picture = Generic_Portrait
			allowed = { tag = HUN }
			visible = {
				date > 1985.1.1
				date < 2014.1.1
				D_Minister_Allowed = yes
				NOT = { has_country_flag = Ferenc_Karpati_unavailable }
			}
			cost = 150
			removal_cost = 10
			traits = { ideology_D CoAir_Air_Superiority_Doctrine }
		}
	# István Oláh
		HUN_CoAir_Istvan_Olah = {
			picture = Generic_Portrait
			allowed = { tag = HUN }
			visible = {
				date > 1985.1.1
				date < 1986.1.1
				C_Minister_Allowed = yes
				NOT = { has_country_flag = Istvan_Olah_unavailable }
			}
			cost = 150
			removal_cost = 10
			traits = { ideology_C CoAir_Air_Superiority_Doctrine }
		}
	# Györghyi De Brody
		HUN_CoAir_Gyorghyi_De_Brody_2 = {
			picture = Generic_Portrait
			allowed = { tag = HUN }
			visible = {
				date > 1933.1.1
				date < 1964.1.1
				C_Minister_Allowed = yes
				NOT = { has_country_flag = Gyorghyi_De_Brody_unavailable }
			}
			cost = 150
			removal_cost = 10
			traits = { ideology_C CoAir_Air_Superiority_Doctrine }
		}
	}
}
