ideas = {
	country = {
	
		MAN_Kangde_Emperor = {
			allowed = {
				always = no
			}
			allowed_civil_war = {
				NOT = {
					is_democratic = yes
				}
			}
			removal_cost = -1
			
			picture = Puyi
			
			modifier = {
				stability_factor = 0.15
				political_power_gain = 0.05
			}
		}
	
		MAN_exiled_imperial_family = {

			allowed = {
				always = no
			}

			allowed_civil_war = {
				has_government = fascist
			}
			
			removal_cost = -1

			picture = state_shintoism
			
			modifier = {
				army_morale_factor = 0.1
				stability_factor = 0.1
				war_support_factor = 0.05
			}
		}

		MAN_banditry = {

			available = {
				OR = {
					has_country_flag = MAN_northern_bandits
					has_country_flag = MAN_eastern_bandits
					has_country_flag = MAN_western_bandits
				}
			}

			allowed = {
				always = no
			}

			allowed_civil_war = {
				original_tag = MAN
			}
			
			removal_cost = -1

			picture = chi_army_corruption2
			
			modifier = {
				stability_factor = -0.1
				war_support_factor = -0.1
			}
		}

		MAN_kwantung_veto = {

			allowed = {
				always = no
			}

			allowed_civil_war = {
				original_tag = MAN
			}
			
			removal_cost = -1

			picture = generic_secret_police
			
			modifier = {
				#trade_laws_cost_factor = 0.25
				#mobilization_laws_cost_factor = 0.25
				#mobilization_laws_cost_factor = 0.25
			}
		}

		MAN_low_legitimacy_5 = {
			
			name = MAN_low_legitimacy

			allowed = {
				always = no
			}

			allowed_civil_war = {
				original_tag = MAN
			}
			
			removal_cost = -1

			picture = man_low_legitimacy
			
			modifier = {
				stability_factor = -0.5
				war_support_factor = -0.5
			}
		}
		MAN_low_legitimacy_4 = {
			
			name = MAN_low_legitimacy

			allowed = {
				always = no
			}

			allowed_civil_war = {
				original_tag = MAN
			}
			
			removal_cost = -1

			picture = man_low_legitimacy2
			
			modifier = {
				stability_factor = -0.4
				war_support_factor = -0.4
			}
		}
		MAN_low_legitimacy_3 = {
			
			name = MAN_low_legitimacy

			allowed = {
				always = no
			}

			allowed_civil_war = {
				original_tag = MAN
			}
			
			removal_cost = -1

			picture = man_low_legitimacy3
			
			modifier = {
				stability_factor = -0.3
				war_support_factor = -0.3
			}
		}
		MAN_low_legitimacy_2 = {
			
			name = MAN_low_legitimacy

			allowed = {
				always = no
			}

			allowed_civil_war = {
				original_tag = MAN
			}
			
			removal_cost = -1

			picture = man_low_legitimacy4
			
			modifier = {
				stability_factor = -0.2
				war_support_factor = -0.2
			}
		}
		MAN_low_legitimacy_1 = {
			
			name = MAN_low_legitimacy

			allowed = {
				always = no
			}

			allowed_civil_war = {
				original_tag = MAN
			}
			
			removal_cost = -1

			picture = man_low_legitimacy5
			
			modifier = {
				stability_factor = -0.1
				war_support_factor = -0.1
			}
		}

		MAN_mukden_military_academy = {

			allowed = {
				always = no
			}

			allowed_civil_war = {
				original_tag = MAN
			}
			
			removal_cost = -1

			picture = generic_army_war_college
			
			modifier = {
				max_command_power = 25
			}
		}

		MAN_national_defense_state = {

			allowed = {
				always = no
			}

			allowed_civil_war = {
				original_tag = MAN
			}
			
			removal_cost = -1

			picture = ast_naval_auxiliary_patrol
			
			modifier = {
				industrial_capacity_factory = 0.05
			}
		}

		MAN_white_russian_advisers = {

			allowed = {
				always = no
			}

			allowed_civil_war = {
				original_tag = MAN
			}
			
			removal_cost = -1

			picture = generic_war_preparation
			
			modifier = {
				army_morale_factor = 0.05
				army_core_attack_factor = 0.05
				army_core_defence_factor = 0.05
			}
		}

		MAN_five_people_armies = {

			allowed = {
				always = no
			}

			allowed_civil_war = {
				original_tag = MAN
			}
			
			removal_cost = -1

			picture = generic_manpower_bonus
			
			modifier = {
				conscription = 0.02
			}
		}

		MAN_five_year_plan_air = {

			name = MAN_five_year_plan

			allowed = {
				always = no
			}

			allowed_civil_war = {
				original_tag = MAN
			}
			
			removal_cost = -1

			picture = man_five_year_plan_air
			
			research_bonus = { air_equipment = 0.1 }

			modifier = {
				production_speed_arms_factory_factor = 0.05
				production_speed_air_base_factor = 0.05
			}
		}
		MAN_five_year_plan_tank = {

			name = MAN_five_year_plan

			allowed = {
				always = no
			}

			allowed_civil_war = {
				original_tag = MAN
			}
			
			removal_cost = -1

			picture = man_five_year_plan_tank

			research_bonus = { armor = 0.05 }
			
			modifier = {
				production_speed_arms_factory_factor = 0.05
			}
		}
		MAN_five_year_plan_industry = {

			name = MAN_five_year_plan

			allowed = {
				always = no
			}

			allowed_civil_war = {
				original_tag = MAN
			}
			
			removal_cost = -1

			picture = man_five_year_plan_industry
			
			research_bonus = { industry = 0.05 }
			modifier = {
				production_speed_industrial_complex_factor = 0.05
			}
		}

		MAN_assertiveness = {

			allowed = {
				always = no
			}

			allowed_civil_war = {
				original_tag = MAN
			}

			available = {
				compare_autonomy_state < autonomy_wtt_imperial_associate
			}
			
			removal_cost = -1

			picture = generic_intel_bonus
			
			modifier = {
				autonomy_gain = 5
			}
		}

		MAN_bolster_nationalism = {

			allowed = {
				always = no
			}

			allowed_civil_war = {
				always = yes
			}
			
			removal_cost = -1

			picture = chi_war_of_resistance
			
			targeted_modifier = {
				tag = JAP
				attack_bonus_against = 0.15
				defense_bonus_against = 0.3
			}
		}
	}


	high_command = {

		MAN_yonimitsu_kasahara = {

			picture = generic_army_asia_3
			
			allowed = {
				original_tag = MAN
			}
			
			traits = { army_regrouping_2 }
			
			ai_will_do = {
				factor = 1
			}
		}

		MAN_kyoiji_tomonaga = {

			picture = generic_air_asia_2
			
			allowed = {
				original_tag = MAN
			}
			
			traits = { army_infantry_2 }
			
			ai_will_do = {
				factor = 1
			}
		}

		MAN_hesehn_tiemei = {

			picture = generic_army_asia_1
			
			allowed = {
				original_tag = MAN
			}
			
			traits = { army_logistics_2 }
			
			ai_will_do = {
				factor = 1
			}
		}
	}



	theorist = {
		MAN_hung_zhehuang = {

			picture = generic_army_asia_1
			
			allowed = {
				original_tag = MAN
			}
			
			research_bonus = {
				land_doctrine = 0.07
			}
			
			traits = { military_theorist }
		}
		
		MAN_deng_linge = { 

			picture = generic_air_asia_2
			
			allowed = {
				original_tag = MAN
			}
			
			research_bonus = {
				air_doctrine = 0.07
			}
			
			traits = { air_warfare_theorist }
		}
	}



}