ideas = {
#################################################
### Head of Government
#################################################
	Head_of_Government = {
	# Dragisa Cvetkovic
		SER_HoG_Dragisa_Cvetkovic = {
			picture = Generic_Portrait
			allowed = { tag = SER }
			available = {
				date > 1933.1.1
				date < 1964.1.1
				F_Minister_Allowed = yes
				NOT = { has_country_flag = Dragisa_Cvetkovic_unavailable }
			}
			cost = 150
			removal_cost = 10
			traits = { ideology_F HoG_Corporate_Suit }
		}
	# Milan Acimovic
		SER_HoG_Milan_Acimovic = {
			picture = Generic_Portrait
			allowed = { tag = SER }
			available = {
				date > 1941.1.1
				date < 1964.1.1
				F_Minister_Allowed = yes
				NOT = { has_country_flag = Milan_Acimovic_unavailable }
			}
			cost = 150
			removal_cost = 10
			traits = { ideology_F HoG_Corporate_Suit }
		}
	# Milan Nedic
		SER_HoG_Milan_Nedic = {
			picture = Generic_Portrait
			allowed = { tag = SER }
			available = {
				date > 1941.1.1
				date < 1964.1.1
				F_Minister_Allowed = yes
				NOT = { has_country_flag = Milan_Nedic_unavailable }
			}
			cost = 150
			removal_cost = 10
			traits = { ideology_F HoG_Corporate_Suit }
		}
	# Vojislav Mihailovic
		SER_HoG_Vojislav_Mihailovic = {
			picture = Generic_Portrait
			allowed = { tag = SER }
			available = {
				date > 1989.1.1
				date < 2020.1.1
				A_Minister_Allowed = yes
				NOT = { has_country_flag = Vojislav_Mihailovic_unavailable }
			}
			cost = 150
			removal_cost = 10
			traits = { ideology_A HoG_Political_Protege }
		}
	# Nikola Pasic
		SER_HoG_Nikola_Pasic = {
			picture = Generic_Portrait
			allowed = { tag = SER }
			available = {
				date > 1914.1.1
				date < 1933.1.1
				D_Minister_Allowed = yes
				NOT = { has_country_flag = Nikola_Pasic_unavailable }
			}
			cost = 150
			removal_cost = 10
			traits = { ideology_D HoG_Backroom_Backstabber }
		}
	# Ljubomir Stojanovic
		SER_HoG_Ljubomir_Stojanovic = {
			picture = Generic_Portrait
			allowed = { tag = SER }
			available = {
				date > 1914.1.1
				date < 1933.1.1
				D_Minister_Allowed = yes
				NOT = { has_country_flag = Ljubomir_Stojanovic_unavailable }
			}
			cost = 150
			removal_cost = 10
			traits = { ideology_D HoG_Backroom_Backstabber }
		}
	# Stojan Novakovic
		SER_HoG_Stojan_Novakovic = {
			picture = Generic_Portrait
			allowed = { tag = SER }
			available = {
				date > 1914.1.1
				date < 1933.1.1
				D_Minister_Allowed = yes
				NOT = { has_country_flag = Stojan_Novakovic_unavailable }
			}
			cost = 150
			removal_cost = 10
			traits = { ideology_D HoG_Corporate_Suit }
		}
	# Milovan Milovanovic
		SER_HoG_Milovan_Milovanovic = {
			picture = Generic_Portrait
			allowed = { tag = SER }
			available = {
				date > 1914.1.1
				date < 1933.1.1
				D_Minister_Allowed = yes
				NOT = { has_country_flag = Milovan_Milovanovic_unavailable }
			}
			cost = 150
			removal_cost = 10
			traits = { ideology_D HoG_Naive_Optimist }
		}
	# Marko Trifkovic
		SER_HoG_Marko_Trifkovic = {
			picture = Generic_Portrait
			allowed = { tag = SER }
			available = {
				date > 1914.1.1
				date < 1933.1.1
				D_Minister_Allowed = yes
				NOT = { has_country_flag = Marko_Trifkovic_unavailable }
			}
			cost = 150
			removal_cost = 10
			traits = { ideology_D HoG_Political_Protege }
		}
	# Stojan Protic
		SER_HoG_Stojan_Protic = {
			picture = Generic_Portrait
			allowed = { tag = SER }
			available = {
				date > 1918.1.1
				date < 1933.1.1
				D_Minister_Allowed = yes
				NOT = { has_country_flag = Stojan_Protic_unavailable }
			}
			cost = 150
			removal_cost = 10
			traits = { ideology_D HoG_Flamboyant_Tough_Guy }
		}
	# Milenko Vesnic
		SER_HoG_Milenko_Vesnic = {
			picture = Generic_Portrait
			allowed = { tag = SER }
			available = {
				date > 1920.1.1
				date < 1933.1.1
				D_Minister_Allowed = yes
				NOT = { has_country_flag = Milenko_Vesnic_unavailable }
			}
			cost = 150
			removal_cost = 10
			traits = { ideology_D HoG_Political_Protege }
		}
	# Ljubomir Davidovic
		SER_HoG_Ljubomir_Davidovic = {
			picture = Generic_Portrait
			allowed = { tag = SER }
			available = {
				date > 1919.1.1
				date < 1933.1.1
				D_Minister_Allowed = yes
				NOT = { has_country_flag = Ljubomir_Davidovic_unavailable }
			}
			cost = 150
			removal_cost = 10
			traits = { ideology_D HoG_Silent_Workhorse }
		}
	# Ivan Subasic
		SER_HoG_Ivan_Subasic = {
			picture = Generic_Portrait
			allowed = { tag = SER }
			available = {
				date > 1933.1.1
				date < 1964.1.1
				D_Minister_Allowed = yes
				NOT = { has_country_flag = Ivan_Subasic_unavailable }
			}
			cost = 150
			removal_cost = 10
			traits = { ideology_D HoG_Silent_Workhorse }
		}
	# Josip Broz
		SER_HoG_Josip_Broz = {
			picture = Generic_Portrait
			allowed = { tag = SER }
			available = {
				date > 1933.1.1
				date < 1964.1.1
				S_Minister_Allowed = yes
				NOT = { has_country_flag = Josip_Broz_unavailable }
			}
			cost = 150
			removal_cost = 10
			traits = { ideology_S HoG_Happy_Amateur }
		}
	# Milan Panic
		SER_HoG_Milan_Panic = {
			picture = Generic_Portrait
			allowed = { tag = SER }
			available = {
				date > 1989.1.1
				date < 2012.1.1
				S_Minister_Allowed = yes
				NOT = { has_country_flag = Milan_Panic_unavailable }
			}
			cost = 150
			removal_cost = 10
			traits = { ideology_S HoG_Naive_Optimist }
		}
	# Vladimir Copic
		SER_HoG_Vladimir_Copic = {
			picture = Generic_Portrait
			allowed = { tag = SER }
			available = {
				date > 1918.1.1
				date < 1933.1.1
				C_Minister_Allowed = yes
				NOT = { has_country_flag = Vladimir_Copic_unavailable }
			}
			cost = 150
			removal_cost = 10
			traits = { ideology_C HoG_Ambitious_Union_Boss }
		}
}
#################################################
### Foreign Minister
#################################################
	Foreign_Minister = {
	# Milan Nedic
		SER_FM_Milan_Nedic = {
			picture = Generic_Portrait
			allowed = { tag = SER }
			available = {
				date > 1933.1.1
				date < 1964.1.1
				F_Minister_Allowed = yes
				NOT = { has_country_flag = Milan_Nedic_unavailable }
			}
			cost = 150
			removal_cost = 10
			traits = { ideology_F FM_Ideological_Crusader }
		}
	# Isidor Mandrevic
		SER_FM_Isidor_Mandrevic = {
			picture = Generic_Portrait
			allowed = { tag = SER }
			available = {
				date > 1942.1.1
				date < 1964.1.1
				F_Minister_Allowed = yes
				NOT = { has_country_flag = Isidor_Mandrevic_unavailable }
			}
			cost = 150
			removal_cost = 10
			traits = { ideology_F FM_The_Cloak_N_Dagger_Schemer }
		}
	# Momcilo Nincic
		SER_FM_Momcilo_Nincic = {
			picture = Generic_Portrait
			allowed = { tag = SER }
			available = {
				date > 1921.1.1
				date < 1933.1.1
				A_Minister_Allowed = yes
				NOT = { has_country_flag = Momcilo_Nincic_unavailable }
			}
			cost = 150
			removal_cost = 10
			traits = { ideology_A FM_Great_Compromiser }
		}
	# Velimir Ilic
		SER_FM_Velimir_Ilic = {
			picture = Generic_Portrait
			allowed = { tag = SER }
			available = {
				date > 1989.1.1
				date < 2020.1.1
				A_Minister_Allowed = yes
				NOT = { has_country_flag = Velimir_Ilic_unavailable }
			}
			cost = 150
			removal_cost = 10
			traits = { ideology_A FM_Iron_Fisted_Brute }
		}
	# Jovan Jovanovic-Pizon
		SER_FM_Jovan_JovanovicPizon = {
			picture = Generic_Portrait
			allowed = { tag = SER }
			available = {
				date > 1914.1.1
				date < 1933.1.1
				D_Minister_Allowed = yes
				NOT = { has_country_flag = Jovan_JovanovicPizon_unavailable }
			}
			cost = 150
			removal_cost = 10
			traits = { ideology_D FM_Biased_Intellectual }
		}
	# Nikola Pasic
		SER_FM_Nikola_Pasic = {
			picture = Generic_Portrait
			allowed = { tag = SER }
			available = {
				date > 1914.1.1
				date < 1933.1.1
				D_Minister_Allowed = yes
				NOT = { has_country_flag = Nikola_Pasic_unavailable }
			}
			cost = 150
			removal_cost = 10
			traits = { ideology_D FM_Ideological_Crusader }
		}
	# Andra Nikolic
		SER_FM_Andra_Nikolic = {
			picture = Generic_Portrait
			allowed = { tag = SER }
			available = {
				date > 1914.1.1
				date < 1933.1.1
				D_Minister_Allowed = yes
				NOT = { has_country_flag = Andra_Nikolic_unavailable }
			}
			cost = 150
			removal_cost = 10
			traits = { ideology_D FM_Biased_Intellectual }
		}
	# Sima Lozanic
		SER_FM_Sima_Lozanic = {
			picture = Generic_Portrait
			allowed = { tag = SER }
			available = {
				date > 1914.1.1
				date < 1933.1.1
				D_Minister_Allowed = yes
				NOT = { has_country_flag = Sima_Lozanic_unavailable }
			}
			cost = 150
			removal_cost = 10
			traits = { ideology_D FM_Ideological_Crusader }
		}
	# Jovan Zujovic
		SER_FM_Jovan_Zujovic = {
			picture = Generic_Portrait
			allowed = { tag = SER }
			available = {
				date > 1914.1.1
				date < 1933.1.1
				D_Minister_Allowed = yes
				NOT = { has_country_flag = Jovan_Zujovic_unavailable }
			}
			cost = 150
			removal_cost = 10
			traits = { ideology_D FM_Iron_Fisted_Brute }
		}
	# Milovan Milovanovic
		SER_FM_Milovan_Milovanovic = {
			picture = Generic_Portrait
			allowed = { tag = SER }
			available = {
				date > 1914.1.1
				date < 1933.1.1
				D_Minister_Allowed = yes
				NOT = { has_country_flag = Milovan_Milovanovic_unavailable }
			}
			cost = 150
			removal_cost = 10
			traits = { ideology_D FM_General_Staffer }
		}
	# Marko Trifkovic
		SER_FM_Marko_Trifkovic = {
			picture = Generic_Portrait
			allowed = { tag = SER }
			available = {
				date > 1914.1.1
				date < 1933.1.1
				D_Minister_Allowed = yes
				NOT = { has_country_flag = Marko_Trifkovic_unavailable }
			}
			cost = 150
			removal_cost = 10
			traits = { ideology_D FM_Great_Compromiser }
		}
	# Mihailo Gavrilovic
		SER_FM_Mihailo_Gavrilovic = {
			picture = Generic_Portrait
			allowed = { tag = SER }
			available = {
				date > 1918.1.1
				date < 1933.1.1
				D_Minister_Allowed = yes
				NOT = { has_country_flag = Mihailo_Gavrilovic_unavailable }
			}
			cost = 150
			removal_cost = 10
			traits = { ideology_D FM_Biased_Intellectual }
		}
	# Stojan Protic
		SER_FM_Stojan_Protic = {
			picture = Generic_Portrait
			allowed = { tag = SER }
			available = {
				date > 1918.1.1
				date < 1933.1.1
				D_Minister_Allowed = yes
				NOT = { has_country_flag = Stojan_Protic_unavailable }
			}
			cost = 150
			removal_cost = 10
			traits = { ideology_D FM_Great_Compromiser }
		}
	# Milenko Vesnic
		SER_FM_Milenko_Vesnic = {
			picture = Generic_Portrait
			allowed = { tag = SER }
			available = {
				date > 1920.1.1
				date < 1933.1.1
				D_Minister_Allowed = yes
				NOT = { has_country_flag = Milenko_Vesnic_unavailable }
			}
			cost = 150
			removal_cost = 10
			traits = { ideology_D FM_The_Cloak_N_Dagger_Schemer }
		}
	# Vojislav Marinkovic
		SER_FM_Vojislav_Marinkovic = {
			picture = Generic_Portrait
			allowed = { tag = SER }
			available = {
				date > 1924.1.1
				date < 1933.1.1
				D_Minister_Allowed = yes
				NOT = { has_country_flag = Vojislav_Marinkovic_unavailable }
			}
			cost = 150
			removal_cost = 10
			traits = { ideology_D FM_Great_Compromiser }
		}
	# Ante Trumbic
		SER_FM_Ante_Trumbic = {
			picture = Generic_Portrait
			allowed = { tag = SER }
			available = {
				date > 1918.1.1
				date < 1933.1.1
				D_Minister_Allowed = yes
				NOT = { has_country_flag = Ante_Trumbic_unavailable }
			}
			cost = 150
			removal_cost = 10
			traits = { ideology_D FM_Ideological_Crusader }
		}
	# Edvard Kardelj
		SER_FM_Edvard_Kardelj = {
			picture = Generic_Portrait
			allowed = { tag = SER }
			available = {
				date > 1933.1.1
				date < 1964.1.1
				D_Minister_Allowed = yes
				NOT = { has_country_flag = Edvard_Kardelj_unavailable }
			}
			cost = 150
			removal_cost = 10
			traits = { ideology_D FM_Biased_Intellectual }
		}
	# Dragomir Vijic
		SER_FM_Dragomir_Vijic = {
			picture = Generic_Portrait
			allowed = { tag = SER }
			available = {
				date > 1941.1.1
				date < 1964.1.1
				D_Minister_Allowed = yes
				NOT = { has_country_flag = Dragomir_Vijic_unavailable }
			}
			cost = 150
			removal_cost = 10
			traits = { ideology_D FM_Iron_Fisted_Brute }
		}
	# Stanoje Simic
		SER_FM_Stanoje_Simic = {
			picture = Generic_Portrait
			allowed = { tag = SER }
			available = {
				date > 1933.1.1
				date < 1964.1.1
				S_Minister_Allowed = yes
				NOT = { has_country_flag = Stanoje_Simic_unavailable }
			}
			cost = 150
			removal_cost = 10
			traits = { ideology_S FM_Apologetic_Clerk }
		}
	# Vladislav Jovanovic
		SER_FM_Vladislav_Jovanovic = {
			picture = Generic_Portrait
			allowed = { tag = SER }
			available = {
				date > 1989.1.1
				date < 2020.1.1
				S_Minister_Allowed = yes
				NOT = { has_country_flag = Vladislav_Jovanovic_unavailable }
			}
			cost = 150
			removal_cost = 10
			traits = { ideology_S FM_Apologetic_Clerk }
		}
	# Duro Dakovic
		SER_FM_Duro_Dakovic = {
			picture = Generic_Portrait
			allowed = { tag = SER }
			available = {
				date > 1914.1.1
				date < 1933.1.1
				C_Minister_Allowed = yes
				NOT = { has_country_flag = Duro_Dakovic_unavailable }
			}
			cost = 150
			removal_cost = 10
			traits = { ideology_C FM_Apologetic_Clerk }
		}
}
#################################################
### Minister of Security
#################################################
	Minister_of_Security = {
	# Milos Trifunovic
		SER_MoS_Milos_Trifunovic = {
			picture = Generic_Portrait
			allowed = { tag = SER }
			available = {
				date > 1933.1.1
				date < 1964.1.1
				F_Minister_Allowed = yes
				NOT = { has_country_flag = Milos_Trifunovic_unavailable }
			}
			cost = 150
			removal_cost = 10
			traits = { ideology_F MoS_Efficient_Sociopath }
		}
	# Harald Turner
		SER_MoS_Harald_Turner = {
			picture = Generic_Portrait
			allowed = { tag = SER }
			available = {
				date > 1941.1.1
				date < 1964.1.1
				F_Minister_Allowed = yes
				NOT = { has_country_flag = Harald_Turner_unavailable }
			}
			cost = 150
			removal_cost = 10
			traits = { ideology_F MoS_Prince_Of_Terror }
		}
	# Miljutin Bakar
		SER_MoS_Miljutin_Bakar = {
			picture = Generic_Portrait
			allowed = { tag = SER }
			available = {
				date > 1942.1.1
				date < 1964.1.1
				F_Minister_Allowed = yes
				NOT = { has_country_flag = Miljutin_Bakar_unavailable }
			}
			cost = 150
			removal_cost = 10
			traits = { ideology_F MoS_Compassionate_Gentleman }
		}
	# Dorde Gencic
		SER_MoS_Dorde_Gencic = {
			picture = Generic_Portrait
			allowed = { tag = SER }
			available = {
				date > 1914.1.1
				date < 1933.1.1
				A_Minister_Allowed = yes
				NOT = { has_country_flag = Dorde_Gencic_unavailable }
			}
			cost = 150
			removal_cost = 10
			traits = { ideology_A MoS_Compassionate_Gentleman }
		}
	# Milorad Draskovic
		SER_MoS_Milorad_Draskovic = {
			picture = Generic_Portrait
			allowed = { tag = SER }
			available = {
				date > 1920.1.1
				date < 1933.1.1
				A_Minister_Allowed = yes
				NOT = { has_country_flag = Milorad_Draskovic_unavailable }
			}
			cost = 150
			removal_cost = 10
			traits = { ideology_A MoS_Compassionate_Gentleman }
		}
	# Vojislav Marinkovic
		SER_MoS_Vojislav_Marinkovic = {
			picture = Generic_Portrait
			allowed = { tag = SER }
			available = {
				date > 1921.1.1
				date < 1933.1.1
				A_Minister_Allowed = yes
				NOT = { has_country_flag = Vojislav_Marinkovic_unavailable }
			}
			cost = 150
			removal_cost = 10
			traits = { ideology_A MoS_Man_Of_The_People }
		}
	# Kosta Kumanudi
		SER_MoS_Kosta_Kumanudi = {
			picture = Generic_Portrait
			allowed = { tag = SER }
			available = {
				date > 1922.1.1
				date < 1933.1.1
				A_Minister_Allowed = yes
				NOT = { has_country_flag = Kosta_Kumanudi_unavailable }
			}
			cost = 150
			removal_cost = 10
			traits = { ideology_A MoS_Compassionate_Gentleman }
		}
	# Kosta Timotijevic
		SER_MoS_Kosta_Timotijevic = {
			picture = Generic_Portrait
			allowed = { tag = SER }
			available = {
				date > 1922.1.1
				date < 1933.1.1
				A_Minister_Allowed = yes
				NOT = { has_country_flag = Kosta_Timotijevic_unavailable }
			}
			cost = 150
			removal_cost = 10
			traits = { ideology_A MoS_Crime_Fighter }
		}
	# Milorad Vujicic
		SER_MoS_Milorad_Vujicic = {
			picture = Generic_Portrait
			allowed = { tag = SER }
			available = {
				date > 1922.1.1
				date < 1933.1.1
				A_Minister_Allowed = yes
				NOT = { has_country_flag = Milorad_Vujicic_unavailable }
			}
			cost = 150
			removal_cost = 10
			traits = { ideology_A MoS_Crime_Fighter }
		}
	# Milan Srskic
		SER_MoS_Milan_Srskic = {
			picture = Generic_Portrait
			allowed = { tag = SER }
			available = {
				date > 1924.1.1
				date < 1933.1.1
				A_Minister_Allowed = yes
				NOT = { has_country_flag = Milan_Srskic_unavailable }
			}
			cost = 150
			removal_cost = 10
			traits = { ideology_A MoS_Compassionate_Gentleman }
		}
	# Bozidar Maksimovic
		SER_MoS_Bozidar_Maksimovic = {
			picture = Generic_Portrait
			allowed = { tag = SER }
			available = {
				date > 1924.1.1
				date < 1933.1.1
				A_Minister_Allowed = yes
				NOT = { has_country_flag = Bozidar_Maksimovic_unavailable }
			}
			cost = 150
			removal_cost = 10
			traits = { ideology_A MoS_Man_Of_The_People }
		}
	# Slobodan Rakitic
		SER_MoS_Slobodan_Rakitic = {
			picture = Generic_Portrait
			allowed = { tag = SER }
			available = {
				date > 1989.1.1
				date < 2013.1.1
				A_Minister_Allowed = yes
				NOT = { has_country_flag = Slobodan_Rakitic_unavailable }
			}
			cost = 150
			removal_cost = 10
			traits = { ideology_A MoS_Man_Of_The_People }
		}
	# Ljubomir Jovanovic
		SER_MoS_Ljubomir_Jovanovic = {
			picture = Generic_Portrait
			allowed = { tag = SER }
			available = {
				date > 1914.1.1
				date < 1933.1.1
				D_Minister_Allowed = yes
				NOT = { has_country_flag = Ljubomir_Jovanovic_unavailable }
			}
			cost = 150
			removal_cost = 10
			traits = { ideology_D MoS_Compassionate_Gentleman }
		}
	# Stojan Protic
		SER_MoS_Stojan_Protic = {
			picture = Generic_Portrait
			allowed = { tag = SER }
			available = {
				date > 1914.1.1
				date < 1933.1.1
				D_Minister_Allowed = yes
				NOT = { has_country_flag = Stojan_Protic_unavailable }
			}
			cost = 150
			removal_cost = 10
			traits = { ideology_D MoS_Crime_Fighter }
		}
	# Marko Trifkovic
		SER_MoS_Marko_Trifkovic = {
			picture = Generic_Portrait
			allowed = { tag = SER }
			available = {
				date > 1914.1.1
				date < 1933.1.1
				D_Minister_Allowed = yes
				NOT = { has_country_flag = Marko_Trifkovic_unavailable }
			}
			cost = 150
			removal_cost = 10
			traits = { ideology_D MoS_Man_Of_The_People }
		}
	# Ljubomir Stojanovic
		SER_MoS_Ljubomir_Stojanovic = {
			picture = Generic_Portrait
			allowed = { tag = SER }
			available = {
				date > 1914.1.1
				date < 1933.1.1
				D_Minister_Allowed = yes
				NOT = { has_country_flag = Ljubomir_Stojanovic_unavailable }
			}
			cost = 150
			removal_cost = 10
			traits = { ideology_D MoS_Crime_Fighter }
		}
	# Svetozar Milosavljevic
		SER_MoS_Svetozar_Milosavljevic = {
			picture = Generic_Portrait
			allowed = { tag = SER }
			available = {
				date > 1914.1.1
				date < 1933.1.1
				D_Minister_Allowed = yes
				NOT = { has_country_flag = Svetozar_Milosavljevic_unavailable }
			}
			cost = 150
			removal_cost = 10
			traits = { ideology_D MoS_Man_Of_The_People }
		}
	# Svetozar Pribicevic
		SER_MoS_Svetozar_Pribicevic = {
			picture = Generic_Portrait
			allowed = { tag = SER }
			available = {
				date > 1918.1.1
				date < 1933.1.1
				D_Minister_Allowed = yes
				NOT = { has_country_flag = Svetozar_Pribicevic_unavailable }
			}
			cost = 150
			removal_cost = 10
			traits = { ideology_D MoS_Crime_Fighter }
		}
	# Ljubomir Davidovic
		SER_MoS_Ljubomir_Davidovic = {
			picture = Generic_Portrait
			allowed = { tag = SER }
			available = {
				date > 1920.1.1
				date < 1933.1.1
				D_Minister_Allowed = yes
				NOT = { has_country_flag = Ljubomir_Davidovic_unavailable }
			}
			cost = 150
			removal_cost = 10
			traits = { ideology_D MoS_Compassionate_Gentleman }
		}
	# Dragoljub Stefanic
		SER_MoS_Dragoljub_Stefanic = {
			picture = Generic_Portrait
			allowed = { tag = SER }
			available = {
				date > 1933.1.1
				date < 1964.1.1
				D_Minister_Allowed = yes
				NOT = { has_country_flag = Dragoljub_Stefanic_unavailable }
			}
			cost = 150
			removal_cost = 10
			traits = { ideology_D MoS_Crime_Fighter }
		}
	# Militin Milankovic
		SER_MoS_Militin_Milankovic = {
			picture = Generic_Portrait
			allowed = { tag = SER }
			available = {
				date > 1939.1.1
				date < 1964.1.1
				D_Minister_Allowed = yes
				NOT = { has_country_flag = Militin_Milankovic_unavailable }
			}
			cost = 150
			removal_cost = 10
			traits = { ideology_D MoS_Man_Of_The_People }
		}
	# Djoda Udovicki
		SER_MoS_Djoda_Udovicki = {
			picture = Generic_Portrait
			allowed = { tag = SER }
			available = {
				date > 1933.1.1
				date < 1964.1.1
				S_Minister_Allowed = yes
				NOT = { has_country_flag = Djoda_Udovicki_unavailable }
			}
			cost = 150
			removal_cost = 10
			traits = { ideology_S MoS_Silent_Lawyer }
		}
	# Jovan Stanisic
		SER_MoS_Jovan_Stanisic = {
			picture = Generic_Portrait
			allowed = { tag = SER }
			available = {
				date > 1989.1.1
				date < 2020.1.1
				S_Minister_Allowed = yes
				NOT = { has_country_flag = Jovan_Stanisic_unavailable }
			}
			cost = 150
			removal_cost = 10
			traits = { ideology_S MoS_Efficient_Sociopath }
		}
	# Mose Pijade
		SER_MoS_Mose_Pijade = {
			picture = Generic_Portrait
			allowed = { tag = SER }
			available = {
				date > 1918.1.1
				date < 1933.1.1
				C_Minister_Allowed = yes
				NOT = { has_country_flag = Mose_Pijade_unavailable }
			}
			cost = 150
			removal_cost = 10
			traits = { ideology_C MoS_Back_Stabber }
		}
}
#################################################
### Armaments Minister
#################################################
	Armaments_Minister = {
	# Slobodan Jovanovic
		SER_AM_Slobodan_Jovanovic = {
			picture = Generic_Portrait
			allowed = { tag = SER }
			available = {
				date > 1933.1.1
				date < 1964.1.1
				F_Minister_Allowed = yes
				NOT = { has_country_flag = Slobodan_Jovanovic_unavailable }
			}
			cost = 150
			removal_cost = 10
			traits = { ideology_F AM_Military_Entrepreneur }
		}
	# Mihovil Tomandl
		SER_AM_Mihovil_Tomandl = {
			picture = Generic_Portrait
			allowed = { tag = SER }
			available = {
				date > 1942.1.1
				date < 1964.1.1
				F_Minister_Allowed = yes
				NOT = { has_country_flag = Mihovil_Tomandl_unavailable }
			}
			cost = 150
			removal_cost = 10
			traits = { ideology_F AM_Air_Superiority_Proponent }
		}
	# Momcilo Nincic
		SER_AM_Momcilo_Nincic = {
			picture = Generic_Portrait
			allowed = { tag = SER }
			available = {
				date > 1915.1.1
				date < 1933.1.1
				A_Minister_Allowed = yes
				NOT = { has_country_flag = Momcilo_Nincic_unavailable }
			}
			cost = 150
			removal_cost = 10
			traits = { ideology_A AM_Administrative_Genius }
		}
	# Velizar Jankovic
		SER_AM_Velizar_Jankovic = {
			picture = Generic_Portrait
			allowed = { tag = SER }
			available = {
				date > 1920.1.1
				date < 1933.1.1
				A_Minister_Allowed = yes
				NOT = { has_country_flag = Velizar_Jankovic_unavailable }
			}
			cost = 150
			removal_cost = 10
			traits = { ideology_A AM_Administrative_Genius }
		}
	# Kosta Kumanudi
		SER_AM_Kosta_Kumanudi = {
			picture = Generic_Portrait
			allowed = { tag = SER }
			available = {
				date > 1921.1.1
				date < 1933.1.1
				A_Minister_Allowed = yes
				NOT = { has_country_flag = Kosta_Kumanudi_unavailable }
			}
			cost = 150
			removal_cost = 10
			traits = { ideology_A AM_Administrative_Genius }
		}
	# Milorad Draskovic
		SER_AM_Milorad_Draskovic = {
			picture = Generic_Portrait
			allowed = { tag = SER }
			available = {
				date > 1921.1.1
				date < 1933.1.1
				A_Minister_Allowed = yes
				NOT = { has_country_flag = Milorad_Draskovic_unavailable }
			}
			cost = 150
			removal_cost = 10
			traits = { ideology_A AM_Resource_Industrialist }
		}
	# Milan Stojadinovic
		SER_AM_Milan_Stojadinovic = {
			picture = Generic_Portrait
			allowed = { tag = SER }
			available = {
				date > 1922.1.1
				date < 1933.1.1
				A_Minister_Allowed = yes
				NOT = { has_country_flag = Milan_Stojadinovic_unavailable }
			}
			cost = 150
			removal_cost = 10
			traits = { ideology_A AM_Laissez-faire_Capitalist }
		}
	# Mehmed Spaho
		SER_AM_Mehmed_Spaho = {
			picture = Generic_Portrait
			allowed = { tag = SER }
			available = {
				date > 1924.1.1
				date < 1933.1.1
				A_Minister_Allowed = yes
				NOT = { has_country_flag = Mehmed_Spaho_unavailable }
			}
			cost = 150
			removal_cost = 10
			traits = { ideology_A AM_Administrative_Genius }
		}
	# Dragan Kojadinovic
		SER_AM_Dragan_Kojadinovic = {
			picture = Generic_Portrait
			allowed = { tag = SER }
			available = {
				date > 1989.1.1
				date < 2020.1.1
				A_Minister_Allowed = yes
				NOT = { has_country_flag = Dragan_Kojadinovic_unavailable }
			}
			cost = 150
			removal_cost = 10
			traits = { ideology_A AM_Resource_Industrialist }
		}
	# Vojislav Veljkovic
		SER_AM_Vojislav_Veljkovic = {
			picture = Generic_Portrait
			allowed = { tag = SER }
			available = {
				date > 1914.1.1
				date < 1933.1.1
				D_Minister_Allowed = yes
				NOT = { has_country_flag = Vojislav_Veljkovic_unavailable }
			}
			cost = 150
			removal_cost = 10
			traits = { ideology_D AM_Laissez-faire_Capitalist }
		}
	# Stojan Protic
		SER_AM_Stojan_Protic = {
			picture = Generic_Portrait
			allowed = { tag = SER }
			available = {
				date > 1914.1.1
				date < 1933.1.1
				D_Minister_Allowed = yes
				NOT = { has_country_flag = Stojan_Protic_unavailable }
			}
			cost = 150
			removal_cost = 10
			traits = { ideology_D AM_Military_Entrepreneur }
		}
	# Jovan Jovanovic-Pizon
		SER_AM_Jovan_JovanovicPizon = {
			picture = Generic_Portrait
			allowed = { tag = SER }
			available = {
				date > 1914.1.1
				date < 1933.1.1
				D_Minister_Allowed = yes
				NOT = { has_country_flag = Jovan_JovanovicPizon_unavailable }
			}
			cost = 150
			removal_cost = 10
			traits = { ideology_D AM_Infantry_Proponent }
		}
	# Lazar Pacu
		SER_AM_Lazar_Pacu = {
			picture = Generic_Portrait
			allowed = { tag = SER }
			available = {
				date > 1914.1.1
				date < 1933.1.1
				D_Minister_Allowed = yes
				NOT = { has_country_flag = Lazar_Pacu_unavailable }
			}
			cost = 150
			removal_cost = 10
			traits = { ideology_D AM_Resource_Industrialist }
		}
	# Milic Radovanovic
		SER_AM_Milic_Radovanovic = {
			picture = Generic_Portrait
			allowed = { tag = SER }
			available = {
				date > 1914.1.1
				date < 1933.1.1
				D_Minister_Allowed = yes
				NOT = { has_country_flag = Milic_Radovanovic_unavailable }
			}
			cost = 150
			removal_cost = 10
			traits = { ideology_D AM_Laissez-faire_Capitalist }
		}
	# Mihailo Ilic
		SER_AM_Mihailo_Ilic = {
			picture = Generic_Portrait
			allowed = { tag = SER }
			available = {
				date > 1914.1.1
				date < 1933.1.1
				D_Minister_Allowed = yes
				NOT = { has_country_flag = Mihailo_Ilic_unavailable }
			}
			cost = 150
			removal_cost = 10
			traits = { ideology_D AM_Theoretical_Scientist }
		}
	# Kosta Stojanovic
		SER_AM_Kosta_Stojanovic = {
			picture = Generic_Portrait
			allowed = { tag = SER }
			available = {
				date > 1920.1.1
				date < 1933.1.1
				D_Minister_Allowed = yes
				NOT = { has_country_flag = Kosta_Stojanovic_unavailable }
			}
			cost = 150
			removal_cost = 10
			traits = { ideology_D AM_Resource_Industrialist }
		}
	# Ladislav Polic
		SER_AM_Ladislav_Polic = {
			picture = Generic_Portrait
			allowed = { tag = SER }
			available = {
				date > 1933.1.1
				date < 1964.1.1
				D_Minister_Allowed = yes
				NOT = { has_country_flag = Ladislav_Polic_unavailable }
			}
			cost = 150
			removal_cost = 10
			traits = { ideology_D AM_Laissez-faire_Capitalist }
		}
	# Vasa Sailovic
		SER_AM_Vasa_Sailovic = {
			picture = Generic_Portrait
			allowed = { tag = SER }
			available = {
				date > 1943.1.1
				date < 1964.1.1
				D_Minister_Allowed = yes
				NOT = { has_country_flag = Vasa_Sailovic_unavailable }
			}
			cost = 150
			removal_cost = 10
			traits = { ideology_D AM_Resource_Industrialist }
		}
	# Milentije Popovic
		SER_AM_Milentije_Popovic = {
			picture = Generic_Portrait
			allowed = { tag = SER }
			available = {
				date > 1933.1.1
				date < 1964.1.1
				S_Minister_Allowed = yes
				NOT = { has_country_flag = Milentije_Popovic_unavailable }
			}
			cost = 150
			removal_cost = 10
			traits = { ideology_S AM_Corrupt_Kleptocrat }
		}
	# Davorin Jenko
		SER_AM_Davorin_Jenko = {
			picture = Generic_Portrait
			allowed = { tag = SER }
			available = {
				date > 1942.1.1
				date < 1964.1.1
				S_Minister_Allowed = yes
				NOT = { has_country_flag = Davorin_Jenko_unavailable }
			}
			cost = 150
			removal_cost = 10
			traits = { ideology_S AM_Administrative_Genius }
		}
	# Miodrag Jokic
		SER_AM_Miodrag_Jokic = {
			picture = Generic_Portrait
			allowed = { tag = SER }
			available = {
				date > 1989.1.1
				date < 2020.1.1
				S_Minister_Allowed = yes
				NOT = { has_country_flag = Miodrag_Jokic_unavailable }
			}
			cost = 150
			removal_cost = 10
			traits = { ideology_S AM_Submarine_Proponent }
		}
	# Josip Broz
		SER_AM_Josip_Broz = {
			picture = Generic_Portrait
			allowed = { tag = SER }
			available = {
				date > 1918.1.1
				date < 1933.1.1
				C_Minister_Allowed = yes
				NOT = { has_country_flag = Josip_Broz_unavailable }
			}
			cost = 150
			removal_cost = 10
			traits = { ideology_C AM_Administrative_Genius }
		}
}
#################################################
### Head of Intelligence
#################################################
	Head_of_Intelligence = {
	# Bozidar Puric
		SER_HoI_Bozidar_Puric = {
			picture = Generic_Portrait
			allowed = { tag = SER }
			available = {
				date > 1933.1.1
				date < 1964.1.1
				F_Minister_Allowed = yes
				NOT = { has_country_flag = Bozidar_Puric_unavailable }
			}
			cost = 150
			removal_cost = 10
			traits = { ideology_F HoI_Technical_Specialist }
		}
	# Leonard Conti
		SER_HoI_Leonard_Conti = {
			picture = Generic_Portrait
			allowed = { tag = SER }
			available = {
				date > 1941.1.1
				date < 1964.1.1
				F_Minister_Allowed = yes
				NOT = { has_country_flag = Leonard_Conti_unavailable }
			}
			cost = 150
			removal_cost = 10
			traits = { ideology_F HoI_Political_Specialist }
		}
	# Dragutin Dimitrijevic
		SER_HoI_Dragutin_Dimitrijevic = {
			picture = Generic_Portrait
			allowed = { tag = SER }
			available = {
				date > 1914.1.1
				date < 1933.1.1
				A_Minister_Allowed = yes
				NOT = { has_country_flag = Dragutin_Dimitrijevic_unavailable }
			}
			cost = 150
			removal_cost = 10
			traits = { ideology_A HoI_Political_Specialist }
		}
	# Slobodan Rakitic
		SER_HoI_Slobodan_Rakitic = {
			picture = Generic_Portrait
			allowed = { tag = SER }
			available = {
				date > 1989.1.1
				date < 2013.1.1
				A_Minister_Allowed = yes
				NOT = { has_country_flag = Slobodan_Rakitic_unavailable }
			}
			cost = 150
			removal_cost = 10
			traits = { ideology_A HoI_Political_Specialist }
		}
	# Mihail Milosajevic
		SER_HoI_Mihail_Milosajevic = {
			picture = Generic_Portrait
			allowed = { tag = SER }
			available = {
				date > 1933.1.1
				date < 1964.1.1
				D_Minister_Allowed = yes
				NOT = { has_country_flag = Mihail_Milosajevic_unavailable }
			}
			cost = 150
			removal_cost = 10
			traits = { ideology_D HoI_Logistics_Specialist }
		}
	# Vasa Zivkovoc
		SER_HoI_Vasa_Zivkovoc = {
			picture = Generic_Portrait
			allowed = { tag = SER }
			available = {
				date > 1941.1.1
				date < 1964.1.1
				D_Minister_Allowed = yes
				NOT = { has_country_flag = Vasa_Zivkovoc_unavailable }
			}
			cost = 150
			removal_cost = 10
			traits = { ideology_D HoI_Dismal_Enigma }
		}
	# Laza Kostic
		SER_HoI_Laza_Kostic = {
			picture = Generic_Portrait
			allowed = { tag = SER }
			available = {
				date > 1933.1.1
				date < 1964.1.1
				S_Minister_Allowed = yes
				NOT = { has_country_flag = Laza_Kostic_unavailable }
			}
			cost = 150
			removal_cost = 10
			traits = { ideology_S HoI_Industrial_Specialist }
		}
	# Jovan Stanisic
		SER_HoI_Jovan_Stanisic = {
			picture = Generic_Portrait
			allowed = { tag = SER }
			available = {
				date > 1989.1.1
				date < 2020.1.1
				S_Minister_Allowed = yes
				NOT = { has_country_flag = Jovan_Stanisic_unavailable }
			}
			cost = 150
			removal_cost = 10
			traits = { ideology_S HoI_Technical_Specialist }
		}
	# Josip Broz
		SER_HoI_Josip_Broz = {
			picture = Generic_Portrait
			allowed = { tag = SER }
			available = {
				date > 1918.1.1
				date < 1933.1.1
				C_Minister_Allowed = yes
				NOT = { has_country_flag = Josip_Broz_unavailable }
			}
			cost = 150
			removal_cost = 10
			traits = { ideology_C HoI_Dismal_Enigma }
		}
}
#################################################
### Chief of Staff
#################################################
	Chief_of_Staff = {
	# Marko Bozovic
		SER_CoStaff_Marko_Bozovic = {
			picture = Generic_Portrait
			allowed = { tag = SER }
			available = {
				date > 1933.1.1
				date < 1964.1.1
				F_Minister_Allowed = yes
				NOT = { has_country_flag = Marko_Bozovic_unavailable }
			}
			cost = 150
			removal_cost = 10
			traits = { ideology_F CoStaff_School_Of_Manoeuvre }
		}
	# Zivojin Misic
		SER_CoStaff_Zivojin_Misic = {
			picture = Generic_Portrait
			allowed = { tag = SER }
			available = {
				date > 1918.1.1
				date < 1933.1.1
				A_Minister_Allowed = yes
				NOT = { has_country_flag = Zivojin_Misic_unavailable }
			}
			cost = 150
			removal_cost = 10
			traits = { ideology_A CoStaff_School_Of_Psychology }
		}
	# Milivoje Zecevic
		SER_CoStaff_Milivoje_Zecevic = {
			picture = Generic_Portrait
			allowed = { tag = SER }
			available = {
				date > 1921.1.1
				date < 1933.1.1
				A_Minister_Allowed = yes
				NOT = { has_country_flag = Milivoje_Zecevic_unavailable }
			}
			cost = 150
			removal_cost = 10
			traits = { ideology_A CoStaff_School_Of_Defence }
		}
	# Petar Pesic
		SER_CoStaff_Petar_Pesic = {
			picture = Generic_Portrait
			allowed = { tag = SER }
			available = {
				date > 1922.1.1
				date < 1933.1.1
				A_Minister_Allowed = yes
				NOT = { has_country_flag = Petar_Pesic_unavailable }
			}
			cost = 150
			removal_cost = 10
			traits = { ideology_A CoStaff_School_Of_Fire_Support }
		}
	# Dusan Trifunovic
		SER_CoStaff_Dusan_Trifunovic = {
			picture = Generic_Portrait
			allowed = { tag = SER }
			available = {
				date > 1924.1.1
				date < 1933.1.1
				A_Minister_Allowed = yes
				NOT = { has_country_flag = Dusan_Trifunovic_unavailable }
			}
			cost = 150
			removal_cost = 10
			traits = { ideology_A CoStaff_School_Of_Mass_Combat }
		}
	# Dragan Pakas
		SER_CoStaff_Dragan_Pakas = {
			picture = Generic_Portrait
			allowed = { tag = SER }
			available = {
				date > 1989.1.1
				date < 2020.1.1
				A_Minister_Allowed = yes
				NOT = { has_country_flag = Dragan_Pakas_unavailable }
			}
			cost = 150
			removal_cost = 10
			traits = { ideology_A CoStaff_School_Of_Fire_Support }
		}
	# Radomir Putnik
		SER_CoStaff_Radomir_Putnik = {
			picture = Generic_Portrait
			allowed = { tag = SER }
			available = {
				date > 1914.1.1
				date < 1933.1.1
				D_Minister_Allowed = yes
				NOT = { has_country_flag = Radomir_Putnik_unavailable }
			}
			cost = 150
			removal_cost = 10
			traits = { ideology_D CoStaff_School_Of_Defence }
		}
	# Stepan Stepanovic
		SER_CoStaff_Stepan_Stepanovic = {
			picture = Generic_Portrait
			allowed = { tag = SER }
			available = {
				date > 1914.1.1
				date < 1933.1.1
				D_Minister_Allowed = yes
				NOT = { has_country_flag = Stepan_Stepanovic_unavailable }
			}
			cost = 150
			removal_cost = 10
			traits = { ideology_D CoStaff_School_Of_Fire_Support }
		}
	# Zivko Pavlovic
		SER_CoStaff_Zivko_Pavlovic = {
			picture = Generic_Portrait
			allowed = { tag = SER }
			available = {
				date > 1915.1.1
				date < 1933.1.1
				D_Minister_Allowed = yes
				NOT = { has_country_flag = Zivko_Pavlovic_unavailable }
			}
			cost = 150
			removal_cost = 10
			traits = { ideology_D CoStaff_School_Of_Mass_Combat }
		}
	# Petar Bojovic
		SER_CoStaff_Petar_Bojovic = {
			picture = Generic_Portrait
			allowed = { tag = SER }
			available = {
				date > 1916.1.1
				date < 1933.1.1
				D_Minister_Allowed = yes
				NOT = { has_country_flag = Petar_Bojovic_unavailable }
			}
			cost = 150
			removal_cost = 10
			traits = { ideology_D CoStaff_School_Of_Manoeuvre }
		}
	# Mihailo Rasic
		SER_CoStaff_Mihailo_Rasic = {
			picture = Generic_Portrait
			allowed = { tag = SER }
			available = {
				date > 1918.1.1
				date < 1933.1.1
				D_Minister_Allowed = yes
				NOT = { has_country_flag = Mihailo_Rasic_unavailable }
			}
			cost = 150
			removal_cost = 10
			traits = { ideology_D CoStaff_School_Of_Mass_Combat }
		}
	# Stevan Hadzic
		SER_CoStaff_Stevan_Hadzic = {
			picture = Generic_Portrait
			allowed = { tag = SER }
			available = {
				date > 1919.1.1
				date < 1933.1.1
				D_Minister_Allowed = yes
				NOT = { has_country_flag = Stevan_Hadzic_unavailable }
			}
			cost = 150
			removal_cost = 10
			traits = { ideology_D CoStaff_School_Of_Fire_Support }
		}
	# Branko Jovanovic
		SER_CoStaff_Branko_Jovanovic = {
			picture = Generic_Portrait
			allowed = { tag = SER }
			available = {
				date > 1920.1.1
				date < 1933.1.1
				D_Minister_Allowed = yes
				NOT = { has_country_flag = Branko_Jovanovic_unavailable }
			}
			cost = 150
			removal_cost = 10
			traits = { ideology_D CoStaff_School_Of_Psychology }
		}
	# Milos Vasic
		SER_CoStaff_Milos_Vasic = {
			picture = Generic_Portrait
			allowed = { tag = SER }
			available = {
				date > 1922.1.1
				date < 1933.1.1
				D_Minister_Allowed = yes
				NOT = { has_country_flag = Milos_Vasic_unavailable }
			}
			cost = 150
			removal_cost = 10
			traits = { ideology_D CoStaff_School_Of_Manoeuvre }
		}
	# Radivoje Jankovic
		SER_CoStaff_Radivoje_Jankovic = {
			picture = Generic_Portrait
			allowed = { tag = SER }
			available = {
				date > 1933.1.1
				date < 1964.1.1
				D_Minister_Allowed = yes
				NOT = { has_country_flag = Radivoje_Jankovic_unavailable }
			}
			cost = 150
			removal_cost = 10
			traits = { ideology_D CoStaff_School_Of_Fire_Support }
		}
	# Arsa Jovanovic
		SER_CoStaff_Arsa_Jovanovic = {
			picture = Generic_Portrait
			allowed = { tag = SER }
			available = {
				date > 1933.1.1
				date < 1964.1.1
				S_Minister_Allowed = yes
				NOT = { has_country_flag = Arsa_Jovanovic_unavailable }
			}
			cost = 150
			removal_cost = 10
			traits = { ideology_S CoStaff_School_Of_Fire_Support }
		}
}
#################################################
### Chief of Army
#################################################
	Chief_of_Army = {
	# Milan Nedic
		SER_CoArmy_Milan_Nedic = {
			picture = Generic_Portrait
			allowed = { tag = SER }
			available = {
				date > 1933.1.1
				date < 1964.1.1
				F_Minister_Allowed = yes
				NOT = { has_country_flag = Milan_Nedic_unavailable }
			}
			cost = 150
			removal_cost = 10
			traits = { ideology_F CoArmy_Armoured_Spearhead_Doctrine }
		}
	# Alexander Karadordevic
		SER_CoArmy_Alexander_Karadordevic = {
			picture = Generic_Portrait
			allowed = { tag = SER }
			available = {
				date > 1915.1.1
				date < 1933.1.1
				A_Minister_Allowed = yes
				NOT = { has_country_flag = Alexander_Karadordevic_unavailable }
			}
			cost = 150
			removal_cost = 10
			traits = { ideology_A CoArmy_Guns_And_Butter_Doctrine }
		}
	# Alexander Karadordevic
		SER_CoArmy_Alexander_Karadordevic_2 = {
			picture = Generic_Portrait
			allowed = { tag = SER }
			available = {
				date > 1915.1.1
				date < 1933.1.1
				A_Minister_Allowed = yes
				NOT = { has_country_flag = Alexander_Karadordevic_unavailable }
			}
			cost = 150
			removal_cost = 10
			traits = { ideology_A CoArmy_Guns_And_Butter_Doctrine }
		}
	# Zivojin Misic
		SER_CoArmy_Zivojin_Misic = {
			picture = Generic_Portrait
			allowed = { tag = SER }
			available = {
				date > 1916.1.1
				date < 1933.1.1
				A_Minister_Allowed = yes
				NOT = { has_country_flag = Zivojin_Misic_unavailable }
			}
			cost = 150
			removal_cost = 10
			traits = { ideology_A CoArmy_Decisive_Battle_Doctrine }
		}
	# Milivoje Zecevic
		SER_CoArmy_Milivoje_Zecevic = {
			picture = Generic_Portrait
			allowed = { tag = SER }
			available = {
				date > 1921.1.1
				date < 1933.1.1
				A_Minister_Allowed = yes
				NOT = { has_country_flag = Milivoje_Zecevic_unavailable }
			}
			cost = 150
			removal_cost = 10
			traits = { ideology_A CoArmy_Elastic_Defence_Doctrine }
		}
	# Petar Pesic
		SER_CoArmy_Petar_Pesic = {
			picture = Generic_Portrait
			allowed = { tag = SER }
			available = {
				date > 1922.1.1
				date < 1933.1.1
				A_Minister_Allowed = yes
				NOT = { has_country_flag = Petar_Pesic_unavailable }
			}
			cost = 150
			removal_cost = 10
			traits = { ideology_A CoArmy_Decisive_Battle_Doctrine }
		}
	# Dusan Trifunovic
		SER_CoArmy_Dusan_Trifunovic = {
			picture = Generic_Portrait
			allowed = { tag = SER }
			available = {
				date > 1924.1.1
				date < 1933.1.1
				A_Minister_Allowed = yes
				NOT = { has_country_flag = Dusan_Trifunovic_unavailable }
			}
			cost = 150
			removal_cost = 10
			traits = { ideology_A CoArmy_Elastic_Defence_Doctrine }
		}
	# Dragan Pakas
		SER_CoArmy_Dragan_Pakas = {
			picture = Generic_Portrait
			allowed = { tag = SER }
			available = {
				date > 1989.1.1
				date < 2020.1.1
				A_Minister_Allowed = yes
				NOT = { has_country_flag = Dragan_Pakas_unavailable }
			}
			cost = 150
			removal_cost = 10
			traits = { ideology_A CoArmy_Static_Defence_Doctrine }
		}
	# Radomir Putnik
		SER_CoArmy_Radomir_Putnik = {
			picture = Generic_Portrait
			allowed = { tag = SER }
			available = {
				date > 1914.1.1
				date < 1933.1.1
				D_Minister_Allowed = yes
				NOT = { has_country_flag = Radomir_Putnik_unavailable }
			}
			cost = 150
			removal_cost = 10
			traits = { ideology_D CoArmy_Elastic_Defence_Doctrine }
		}
	# Mihailo Rasic
		SER_CoArmy_Mihailo_Rasic = {
			picture = Generic_Portrait
			allowed = { tag = SER }
			available = {
				date > 1918.1.1
				date < 1933.1.1
				D_Minister_Allowed = yes
				NOT = { has_country_flag = Mihailo_Rasic_unavailable }
			}
			cost = 150
			removal_cost = 10
			traits = { ideology_D CoArmy_Decisive_Battle_Doctrine }
		}
	# Stevan Hadzic
		SER_CoArmy_Stevan_Hadzic = {
			picture = Generic_Portrait
			allowed = { tag = SER }
			available = {
				date > 1919.1.1
				date < 1933.1.1
				D_Minister_Allowed = yes
				NOT = { has_country_flag = Stevan_Hadzic_unavailable }
			}
			cost = 150
			removal_cost = 10
			traits = { ideology_D CoArmy_Guns_And_Butter_Doctrine }
		}
	# Branko Jovanovic
		SER_CoArmy_Branko_Jovanovic = {
			picture = Generic_Portrait
			allowed = { tag = SER }
			available = {
				date > 1920.1.1
				date < 1933.1.1
				D_Minister_Allowed = yes
				NOT = { has_country_flag = Branko_Jovanovic_unavailable }
			}
			cost = 150
			removal_cost = 10
			traits = { ideology_D CoArmy_Static_Defence_Doctrine }
		}
	# Milos Vasic
		SER_CoArmy_Milos_Vasic = {
			picture = Generic_Portrait
			allowed = { tag = SER }
			available = {
				date > 1922.1.1
				date < 1933.1.1
				D_Minister_Allowed = yes
				NOT = { has_country_flag = Milos_Vasic_unavailable }
			}
			cost = 150
			removal_cost = 10
			traits = { ideology_D CoArmy_Decisive_Battle_Doctrine }
		}
	# Mihailo Lukic
		SER_CoArmy_Mihailo_Lukic = {
			picture = Generic_Portrait
			allowed = { tag = SER }
			available = {
				date > 1933.1.1
				date < 1964.1.1
				D_Minister_Allowed = yes
				NOT = { has_country_flag = Mihailo_Lukic_unavailable }
			}
			cost = 150
			removal_cost = 10
			traits = { ideology_D CoArmy_Elastic_Defence_Doctrine }
		}
	# Borivoje Joksimovic
		SER_CoArmy_Borivoje_Joksimovic = {
			picture = Generic_Portrait
			allowed = { tag = SER }
			available = {
				date > 1933.1.1
				date < 1964.1.1
				S_Minister_Allowed = yes
				NOT = { has_country_flag = Borivoje_Joksimovic_unavailable }
			}
			cost = 150
			removal_cost = 10
			traits = { ideology_S CoArmy_Guns_And_Butter_Doctrine }
		}
	# Josip Broz
		SER_CoArmy_Josip_Broz = {
			picture = Generic_Portrait
			allowed = { tag = SER }
			available = {
				date > 1918.1.1
				date < 1933.1.1
				C_Minister_Allowed = yes
				NOT = { has_country_flag = Josip_Broz_unavailable }
			}
			cost = 150
			removal_cost = 10
			traits = { ideology_C CoArmy_Decisive_Battle_Doctrine }
		}
}
#################################################
### Chief of Navy
#################################################
	Chief_of_Navy = {
	# Marijan Polic
		SER_CoNavy_Marijan_Polic = {
			picture = Generic_Portrait
			allowed = { tag = SER }
			available = {
				date > 1933.1.1
				date < 1964.1.1
				F_Minister_Allowed = yes
				NOT = { has_country_flag = Marijan_Polic_unavailable }
			}
			cost = 150
			removal_cost = 10
			traits = { ideology_F CoNavy_Decisive_Naval_Battle_Doctrine }
		}
	# Boguljub Ilic
		SER_CoNavy_Boguljub_Ilic = {
			picture = Generic_Portrait
			allowed = { tag = SER }
			available = {
				date > 1933.1.1
				date < 1964.1.1
				D_Minister_Allowed = yes
				NOT = { has_country_flag = Boguljub_Ilic_unavailable }
			}
			cost = 150
			removal_cost = 10
			traits = { ideology_D CoNavy_Open_Seas_Doctrine }
		}
	# Josip Broz
		SER_CoNavy_Josip_Broz = {
			picture = Generic_Portrait
			allowed = { tag = SER }
			available = {
				date > 1933.1.1
				date < 1964.1.1
				S_Minister_Allowed = yes
				NOT = { has_country_flag = Josip_Broz_unavailable }
			}
			cost = 150
			removal_cost = 10
			traits = { ideology_S CoNavy_Base_Control_Doctrine }
		}
}
#################################################
### Chief of Airforce
#################################################
	Chief_of_Airforce = {
	# Petar Vukcevic
		SER_CoAir_Petar_Vukcevic = {
			picture = Generic_Portrait
			allowed = { tag = SER }
			available = {
				date > 1933.1.1
				date < 1964.1.1
				F_Minister_Allowed = yes
				NOT = { has_country_flag = Petar_Vukcevic_unavailable }
			}
			cost = 150
			removal_cost = 10
			traits = { ideology_F CoAir_Army_Aviation_Doctrine }
		}
	# Dragan Pakas
		SER_CoAir_Dragan_Pakas = {
			picture = Generic_Portrait
			allowed = { tag = SER }
			available = {
				date > 1989.1.1
				date < 2020.1.1
				A_Minister_Allowed = yes
				NOT = { has_country_flag = Dragan_Pakas_unavailable }
			}
			cost = 150
			removal_cost = 10
			traits = { ideology_A CoAir_Army_Aviation_Doctrine }
		}
	# Kosta Miletic
		SER_CoAir_Kosta_Miletic = {
			picture = Generic_Portrait
			allowed = { tag = SER }
			available = {
				date > 1914.1.1
				date < 1933.1.1
				D_Minister_Allowed = yes
				NOT = { has_country_flag = Kosta_Miletic_unavailable }
			}
			cost = 150
			removal_cost = 10
			traits = { ideology_D CoAir_Army_Aviation_Doctrine }
		}
	# Dragomir Lukacevic
		SER_CoAir_Dragomir_Lukacevic = {
			picture = Generic_Portrait
			allowed = { tag = SER }
			available = {
				date > 1933.1.1
				date < 1964.1.1
				D_Minister_Allowed = yes
				NOT = { has_country_flag = Dragomir_Lukacevic_unavailable }
			}
			cost = 150
			removal_cost = 10
			traits = { ideology_D CoAir_Air_Superiority_Doctrine }
		}
	# Josip Broz
		SER_CoAir_Josip_Broz = {
			picture = Generic_Portrait
			allowed = { tag = SER }
			available = {
				date > 1933.1.1
				date < 1964.1.1
				S_Minister_Allowed = yes
				NOT = { has_country_flag = Josip_Broz_unavailable }
			}
			cost = 150
			removal_cost = 10
			traits = { ideology_S CoAir_Vertical_Envelopment_Doctrine }
		}
	}
}
