ideas = {
#################################################
### Head of Government
#################################################
	Head_of_Government = {
	# Gustaf V
		SWE_HoS_Gustav_V = {
			picture = Generic_Portrait
			allowed = { tag = SWE }
			available = {
				date > 1933.1.1
				date < 1964.1.1
				D_Minister_Allowed = yes
				NOT = { has_country_flag = Gustaf_V_unavailable }
			}
			cost = 150
			removal_cost = 10
			traits = { POSITION_Monarch ideology_D HoG_Naive_Optimist }
		}
	# Martin Ekström
		SWE_HoG_Martin_Ekstrom = {
			picture = Generic_Portrait
			allowed = { tag = SWE }
			available = {
				date > 1933.1.1
				date < 1964.1.1
				F_Minister_Allowed = yes
				NOT = { has_country_flag = Martin_Ekstrom_unavailable }
			}
			cost = 150
			removal_cost = 10
			traits = { ideology_F HoG_Naive_Optimist }
		}
	# Victoria
		SWE_HoG_Victoria = {
			picture = Generic_Portrait
			allowed = { tag = SWE }
			available = {
				date > 1907.1.1
				date < 1933.1.1
				A_Minister_Allowed = yes
				NOT = { has_country_flag = Victoria_unavailable }
			}
			cost = 150
			removal_cost = 10
			traits = { ideology_A HoG_Silent_Workhorse }
		}
	# Erik Gustav Boström
		SWE_HoG_Erik_Gustav_Bostrom = {
			picture = Generic_Portrait
			allowed = { tag = SWE }
			available = {
				date > 1900.1.1
				date < 1933.1.1
				D_Minister_Allowed = yes
				NOT = { has_country_flag = Erik_Gustav_Bostrom_unavailable }
			}
			cost = 150
			removal_cost = 10
			traits = { ideology_D HoG_Flamboyant_Tough_Guy }
		}
	# Christian Lundeberg
		SWE_HoG_Christian_Lundeberg = {
			picture = Generic_Portrait
			allowed = { tag = SWE }
			available = {
				date > 1905.1.1
				date < 1933.1.1
				D_Minister_Allowed = yes
				NOT = { has_country_flag = Christian_Lundeberg_unavailable }
			}
			cost = 150
			removal_cost = 10
			traits = { ideology_D HoG_Corporate_Suit }
		}
	# Arvid Lindman
		SWE_HoG_Arvid_Lindman = {
			picture = Generic_Portrait
			allowed = { tag = SWE }
			available = {
				date > 1906.1.1
				date < 1933.1.1
				D_Minister_Allowed = yes
				NOT = { has_country_flag = Arvid_Lindman_unavailable }
			}
			cost = 150
			removal_cost = 10
			traits = { ideology_D HoG_Old_Admiral }
		}
	# Carl Swartz
		SWE_HoG_Carl_Swartz = {
			picture = Generic_Portrait
			allowed = { tag = SWE }
			available = {
				date > 1917.1.1
				date < 1933.1.1
				D_Minister_Allowed = yes
				NOT = { has_country_flag = Carl_Swartz_unavailable }
			}
			cost = 150
			removal_cost = 10
			traits = { ideology_D HoG_Corporate_Suit }
		}
	# Ernst Trygger
		SWE_HoG_Ernst_Trygger = {
			picture = Generic_Portrait
			allowed = { tag = SWE }
			available = {
				date > 1923.1.1
				date < 1933.1.1
				D_Minister_Allowed = yes
				NOT = { has_country_flag = Ernst_Trygger_unavailable }
			}
			cost = 150
			removal_cost = 10
			traits = { ideology_D HoG_Happy_Amateur }
		}
	# Fredrik von Otter
		SWE_HoG_Fredrik_von_Otter = {
			picture = Generic_Portrait
			allowed = { tag = SWE }
			available = {
				date > 1900.1.1
				date < 1933.1.1
				D_Minister_Allowed = yes
				NOT = { has_country_flag = Fredrik_von_Otter_unavailable }
			}
			cost = 150
			removal_cost = 10
			traits = { ideology_D HoG_Old_Admiral }
		}
	# Johan Ramstedt
		SWE_HoG_Johan_Ramstedt = {
			picture = Generic_Portrait
			allowed = { tag = SWE }
			available = {
				date > 1905.1.1
				date < 1933.1.1
				D_Minister_Allowed = yes
				NOT = { has_country_flag = Johan_Ramstedt_unavailable }
			}
			cost = 150
			removal_cost = 10
			traits = { ideology_D HoG_Corporate_Suit }
		}
	# Hjalmar Hammarskjöld
		SWE_HoG_Hjalmar_Hammarskjold = {
			picture = Generic_Portrait
			allowed = { tag = SWE }
			available = {
				date > 1914.1.1
				date < 1933.1.1
				D_Minister_Allowed = yes
				NOT = { has_country_flag = Hjalmar_Hammarskjold_unavailable }
			}
			cost = 150
			removal_cost = 10
			traits = { ideology_D HoG_Political_Protege }
		}
	# Oscar von Sydow
		SWE_HoG_Oscar_von_Sydow = {
			picture = Generic_Portrait
			allowed = { tag = SWE }
			available = {
				date > 1921.1.1
				date < 1933.1.1
				D_Minister_Allowed = yes
				NOT = { has_country_flag = Oscar_von_Sydow_unavailable }
			}
			cost = 150
			removal_cost = 10
			traits = { ideology_D HoG_Flamboyant_Tough_Guy }
		}
	# Gösta Bagge
		SWE_HoG_Gosta_Bagge = {
			picture = Generic_Portrait
			allowed = { tag = SWE }
			available = {
				date > 1942.1.1
				date < 1964.1.1
				D_Minister_Allowed = yes
				NOT = { has_country_flag = Gosta_Bagge_unavailable }
			}
			cost = 150
			removal_cost = 10
			traits = { ideology_D HoG_Smiling_Oilman }
		}
	# Jarl Hjalmarson
		SWE_HoG_Jarl_Hjalmarson = {
			picture = Generic_Portrait
			allowed = { tag = SWE }
			available = {
				date > 1958.1.1
				date < 1994.1.1
				D_Minister_Allowed = yes
				NOT = { has_country_flag = Jarl_Hjalmarson_unavailable }
			}
			cost = 150
			removal_cost = 10
			traits = { ideology_D HoG_Corporate_Suit }
		}
	# Bertil Ohlin
		SWE_HoG_Bertil_Ohlin_2 = {
			picture = Generic_Portrait
			allowed = { tag = SWE }
			available = {
				date > 1964.1.1
				date < 1980.1.1
				D_Minister_Allowed = yes
				NOT = { has_country_flag = Bertil_Ohlin_unavailable }
			}
			cost = 150
			removal_cost = 10
			traits = { ideology_D HoG_Flamboyant_Tough_Guy }
		}
	# Gunnar Hedlund
		SWE_HoG_Gunnar_Hedlund = {
			picture = Generic_Portrait
			allowed = { tag = SWE }
			available = {
				date > 1968.1.1
				date < 1990.1.1
				D_Minister_Allowed = yes
				NOT = { has_country_flag = Gunnar_Hedlund_unavailable }
			}
			cost = 150
			removal_cost = 10
			traits = { ideology_D HoG_Flamboyant_Tough_Guy }
		}
	# Thorbjörn Fälldin
		SWE_HoG_Thorbjorn_Falldin = {
			picture = Generic_Portrait
			allowed = { tag = SWE }
			available = {
				date > 1973.1.1
				date < 2020.1.1
				D_Minister_Allowed = yes
				NOT = { has_country_flag = Thorbjorn_Falldin_unavailable }
			}
			cost = 150
			removal_cost = 10
			traits = { ideology_D HoG_Old_Admiral }
		}
	# Ola Ullsten
		SWE_HoG_Ola_Ullsten = {
			picture = Generic_Portrait
			allowed = { tag = SWE }
			available = {
				date > 1978.1.1
				date < 2020.1.1
				D_Minister_Allowed = yes
				NOT = { has_country_flag = Ola_Ullsten_unavailable }
			}
			cost = 150
			removal_cost = 10
			traits = { ideology_D HoG_Old_Admiral }
		}
	# Ulf Adelsohn
		SWE_HoG_Ulf_Adelsohn = {
			picture = Generic_Portrait
			allowed = { tag = SWE }
			available = {
				date > 1982.1.1
				date < 2020.1.1
				D_Minister_Allowed = yes
				NOT = { has_country_flag = Ulf_Adelsohn_unavailable }
			}
			cost = 150
			removal_cost = 10
			traits = { ideology_D HoG_Political_Protege }
		}
	# Carl Bildt
		SWE_HoG_Carl_Bildt = {
			picture = Generic_Portrait
			allowed = { tag = SWE }
			available = {
				date > 1988.1.1
				date < 2020.1.1
				D_Minister_Allowed = yes
				NOT = { has_country_flag = Carl_Bildt_unavailable }
			}
			cost = 150
			removal_cost = 10
			traits = { ideology_D HoG_Flamboyant_Tough_Guy }
		}
	# Karl Staaff
		SWE_HoG_Karl_Staaff = {
			picture = Generic_Portrait
			allowed = { tag = SWE }
			available = {
				date > 1911.1.1
				date < 1933.1.1
				D_Minister_Allowed = yes
				NOT = { has_country_flag = Karl_Staaff_unavailable }
			}
			cost = 150
			removal_cost = 10
			traits = { ideology_D HoG_Naive_Optimist }
		}
	# Nils Edén
		SWE_HoG_Nils_Eden = {
			picture = Generic_Portrait
			allowed = { tag = SWE }
			available = {
				date > 1917.1.1
				date < 1933.1.1
				D_Minister_Allowed = yes
				NOT = { has_country_flag = Nils_Eden_unavailable }
			}
			cost = 150
			removal_cost = 10
			traits = { ideology_D HoG_Flamboyant_Tough_Guy }
		}
	# Louis de Geer
		SWE_HoG_Louis_de_Geer = {
			picture = Generic_Portrait
			allowed = { tag = SWE }
			available = {
				date > 1920.1.1
				date < 1933.1.1
				D_Minister_Allowed = yes
				NOT = { has_country_flag = Louis_de_Geer_unavailable }
			}
			cost = 150
			removal_cost = 10
			traits = { ideology_D HoG_Political_Protege }
		}
	# Carl Gustaf Ekman
		SWE_HoG_Carl_Gustaf_Ekman = {
			picture = Generic_Portrait
			allowed = { tag = SWE }
			available = {
				date > 1922.1.1
				date < 1933.1.1
				D_Minister_Allowed = yes
				NOT = { has_country_flag = Carl_Gustaf_Ekman_unavailable }
			}
			cost = 150
			removal_cost = 10
			traits = { ideology_D HoG_Backroom_Backstabber }
		}
	# Axel Pehrsson-Bramstorp
		SWE_HoG_Axel_PehrssonBramstorp = {
			picture = Generic_Portrait
			allowed = { tag = SWE }
			available = {
				date > 1933.1.1
				date < 1964.1.1
				D_Minister_Allowed = yes
				NOT = { has_country_flag = Axel_PehrssonBramstorp_unavailable }
			}
			cost = 150
			removal_cost = 10
			traits = { ideology_D HoG_Happy_Amateur }
		}
	# Axel Pehrsson-Bramstorp
		SWE_HoG_Axel_PehrssonBramstorp_2 = {
			picture = Generic_Portrait
			allowed = { tag = SWE }
			available = {
				date > 1938.1.1
				date < 1964.1.1
				D_Minister_Allowed = yes
				NOT = { has_country_flag = Axel_PehrssonBramstorp_unavailable }
			}
			cost = 150
			removal_cost = 10
			traits = { ideology_D HoG_Happy_Amateur }
		}
	# Bertil Ohlin
		SWE_HoG_Bertil_Ohlin = {
			picture = Generic_Portrait
			allowed = { tag = SWE }
			available = {
				date > 1945.1.1
				date < 1964.1.1
				D_Minister_Allowed = yes
				NOT = { has_country_flag = Bertil_Ohlin_unavailable }
			}
			cost = 150
			removal_cost = 10
			traits = { ideology_D HoG_Corporate_Suit }
		}
	# Hjalmar Branting
		SWE_HoG_Hjalmar_Branting = {
			picture = Generic_Portrait
			allowed = { tag = SWE }
			available = {
				date > 1907.1.1
				date < 1933.1.1
				D_Minister_Allowed = yes
				NOT = { has_country_flag = Hjalmar_Branting_unavailable }
			}
			cost = 150
			removal_cost = 10
			traits = { ideology_D HoG_Ambitious_Union_Boss }
		}
	# Per Albin Hansson
		SWE_HoG_Per_Albin_Hansson = {
			picture = Generic_Portrait
			allowed = { tag = SWE }
			available = {
				date > 1932.1.1
				date < 1964.1.1
				D_Minister_Allowed = yes
				NOT = { has_country_flag = Per_Albin_Hansson_unavailable }
			}
			cost = 150
			removal_cost = 10
			traits = { ideology_D HoG_Ambitious_Union_Boss }
		}
	# Tage Erlander
		SWE_HoG_Tage_Erlander = {
			picture = Generic_Portrait
			allowed = { tag = SWE }
			available = {
				date > 1946.1.1
				date < 1964.1.1
				D_Minister_Allowed = yes
				NOT = { has_country_flag = Tage_Erlander_unavailable }
			}
			cost = 150
			removal_cost = 10
			traits = { ideology_D HoG_Political_Protege }
		}
	# Olof Palme
		SWE_HoG_Olof_Palme = {
			picture = Generic_Portrait
			allowed = { tag = SWE }
			available = {
				date > 1969.1.1
				date < 1987.1.1
				D_Minister_Allowed = yes
				NOT = { has_country_flag = Olof_Palme_unavailable }
			}
			cost = 150
			removal_cost = 10
			traits = { ideology_D HoG_Flamboyant_Tough_Guy }
		}
	# Ingvar Carlsson
		SWE_HoG_Ingvar_Carlsson = {
			picture = Generic_Portrait
			allowed = { tag = SWE }
			available = {
				date > 1986.1.1
				date < 2020.1.1
				D_Minister_Allowed = yes
				NOT = { has_country_flag = Ingvar_Carlsson_unavailable }
			}
			cost = 150
			removal_cost = 10
			traits = { ideology_D HoG_Silent_Workhorse }
		}
	# Sven Linderot
		SWE_HoG_Sven_Linderot = {
			picture = Generic_Portrait
			allowed = { tag = SWE }
			available = {
				date > 1933.1.1
				date < 1964.1.1
				C_Minister_Allowed = yes
				NOT = { has_country_flag = Sven_Linderot_unavailable }
			}
			cost = 150
			removal_cost = 10
			traits = { ideology_C HoG_Happy_Amateur }
		}
}
#################################################
### Foreign Minister
#################################################
	Foreign_Minister = {
	# Erik von Rosen
		SWE_FM_Erik_von_Rosen = {
			picture = Generic_Portrait
			allowed = { tag = SWE }
			available = {
				date > 1933.1.1
				date < 1964.1.1
				F_Minister_Allowed = yes
				NOT = { has_country_flag = Erik_von_Rosen_unavailable }
			}
			cost = 150
			removal_cost = 10
			traits = { ideology_F FM_Ideological_Crusader }
		}
	# Birger Furugård
		SWE_FM_Birger_Furugard = {
			picture = Generic_Portrait
			allowed = { tag = SWE }
			available = {
				date > 1933.1.1
				date < 1964.1.1
				F_Minister_Allowed = yes
				NOT = { has_country_flag = Birger_Furugard_unavailable }
			}
			cost = 150
			removal_cost = 10
			traits = { ideology_F FM_Apologetic_Clerk }
		}
	# Victoria
		SWE_FM_Victoria = {
			picture = Generic_Portrait
			allowed = { tag = SWE }
			available = {
				date > 1907.1.1
				date < 1933.1.1
				A_Minister_Allowed = yes
				NOT = { has_country_flag = Victoria_unavailable }
			}
			cost = 150
			removal_cost = 10
			traits = { ideology_A FM_Ideological_Crusader }
		}
	# Alfred Lagerheim
		SWE_FM_Alfred_Lagerheim = {
			picture = Generic_Portrait
			allowed = { tag = SWE }
			available = {
				date > 1900.1.1
				date < 1933.1.1
				D_Minister_Allowed = yes
				NOT = { has_country_flag = Alfred_Lagerheim_unavailable }
			}
			cost = 150
			removal_cost = 10
			traits = { ideology_D FM_Great_Compromiser }
		}
	# Fredrik Wachtmeister
		SWE_FM_Fredrik_Wachtmeister = {
			picture = Generic_Portrait
			allowed = { tag = SWE }
			available = {
				date > 1905.1.1
				date < 1933.1.1
				D_Minister_Allowed = yes
				NOT = { has_country_flag = Fredrik_Wachtmeister_unavailable }
			}
			cost = 150
			removal_cost = 10
			traits = { ideology_D FM_Biased_Intellectual }
		}
	# Knut Wallenberg
		SWE_FM_Knut_Wallenberg = {
			picture = Generic_Portrait
			allowed = { tag = SWE }
			available = {
				date > 1914.1.1
				date < 1933.1.1
				D_Minister_Allowed = yes
				NOT = { has_country_flag = Knut_Wallenberg_unavailable }
			}
			cost = 150
			removal_cost = 10
			traits = { ideology_D FM_Ideological_Crusader }
		}
	# Christian Günther
		SWE_FM_Christian_Gunther = {
			picture = Generic_Portrait
			allowed = { tag = SWE }
			available = {
				date > 1940.1.1
				date < 1964.1.1
				D_Minister_Allowed = yes
				NOT = { has_country_flag = Christian_Gunther_unavailable }
			}
			cost = 150
			removal_cost = 10
			traits = { ideology_D FM_Apologetic_Clerk }
		}
	# Georg Andrén
		SWE_FM_Georg_Andren = {
			picture = Generic_Portrait
			allowed = { tag = SWE }
			available = {
				date > 1945.1.1
				date < 1964.1.1
				D_Minister_Allowed = yes
				NOT = { has_country_flag = Georg_Andren_unavailable }
			}
			cost = 150
			removal_cost = 10
			traits = { ideology_D FM_Ideological_Crusader }
		}
	# Ludvig Douglas
		SWE_FM_Ludvig_Douglas = {
			picture = Generic_Portrait
			allowed = { tag = SWE }
			available = {
				date > 1900.1.1
				date < 1933.1.1
				D_Minister_Allowed = yes
				NOT = { has_country_flag = Ludvig_Douglas_unavailable }
			}
			cost = 150
			removal_cost = 10
			traits = { ideology_D FM_Biased_Intellectual }
		}
	# August Gyldenstolpe
		SWE_FM_August_Gyldenstolpe = {
			picture = Generic_Portrait
			allowed = { tag = SWE }
			available = {
				date > 1904.1.1
				date < 1933.1.1
				D_Minister_Allowed = yes
				NOT = { has_country_flag = August_Gyldenstolpe_unavailable }
			}
			cost = 150
			removal_cost = 10
			traits = { ideology_D FM_Apologetic_Clerk }
		}
	# Arvid Taube
		SWE_FM_Arvid_Taube = {
			picture = Generic_Portrait
			allowed = { tag = SWE }
			available = {
				date > 1909.1.1
				date < 1933.1.1
				D_Minister_Allowed = yes
				NOT = { has_country_flag = Arvid_Taube_unavailable }
			}
			cost = 150
			removal_cost = 10
			traits = { ideology_D FM_Ideological_Crusader }
		}
	# Arvid Lindman
		SWE_FM_Arvid_Lindman = {
			picture = Generic_Portrait
			allowed = { tag = SWE }
			available = {
				date > 1917.1.1
				date < 1933.1.1
				D_Minister_Allowed = yes
				NOT = { has_country_flag = Arvid_Lindman_unavailable }
			}
			cost = 150
			removal_cost = 10
			traits = { ideology_D FM_Ideological_Crusader }
		}
	# Herman Wrangel
		SWE_FM_Herman_Wrangel = {
			picture = Generic_Portrait
			allowed = { tag = SWE }
			available = {
				date > 1920.1.1
				date < 1933.1.1
				D_Minister_Allowed = yes
				NOT = { has_country_flag = Herman_Wrangel_unavailable }
			}
			cost = 150
			removal_cost = 10
			traits = { ideology_D FM_Ideological_Crusader }
		}
	# Carl Hederstierna
		SWE_FM_Carl_Hederstierna = {
			picture = Generic_Portrait
			allowed = { tag = SWE }
			available = {
				date > 1923.1.1
				date < 1933.1.1
				D_Minister_Allowed = yes
				NOT = { has_country_flag = Carl_Hederstierna_unavailable }
			}
			cost = 150
			removal_cost = 10
			traits = { ideology_D FM_Ideological_Crusader }
		}
	# Erik Marks von Württemberg
		SWE_FM_Erik_Marks_von_Wurttemberg = {
			picture = Generic_Portrait
			allowed = { tag = SWE }
			available = {
				date > 1923.1.1
				date < 1933.1.1
				D_Minister_Allowed = yes
				NOT = { has_country_flag = Erik_Marks_von_Wurttemberg_unavailable }
			}
			cost = 150
			removal_cost = 10
			traits = { ideology_D FM_Biased_Intellectual }
		}
	# Eric Trolle
		SWE_FM_Eric_Trolle = {
			picture = Generic_Portrait
			allowed = { tag = SWE }
			available = {
				date > 1905.1.1
				date < 1933.1.1
				D_Minister_Allowed = yes
				NOT = { has_country_flag = Eric_Trolle_unavailable }
			}
			cost = 150
			removal_cost = 10
			traits = { ideology_D FM_Great_Compromiser }
		}
	# Albert Ehrensvärd jr
		SWE_FM_Albert_Ehrensvard_jr = {
			picture = Generic_Portrait
			allowed = { tag = SWE }
			available = {
				date > 1911.1.1
				date < 1933.1.1
				D_Minister_Allowed = yes
				NOT = { has_country_flag = Albert_Ehrensvard_jr_unavailable }
			}
			cost = 150
			removal_cost = 10
			traits = { ideology_D FM_Ideological_Crusader }
		}
	# Johannes Hellner
		SWE_FM_Johannes_Hellner = {
			picture = Generic_Portrait
			allowed = { tag = SWE }
			available = {
				date > 1917.1.1
				date < 1933.1.1
				D_Minister_Allowed = yes
				NOT = { has_country_flag = Johannes_Hellner_unavailable }
			}
			cost = 150
			removal_cost = 10
			traits = { ideology_D FM_Ideological_Crusader }
		}
	# Eliel Löfgren
		SWE_FM_Eliel_Lofgren = {
			picture = Generic_Portrait
			allowed = { tag = SWE }
			available = {
				date > 1926.1.1
				date < 1933.1.1
				D_Minister_Allowed = yes
				NOT = { has_country_flag = Eliel_Lofgren_unavailable }
			}
			cost = 150
			removal_cost = 10
			traits = { ideology_D FM_Biased_Intellectual }
		}
	# Karl G. Westman
		SWE_FM_Karl_G_Westman = {
			picture = Generic_Portrait
			allowed = { tag = SWE }
			available = {
				date > 1933.1.1
				date < 1964.1.1
				D_Minister_Allowed = yes
				NOT = { has_country_flag = Karl_G_Westman_unavailable }
			}
			cost = 150
			removal_cost = 10
			traits = { ideology_D FM_Apologetic_Clerk }
		}
	# Vilhelm Göran Lundvik
		SWE_FM_Vilhelm_Goran_Lundvik = {
			picture = Generic_Portrait
			allowed = { tag = SWE }
			available = {
				date > 1937.1.1
				date < 1964.1.1
				D_Minister_Allowed = yes
				NOT = { has_country_flag = Vilhelm_Goran_Lundvik_unavailable }
			}
			cost = 150
			removal_cost = 10
			traits = { ideology_D FM_Biased_Intellectual }
		}
	# R. Reson Sohlmann
		SWE_FM_R_Reson_Sohlmann = {
			picture = Generic_Portrait
			allowed = { tag = SWE }
			available = {
				date > 1938.1.1
				date < 1964.1.1
				D_Minister_Allowed = yes
				NOT = { has_country_flag = R_Reson_Sohlmann_unavailable }
			}
			cost = 150
			removal_cost = 10
			traits = { ideology_D FM_Iron_Fisted_Brute }
		}
	# Per E.G. Insulander
		SWE_FM_Per_EG_Insulander = {
			picture = Generic_Portrait
			allowed = { tag = SWE }
			available = {
				date > 1939.1.1
				date < 1964.1.1
				D_Minister_Allowed = yes
				NOT = { has_country_flag = Per_EG_Insulander_unavailable }
			}
			cost = 150
			removal_cost = 10
			traits = { ideology_D FM_General_Staffer }
		}
	# Axel Pehrsson-Bramstorp
		SWE_FM_Axel_PehrssonBramstorp = {
			picture = Generic_Portrait
			allowed = { tag = SWE }
			available = {
				date > 1940.1.1
				date < 1964.1.1
				D_Minister_Allowed = yes
				NOT = { has_country_flag = Axel_PehrssonBramstorp_unavailable }
			}
			cost = 150
			removal_cost = 10
			traits = { ideology_D FM_The_Cloak_N_Dagger_Schemer }
		}
	# Erik Palmstierna
		SWE_FM_Erik_Palmstierna = {
			picture = Generic_Portrait
			allowed = { tag = SWE }
			available = {
				date > 1920.1.1
				date < 1933.1.1
				D_Minister_Allowed = yes
				NOT = { has_country_flag = Erik_Palmstierna_unavailable }
			}
			cost = 150
			removal_cost = 10
			traits = { ideology_D FM_Ideological_Crusader }
		}
	# Östen Undén
		SWE_FM_Osten_Unden_2 = {
			picture = Generic_Portrait
			allowed = { tag = SWE }
			available = {
				date > 1920.1.1
				date < 1933.1.1
				D_Minister_Allowed = yes
				NOT = { has_country_flag = Osten_Unden_unavailable }
			}
			cost = 150
			removal_cost = 10
			traits = { ideology_D FM_Apologetic_Clerk }
		}
	# Hjalmar Branting
		SWE_FM_Hjalmar_Branting = {
			picture = Generic_Portrait
			allowed = { tag = SWE }
			available = {
				date > 1921.1.1
				date < 1933.1.1
				D_Minister_Allowed = yes
				NOT = { has_country_flag = Hjalmar_Branting_unavailable }
			}
			cost = 150
			removal_cost = 10
			traits = { ideology_D FM_Apologetic_Clerk }
		}
	# Richard Sandler
		SWE_FM_Richard_Sandler = {
			picture = Generic_Portrait
			allowed = { tag = SWE }
			available = {
				date > 1933.1.1
				date < 1964.1.1
				D_Minister_Allowed = yes
				NOT = { has_country_flag = Richard_Sandler_unavailable }
			}
			cost = 150
			removal_cost = 10
			traits = { ideology_D FM_Biased_Intellectual }
		}
	# Per Edvin Sköld
		SWE_FM_Per_Edvin_Skold = {
			picture = Generic_Portrait
			allowed = { tag = SWE }
			available = {
				date > 1933.1.1
				date < 1964.1.1
				D_Minister_Allowed = yes
				NOT = { has_country_flag = Per_Edvin_Skold_unavailable }
			}
			cost = 150
			removal_cost = 10
			traits = { ideology_D FM_Ideological_Crusader }
		}
	# Östen Undén
		SWE_FM_Osten_Unden = {
			picture = Generic_Portrait
			allowed = { tag = SWE }
			available = {
				date > 1945.1.1
				date < 1964.1.1
				D_Minister_Allowed = yes
				NOT = { has_country_flag = Osten_Unden_unavailable }
			}
			cost = 150
			removal_cost = 10
			traits = { ideology_D FM_Great_Compromiser }
		}
	# Lennart Bodström
		SWE_FM_Lennart_Bodstrom = {
			picture = Generic_Portrait
			allowed = { tag = SWE }
			available = {
				date > 1985.1.1
				date < 1992.1.1
				D_Minister_Allowed = yes
				NOT = { has_country_flag = Lennart_Bodstrom_unavailable }
			}
			cost = 150
			removal_cost = 10
			traits = { ideology_D FM_Biased_Intellectual }
		}
	# Ture Nerman
		SWE_FM_Ture_Nerman = {
			picture = Generic_Portrait
			allowed = { tag = SWE }
			available = {
				date > 1914.1.1
				date < 1933.1.1
				C_Minister_Allowed = yes
				NOT = { has_country_flag = Ture_Nerman_unavailable }
			}
			cost = 150
			removal_cost = 10
			traits = { ideology_C FM_Ideological_Crusader }
		}
	# Hugo Sellén
		SWE_FM_Hugo_Sellen = {
			picture = Generic_Portrait
			allowed = { tag = SWE }
			available = {
				date > 1933.1.1
				date < 1964.1.1
				C_Minister_Allowed = yes
				NOT = { has_country_flag = Hugo_Sellen_unavailable }
			}
			cost = 150
			removal_cost = 10
			traits = { ideology_C FM_Ideological_Crusader }
		}
}
#################################################
### Minister of Security
#################################################
	Minister_of_Security = {
	# Birger Furugård
		SWE_MoS_Birger_Furugard = {
			picture = Generic_Portrait
			allowed = { tag = SWE }
			available = {
				date > 1933.1.1
				date < 1964.1.1
				F_Minister_Allowed = yes
				NOT = { has_country_flag = Birger_Furugard_unavailable }
			}
			cost = 150
			removal_cost = 10
			traits = { ideology_F MoS_Back_Stabber }
		}
	# Sven Hedín
		SWE_MoS_Sven_Hedin = {
			picture = Generic_Portrait
			allowed = { tag = SWE }
			available = {
				date > 1933.1.1
				date < 1964.1.1
				F_Minister_Allowed = yes
				NOT = { has_country_flag = Sven_Hedin_unavailable }
			}
			cost = 150
			removal_cost = 10
			traits = { ideology_F MoS_Back_Stabber }
		}
	# Sven Hedin
		SWE_MoS_Sven_Hedin_2 = {
			picture = Generic_Portrait
			allowed = { tag = SWE }
			available = {
				date > 1915.1.1
				date < 1933.1.1
				A_Minister_Allowed = yes
				NOT = { has_country_flag = Sven_Hedin_unavailable }
			}
			cost = 150
			removal_cost = 10
			traits = { ideology_A MoS_Man_Of_The_People }
		}
	# Ossian Berger
		SWE_MoS_Ossian_Berger = {
			picture = Generic_Portrait
			allowed = { tag = SWE }
			available = {
				date > 1902.1.1
				date < 1933.1.1
				D_Minister_Allowed = yes
				NOT = { has_country_flag = Ossian_Berger_unavailable }
			}
			cost = 150
			removal_cost = 10
			traits = { ideology_D MoS_Compassionate_Gentleman }
		}
	# Gustaf Berg
		SWE_MoS_Gustaf_Berg = {
			picture = Generic_Portrait
			allowed = { tag = SWE }
			available = {
				date > 1905.1.1
				date < 1933.1.1
				D_Minister_Allowed = yes
				NOT = { has_country_flag = Gustaf_Berg_unavailable }
			}
			cost = 150
			removal_cost = 10
			traits = { ideology_D MoS_Compassionate_Gentleman }
		}
	# Hjalmar Hammarskjöld
		SWE_MoS_Hjalmar_Hammarskjold = {
			picture = Generic_Portrait
			allowed = { tag = SWE }
			available = {
				date > 1901.1.1
				date < 1933.1.1
				D_Minister_Allowed = yes
				NOT = { has_country_flag = Hjalmar_Hammarskjold_unavailable }
			}
			cost = 150
			removal_cost = 10
			traits = { ideology_D MoS_Crime_Fighter }
		}
	# Albert Petersson
		SWE_MoS_Albert_Petersson = {
			picture = Generic_Portrait
			allowed = { tag = SWE }
			available = {
				date > 1906.1.1
				date < 1933.1.1
				D_Minister_Allowed = yes
				NOT = { has_country_flag = Albert_Petersson_unavailable }
			}
			cost = 150
			removal_cost = 10
			traits = { ideology_D MoS_Silent_Lawyer }
		}
	# Berndt Hasselrot
		SWE_MoS_Berndt_Hasselrot = {
			picture = Generic_Portrait
			allowed = { tag = SWE }
			available = {
				date > 1914.1.1
				date < 1933.1.1
				D_Minister_Allowed = yes
				NOT = { has_country_flag = Berndt_Hasselrot_unavailable }
			}
			cost = 150
			removal_cost = 10
			traits = { ideology_D MoS_Silent_Lawyer }
		}
	# Steno Stenberg
		SWE_MoS_Steno_Stenberg = {
			picture = Generic_Portrait
			allowed = { tag = SWE }
			available = {
				date > 1914.1.1
				date < 1933.1.1
				D_Minister_Allowed = yes
				NOT = { has_country_flag = Steno_Stenberg_unavailable }
			}
			cost = 150
			removal_cost = 10
			traits = { ideology_D MoS_Silent_Lawyer }
		}
	# Birger Ekeberg
		SWE_MoS_Birger_Ekeberg = {
			picture = Generic_Portrait
			allowed = { tag = SWE }
			available = {
				date > 1920.1.1
				date < 1933.1.1
				D_Minister_Allowed = yes
				NOT = { has_country_flag = Birger_Ekeberg_unavailable }
			}
			cost = 150
			removal_cost = 10
			traits = { ideology_D MoS_Silent_Lawyer }
		}
	# Peter G.A. Wijkman
		SWE_MoS_Peter_GA_Wijkman = {
			picture = Generic_Portrait
			allowed = { tag = SWE }
			available = {
				date > 1938.1.1
				date < 1964.1.1
				D_Minister_Allowed = yes
				NOT = { has_country_flag = Peter_GA_Wijkman_unavailable }
			}
			cost = 150
			removal_cost = 10
			traits = { ideology_D MoS_Back_Stabber }
		}
	# Ludvig Annerstedt
		SWE_MoS_Ludvig_Annerstedt = {
			picture = Generic_Portrait
			allowed = { tag = SWE }
			available = {
				date > 1900.1.1
				date < 1933.1.1
				D_Minister_Allowed = yes
				NOT = { has_country_flag = Ludvig_Annerstedt_unavailable }
			}
			cost = 150
			removal_cost = 10
			traits = { ideology_D MoS_Crime_Fighter }
		}
	# Karl Staaff
		SWE_MoS_Karl_Staaff = {
			picture = Generic_Portrait
			allowed = { tag = SWE }
			available = {
				date > 1905.1.1
				date < 1933.1.1
				D_Minister_Allowed = yes
				NOT = { has_country_flag = Karl_Staaff_unavailable }
			}
			cost = 150
			removal_cost = 10
			traits = { ideology_D MoS_Man_Of_The_People }
		}
	# Gustaf Sandström
		SWE_MoS_Gustaf_Sandstrom = {
			picture = Generic_Portrait
			allowed = { tag = SWE }
			available = {
				date > 1909.1.1
				date < 1933.1.1
				D_Minister_Allowed = yes
				NOT = { has_country_flag = Gustaf_Sandstrom_unavailable }
			}
			cost = 150
			removal_cost = 10
			traits = { ideology_D MoS_Crime_Fighter }
		}
	# Gustaf Sandström
		SWE_MoS_Gustaf_Sandstrom_2 = {
			picture = Generic_Portrait
			allowed = { tag = SWE }
			available = {
				date > 1911.1.1
				date < 1933.1.1
				D_Minister_Allowed = yes
				NOT = { has_country_flag = Gustaf_Sandstrom_unavailable }
			}
			cost = 150
			removal_cost = 10
			traits = { ideology_D MoS_Crime_Fighter }
		}
	# Eliel Löfgren
		SWE_MoS_Eliel_Lofgren = {
			picture = Generic_Portrait
			allowed = { tag = SWE }
			available = {
				date > 1917.1.1
				date < 1933.1.1
				D_Minister_Allowed = yes
				NOT = { has_country_flag = Eliel_Lofgren_unavailable }
			}
			cost = 150
			removal_cost = 10
			traits = { ideology_D MoS_Silent_Lawyer }
		}
	# Johan Thyrén
		SWE_MoS_Johan_Thyren = {
			picture = Generic_Portrait
			allowed = { tag = SWE }
			available = {
				date > 1924.1.1
				date < 1933.1.1
				D_Minister_Allowed = yes
				NOT = { has_country_flag = Johan_Thyren_unavailable }
			}
			cost = 150
			removal_cost = 10
			traits = { ideology_D MoS_Compassionate_Gentleman }
		}
	# Thorwald Bergquist
		SWE_MoS_Thorwald_Bergquist = {
			picture = Generic_Portrait
			allowed = { tag = SWE }
			available = {
				date > 1933.1.1
				date < 1964.1.1
				D_Minister_Allowed = yes
				NOT = { has_country_flag = Thorwald_Bergquist_unavailable }
			}
			cost = 150
			removal_cost = 10
			traits = { ideology_D MoS_Compassionate_Gentleman }
		}
	# Axel T. Ädelsvärd
		SWE_MoS_Axel_T_Adelsvard = {
			picture = Generic_Portrait
			allowed = { tag = SWE }
			available = {
				date > 1933.1.1
				date < 1964.1.1
				D_Minister_Allowed = yes
				NOT = { has_country_flag = Axel_T_Adelsvard_unavailable }
			}
			cost = 150
			removal_cost = 10
			traits = { ideology_D MoS_Silent_Lawyer }
		}
	# Gustav Andersson-Rasjön
		SWE_MoS_Gustav_AnderssonRasjon = {
			picture = Generic_Portrait
			allowed = { tag = SWE }
			available = {
				date > 1940.1.1
				date < 1964.1.1
				D_Minister_Allowed = yes
				NOT = { has_country_flag = Gustav_AnderssonRasjon_unavailable }
			}
			cost = 150
			removal_cost = 10
			traits = { ideology_D MoS_Compassionate_Gentleman }
		}
	# K.G. Westman
		SWE_MoS_KG_Westman = {
			picture = Generic_Portrait
			allowed = { tag = SWE }
			available = {
				date > 1940.1.1
				date < 1964.1.1
				D_Minister_Allowed = yes
				NOT = { has_country_flag = KG_Westman_unavailable }
			}
			cost = 150
			removal_cost = 10
			traits = { ideology_D MoS_Crime_Fighter }
		}
	# Östen Undén
		SWE_MoS_Osten_Unden = {
			picture = Generic_Portrait
			allowed = { tag = SWE }
			available = {
				date > 1920.1.1
				date < 1933.1.1
				D_Minister_Allowed = yes
				NOT = { has_country_flag = Osten_Unden_unavailable }
			}
			cost = 150
			removal_cost = 10
			traits = { ideology_D MoS_Crime_Fighter }
		}
	# Assar Åkerman
		SWE_MoS_Assar_Akerman = {
			picture = Generic_Portrait
			allowed = { tag = SWE }
			available = {
				date > 1920.1.1
				date < 1933.1.1
				D_Minister_Allowed = yes
				NOT = { has_country_flag = Assar_Akerman_unavailable }
			}
			cost = 150
			removal_cost = 10
			traits = { ideology_D MoS_Silent_Lawyer }
		}
	# Torsten Nothin
		SWE_MoS_Torsten_Nothin = {
			picture = Generic_Portrait
			allowed = { tag = SWE }
			available = {
				date > 1924.1.1
				date < 1933.1.1
				D_Minister_Allowed = yes
				NOT = { has_country_flag = Torsten_Nothin_unavailable }
			}
			cost = 150
			removal_cost = 10
			traits = { ideology_D MoS_Silent_Lawyer }
		}
	# Karl Schlyter
		SWE_MoS_Karl_Schlyter = {
			picture = Generic_Portrait
			allowed = { tag = SWE }
			available = {
				date > 1933.1.1
				date < 1964.1.1
				D_Minister_Allowed = yes
				NOT = { has_country_flag = Karl_Schlyter_unavailable }
			}
			cost = 150
			removal_cost = 10
			traits = { ideology_D MoS_Silent_Lawyer }
		}
	# Anders Lindstedt
		SWE_MoS_Anders_Lindstedt = {
			picture = Generic_Portrait
			allowed = { tag = SWE }
			available = {
				date > 1937.1.1
				date < 1964.1.1
				D_Minister_Allowed = yes
				NOT = { has_country_flag = Anders_Lindstedt_unavailable }
			}
			cost = 150
			removal_cost = 10
			traits = { ideology_D MoS_Compassionate_Gentleman }
		}
	# Richard J. Sandler
		SWE_MoS_Richard_J_Sandler = {
			picture = Generic_Portrait
			allowed = { tag = SWE }
			available = {
				date > 1939.1.1
				date < 1964.1.1
				D_Minister_Allowed = yes
				NOT = { has_country_flag = Richard_J_Sandler_unavailable }
			}
			cost = 150
			removal_cost = 10
			traits = { ideology_D MoS_Prince_Of_Terror }
		}
	# Arvid G. Richert
		SWE_MoS_Arvid_G_Richert = {
			picture = Generic_Portrait
			allowed = { tag = SWE }
			available = {
				date > 1940.1.1
				date < 1964.1.1
				D_Minister_Allowed = yes
				NOT = { has_country_flag = Arvid_G_Richert_unavailable }
			}
			cost = 150
			removal_cost = 10
			traits = { ideology_D MoS_Man_Of_The_People }
		}
	# Sten Wickbom
		SWE_MoS_Sten_Wickbom = {
			picture = Generic_Portrait
			allowed = { tag = SWE }
			available = {
				date > 1985.1.1
				date < 1992.1.1
				D_Minister_Allowed = yes
				NOT = { has_country_flag = Sten_Wickbom_unavailable }
			}
			cost = 150
			removal_cost = 10
			traits = { ideology_D MoS_Silent_Lawyer }
		}
	# Karl Kilbom
		SWE_MoS_Karl_Kilbom = {
			picture = Generic_Portrait
			allowed = { tag = SWE }
			available = {
				date > 1933.1.1
				date < 1964.1.1
				C_Minister_Allowed = yes
				NOT = { has_country_flag = Karl_Kilbom_unavailable }
			}
			cost = 150
			removal_cost = 10
			traits = { ideology_C MoS_Crime_Fighter }
		}
	# Carl Lindhagen
		SWE_MoS_Carl_Lindhagen = {
			picture = Generic_Portrait
			allowed = { tag = SWE }
			available = {
				date > 1914.1.1
				date < 1933.1.1
				C_Minister_Allowed = yes
				NOT = { has_country_flag = Carl_Lindhagen_unavailable }
			}
			cost = 150
			removal_cost = 10
			traits = { ideology_C MoS_Back_Stabber }
		}
}
#################################################
### Armaments Minister
#################################################
	Armaments_Minister = {
	# Arthur Lindén
		SWE_AM_Arthur_Linden = {
			picture = Generic_Portrait
			allowed = { tag = SWE }
			available = {
				date > 1933.1.1
				date < 1964.1.1
				F_Minister_Allowed = yes
				NOT = { has_country_flag = Arthur_Linden_unavailable }
			}
			cost = 150
			removal_cost = 10
			traits = { ideology_F AM_Laissez-faire_Capitalist }
		}
	# Ernst Trygger
		SWE_AM_Ernst_Trygger_2 = {
			picture = Generic_Portrait
			allowed = { tag = SWE }
			available = {
				date > 1915.1.1
				date < 1933.1.1
				A_Minister_Allowed = yes
				NOT = { has_country_flag = Ernst_Trygger_unavailable }
			}
			cost = 150
			removal_cost = 10
			traits = { ideology_A AM_Laissez-faire_Capitalist }
		}
	# Fredrik Wachtmeister
		SWE_AM_Fredrik_Wachtmeister = {
			picture = Generic_Portrait
			allowed = { tag = SWE }
			available = {
				date > 1900.1.1
				date < 1933.1.1
				D_Minister_Allowed = yes
				NOT = { has_country_flag = Fredrik_Wachtmeister_unavailable }
			}
			cost = 150
			removal_cost = 10
			traits = { ideology_D AM_Resource_Industrialist }
		}
	# Carl Swartz
		SWE_AM_Carl_Swartz = {
			picture = Generic_Portrait
			allowed = { tag = SWE }
			available = {
				date > 1906.1.1
				date < 1933.1.1
				D_Minister_Allowed = yes
				NOT = { has_country_flag = Carl_Swartz_unavailable }
			}
			cost = 150
			removal_cost = 10
			traits = { ideology_D AM_Resource_Industrialist }
		}
	# Conrad Carleson
		SWE_AM_Conrad_Carleson = {
			picture = Generic_Portrait
			allowed = { tag = SWE }
			available = {
				date > 1917.1.1
				date < 1933.1.1
				D_Minister_Allowed = yes
				NOT = { has_country_flag = Conrad_Carleson_unavailable }
			}
			cost = 150
			removal_cost = 10
			traits = { ideology_D AM_Laissez-faire_Capitalist }
		}
	# Jakob Beskow
		SWE_AM_Jakob_Beskow = {
			picture = Generic_Portrait
			allowed = { tag = SWE }
			available = {
				date > 1921.1.1
				date < 1933.1.1
				D_Minister_Allowed = yes
				NOT = { has_country_flag = Jakob_Beskow_unavailable }
			}
			cost = 150
			removal_cost = 10
			traits = { ideology_D AM_Resource_Industrialist }
		}
	# Axel Vennersten
		SWE_AM_Axel_Vennersten = {
			picture = Generic_Portrait
			allowed = { tag = SWE }
			available = {
				date > 1914.1.1
				date < 1933.1.1
				D_Minister_Allowed = yes
				NOT = { has_country_flag = Axel_Vennersten_unavailable }
			}
			cost = 150
			removal_cost = 10
			traits = { ideology_D AM_Administrative_Genius }
		}
	# Henric Tamm
		SWE_AM_Henric_Tamm = {
			picture = Generic_Portrait
			allowed = { tag = SWE }
			available = {
				date > 1920.1.1
				date < 1933.1.1
				D_Minister_Allowed = yes
				NOT = { has_country_flag = Henric_Tamm_unavailable }
			}
			cost = 150
			removal_cost = 10
			traits = { ideology_D AM_Administrative_Genius }
		}
	# Jacob Beskow
		SWE_AM_Jacob_Beskow = {
			picture = Generic_Portrait
			allowed = { tag = SWE }
			available = {
				date > 1921.1.1
				date < 1933.1.1
				D_Minister_Allowed = yes
				NOT = { has_country_flag = Jacob_Beskow_unavailable }
			}
			cost = 150
			removal_cost = 10
			traits = { ideology_D AM_Resource_Industrialist }
		}
	# Gustav Cassel
		SWE_AM_Gustav_Cassel = {
			picture = Generic_Portrait
			allowed = { tag = SWE }
			available = {
				date > 1937.1.1
				date < 1964.1.1
				D_Minister_Allowed = yes
				NOT = { has_country_flag = Gustav_Cassel_unavailable }
			}
			cost = 150
			removal_cost = 10
			traits = { ideology_D AM_Administrative_Genius }
		}
	# Ernst Trygger
		SWE_AM_Ernst_Trygger = {
			picture = Generic_Portrait
			allowed = { tag = SWE }
			available = {
				date > 1938.1.1
				date < 1964.1.1
				D_Minister_Allowed = yes
				NOT = { has_country_flag = Ernst_Trygger_unavailable }
			}
			cost = 150
			removal_cost = 10
			traits = { ideology_D AM_Theoretical_Scientist }
		}
	# Erik Einar Ekstrand
		SWE_AM_Erik_Einar_Ekstrand = {
			picture = Generic_Portrait
			allowed = { tag = SWE }
			available = {
				date > 1939.1.1
				date < 1964.1.1
				D_Minister_Allowed = yes
				NOT = { has_country_flag = Erik_Einar_Ekstrand_unavailable }
			}
			cost = 150
			removal_cost = 10
			traits = { ideology_D AM_Submarine_Proponent }
		}
	# Gösta Bagge
		SWE_AM_Gosta_Bagge = {
			picture = Generic_Portrait
			allowed = { tag = SWE }
			available = {
				date > 1940.1.1
				date < 1964.1.1
				D_Minister_Allowed = yes
				NOT = { has_country_flag = Gosta_Bagge_unavailable }
			}
			cost = 150
			removal_cost = 10
			traits = { ideology_D AM_Resource_Industrialist }
		}
	# Martin Skoglund
		SWE_AM_Martin_Skoglund = {
			picture = Generic_Portrait
			allowed = { tag = SWE }
			available = {
				date > 1940.1.1
				date < 1964.1.1
				D_Minister_Allowed = yes
				NOT = { has_country_flag = Martin_Skoglund_unavailable }
			}
			cost = 150
			removal_cost = 10
			traits = { ideology_D AM_Laissez-faire_Capitalist }
		}
	# Fritjof Domö
		SWE_AM_Fritjof_Domo = {
			picture = Generic_Portrait
			allowed = { tag = SWE }
			available = {
				date > 1945.1.1
				date < 1964.1.1
				D_Minister_Allowed = yes
				NOT = { has_country_flag = Fritjof_Domo_unavailable }
			}
			cost = 150
			removal_cost = 10
			traits = { ideology_D AM_Administrative_Genius }
		}
	# Ernst Meyer
		SWE_AM_Ernst_Meyer = {
			picture = Generic_Portrait
			allowed = { tag = SWE }
			available = {
				date > 1902.1.1
				date < 1933.1.1
				D_Minister_Allowed = yes
				NOT = { has_country_flag = Ernst_Meyer_unavailable }
			}
			cost = 150
			removal_cost = 10
			traits = { ideology_D AM_Laissez-faire_Capitalist }
		}
	# Elof Biesèrt
		SWE_AM_Elof_Biesert = {
			picture = Generic_Portrait
			allowed = { tag = SWE }
			available = {
				date > 1905.1.1
				date < 1933.1.1
				D_Minister_Allowed = yes
				NOT = { has_country_flag = Elof_Biesert_unavailable }
			}
			cost = 150
			removal_cost = 10
			traits = { ideology_D AM_Resource_Industrialist }
		}
	# Theodor Adelswärd
		SWE_AM_Theodor_Adelsward = {
			picture = Generic_Portrait
			allowed = { tag = SWE }
			available = {
				date > 1911.1.1
				date < 1933.1.1
				D_Minister_Allowed = yes
				NOT = { has_country_flag = Theodor_Adelsward_unavailable }
			}
			cost = 150
			removal_cost = 10
			traits = { ideology_D AM_Resource_Industrialist }
		}
	# Carl Gustaf Ekman
		SWE_AM_Carl_Gustaf_Ekman = {
			picture = Generic_Portrait
			allowed = { tag = SWE }
			available = {
				date > 1922.1.1
				date < 1933.1.1
				D_Minister_Allowed = yes
				NOT = { has_country_flag = Carl_Gustaf_Ekman_unavailable }
			}
			cost = 150
			removal_cost = 10
			traits = { ideology_D AM_Laissez-faire_Capitalist }
		}
	# Vilmar Ljungdahl
		SWE_AM_Vilmar_Ljungdahl = {
			picture = Generic_Portrait
			allowed = { tag = SWE }
			available = {
				date > 1933.1.1
				date < 1964.1.1
				D_Minister_Allowed = yes
				NOT = { has_country_flag = Vilmar_Ljungdahl_unavailable }
			}
			cost = 150
			removal_cost = 10
			traits = { ideology_D AM_Tank_Proponent }
		}
	# Bertil Ohlin
		SWE_AM_Bertil_Ohlin = {
			picture = Generic_Portrait
			allowed = { tag = SWE }
			available = {
				date > 1944.1.1
				date < 1964.1.1
				D_Minister_Allowed = yes
				NOT = { has_country_flag = Bertil_Ohlin_unavailable }
			}
			cost = 150
			removal_cost = 10
			traits = { ideology_D AM_Military_Entrepreneur }
		}
	# Kjell-Olof Feldt
		SWE_AM_KjellOlof_Feldt = {
			picture = Generic_Portrait
			allowed = { tag = SWE }
			available = {
				date > 1985.1.1
				date < 1992.1.1
				D_Minister_Allowed = yes
				NOT = { has_country_flag = KjellOlof_Feldt_unavailable }
			}
			cost = 150
			removal_cost = 10
			traits = { ideology_D AM_Laissez-faire_Capitalist }
		}
	# Per Albin Hansson
		SWE_AM_Per_Albin_Hansson = {
			picture = Generic_Portrait
			allowed = { tag = SWE }
			available = {
				date > 1917.1.1
				date < 1933.1.1
				D_Minister_Allowed = yes
				NOT = { has_country_flag = Per_Albin_Hansson_unavailable }
			}
			cost = 150
			removal_cost = 10
			traits = { ideology_D AM_Military_Entrepreneur }
		}
	# Hjalmar Branting
		SWE_AM_Hjalmar_Branting = {
			picture = Generic_Portrait
			allowed = { tag = SWE }
			available = {
				date > 1917.1.1
				date < 1933.1.1
				D_Minister_Allowed = yes
				NOT = { has_country_flag = Hjalmar_Branting_unavailable }
			}
			cost = 150
			removal_cost = 10
			traits = { ideology_D AM_Resource_Industrialist }
		}
	# Fredrik Thorsson
		SWE_AM_Fredrik_Thorsson = {
			picture = Generic_Portrait
			allowed = { tag = SWE }
			available = {
				date > 1918.1.1
				date < 1933.1.1
				D_Minister_Allowed = yes
				NOT = { has_country_flag = Fredrik_Thorsson_unavailable }
			}
			cost = 150
			removal_cost = 10
			traits = { ideology_D AM_Resource_Industrialist }
		}
	# Rickard Sandler
		SWE_AM_Rickard_Sandler = {
			picture = Generic_Portrait
			allowed = { tag = SWE }
			available = {
				date > 1920.1.1
				date < 1933.1.1
				D_Minister_Allowed = yes
				NOT = { has_country_flag = Rickard_Sandler_unavailable }
			}
			cost = 150
			removal_cost = 10
			traits = { ideology_D AM_Resource_Industrialist }
		}
	# Ernst Wigforss
		SWE_AM_Ernst_Wigforss = {
			picture = Generic_Portrait
			allowed = { tag = SWE }
			available = {
				date > 1933.1.1
				date < 1964.1.1
				D_Minister_Allowed = yes
				NOT = { has_country_flag = Ernst_Wigforss_unavailable }
			}
			cost = 150
			removal_cost = 10
			traits = { ideology_D AM_Resource_Industrialist }
		}
	# Gustav Möller
		SWE_AM_Gustav_Moller = {
			picture = Generic_Portrait
			allowed = { tag = SWE }
			available = {
				date > 1933.1.1
				date < 1964.1.1
				D_Minister_Allowed = yes
				NOT = { has_country_flag = Gustav_Moller_unavailable }
			}
			cost = 150
			removal_cost = 10
			traits = { ideology_D AM_Laissez-faire_Capitalist }
		}
	# Erik Palmstierna
		SWE_AM_Erik_Palmstierna = {
			picture = Generic_Portrait
			allowed = { tag = SWE }
			available = {
				date > 1937.1.1
				date < 1964.1.1
				D_Minister_Allowed = yes
				NOT = { has_country_flag = Erik_Palmstierna_unavailable }
			}
			cost = 150
			removal_cost = 10
			traits = { ideology_D AM_Battle_Fleet_Proponent }
		}
	# Per Edvin Sköld
		SWE_AM_Per_Edvin_Skold = {
			picture = Generic_Portrait
			allowed = { tag = SWE }
			available = {
				date > 1949.1.1
				date < 1964.1.1
				D_Minister_Allowed = yes
				NOT = { has_country_flag = Per_Edvin_Skold_unavailable }
			}
			cost = 150
			removal_cost = 10
			traits = { ideology_D AM_Infantry_Proponent }
		}
	# Östen Undén
		SWE_AM_Osten_Unden = {
			picture = Generic_Portrait
			allowed = { tag = SWE }
			available = {
				date > 1941.1.1
				date < 1964.1.1
				S_Minister_Allowed = yes
				NOT = { has_country_flag = Osten_Unden_unavailable }
			}
			cost = 150
			removal_cost = 10
			traits = { ideology_S AM_Infantry_Proponent }
		}
	# Karl Kilbom
		SWE_AM_Karl_Kilbom = {
			picture = Generic_Portrait
			allowed = { tag = SWE }
			available = {
				date > 1914.1.1
				date < 1933.1.1
				C_Minister_Allowed = yes
				NOT = { has_country_flag = Karl_Kilbom_unavailable }
			}
			cost = 150
			removal_cost = 10
			traits = { ideology_C AM_Battle_Fleet_Proponent }
		}
	# Hilding Hagberg
		SWE_AM_Hilding_Hagberg = {
			picture = Generic_Portrait
			allowed = { tag = SWE }
			available = {
				date > 1933.1.1
				date < 1964.1.1
				C_Minister_Allowed = yes
				NOT = { has_country_flag = Hilding_Hagberg_unavailable }
			}
			cost = 150
			removal_cost = 10
			traits = { ideology_C AM_Resource_Industrialist }
		}
}
#################################################
### Head of Intelligence
#################################################
	Head_of_Intelligence = {
	# Hermann Nilsson-Ehle
		SWE_HoI_Hermann_NilssonEhle = {
			picture = Generic_Portrait
			allowed = { tag = SWE }
			available = {
				date > 1933.1.1
				date < 1964.1.1
				F_Minister_Allowed = yes
				NOT = { has_country_flag = Hermann_NilssonEhle_unavailable }
			}
			cost = 150
			removal_cost = 10
			traits = { ideology_F HoI_Technical_Specialist }
		}
	# Sven Hedin
		SWE_HoI_Sven_Hedin = {
			picture = Generic_Portrait
			allowed = { tag = SWE }
			available = {
				date > 1915.1.1
				date < 1933.1.1
				A_Minister_Allowed = yes
				NOT = { has_country_flag = Sven_Hedin_unavailable }
			}
			cost = 150
			removal_cost = 10
			traits = { ideology_A HoI_Dismal_Enigma }
		}
	# Carsten Warberg
		SWE_HoI_Carsten_Warberg = {
			picture = Generic_Portrait
			allowed = { tag = SWE }
			available = {
				date > 1900.1.1
				date < 1911.1.1
				D_Minister_Allowed = yes
				NOT = { has_country_flag = Carsten_Warberg_unavailable }
			}
			cost = 150
			removal_cost = 10
			traits = { ideology_D HoI_Logistics_Specialist }
		}
	# Axel Rappe
		SWE_HoI_Axel_Rappe = {
			picture = Generic_Portrait
			allowed = { tag = SWE }
			available = {
				date > 1900.1.1
				date < 1933.1.1
				D_Minister_Allowed = yes
				NOT = { has_country_flag = Axel_Rappe_unavailable }
			}
			cost = 150
			removal_cost = 10
			traits = { ideology_D HoI_Logistics_Specialist }
		}
	# Knut Gillis Bildt
		SWE_HoI_Knut_Gillis_Bildt = {
			picture = Generic_Portrait
			allowed = { tag = SWE }
			available = {
				date > 1905.1.1
				date < 1933.1.1
				D_Minister_Allowed = yes
				NOT = { has_country_flag = Knut_Gillis_Bildt_unavailable }
			}
			cost = 150
			removal_cost = 10
			traits = { ideology_D HoI_Logistics_Specialist }
		}
	# Lars Tingsten
		SWE_HoI_Lars_Tingsten = {
			picture = Generic_Portrait
			allowed = { tag = SWE }
			available = {
				date > 1919.1.1
				date < 1933.1.1
				D_Minister_Allowed = yes
				NOT = { has_country_flag = Lars_Tingsten_unavailable }
			}
			cost = 150
			removal_cost = 10
			traits = { ideology_D HoI_Logistics_Specialist }
		}
	# Carl Gustaf Hammarskjöld
		SWE_HoI_Carl_Gustaf_Hammarskjold = {
			picture = Generic_Portrait
			allowed = { tag = SWE }
			available = {
				date > 1922.1.1
				date < 1933.1.1
				D_Minister_Allowed = yes
				NOT = { has_country_flag = Carl_Gustaf_Hammarskjold_unavailable }
			}
			cost = 150
			removal_cost = 10
			traits = { ideology_D HoI_Logistics_Specialist }
		}
	# Carlos Adlercreutz
		SWE_HoI_Carlos_Adlercreutz = {
			picture = Generic_Portrait
			allowed = { tag = SWE }
			available = {
				date > 1933.1.1
				date < 1964.1.1
				D_Minister_Allowed = yes
				NOT = { has_country_flag = Carlos_Adlercreutz_unavailable }
			}
			cost = 150
			removal_cost = 10
			traits = { ideology_D HoI_Political_Specialist }
		}
	# Erik Palmstierna
		SWE_HoI_Erik_Palmstierna = {
			picture = Generic_Portrait
			allowed = { tag = SWE }
			available = {
				date > 1939.1.1
				date < 1964.1.1
				D_Minister_Allowed = yes
				NOT = { has_country_flag = Erik_Palmstierna_unavailable }
			}
			cost = 150
			removal_cost = 10
			traits = { ideology_D HoI_Naval_Intelligence_Specialist }
		}
	# Helge Jung
		SWE_HoI_Helge_Jung = {
			picture = Generic_Portrait
			allowed = { tag = SWE }
			available = {
				date > 1942.1.1
				date < 1964.1.1
				D_Minister_Allowed = yes
				NOT = { has_country_flag = Helge_Jung_unavailable }
			}
			cost = 150
			removal_cost = 10
			traits = { ideology_D HoI_Political_Specialist }
		}
	# Carlos Adlercreutz
		SWE_HoI_Carlos_Adlercreutz_2 = {
			picture = Generic_Portrait
			allowed = { tag = SWE }
			available = {
				date > 1920.1.1
				date < 1933.1.1
				D_Minister_Allowed = yes
				NOT = { has_country_flag = Carlos_Adlercreutz_unavailable }
			}
			cost = 150
			removal_cost = 10
			traits = { ideology_D HoI_Political_Specialist }
		}
	# Lars-Erik Tammelin
		SWE_HoI_LarsErik_Tammelin = {
			picture = Generic_Portrait
			allowed = { tag = SWE }
			available = {
				date > 1985.1.1
				date < 1992.1.1
				D_Minister_Allowed = yes
				NOT = { has_country_flag = LarsErik_Tammelin_unavailable }
			}
			cost = 150
			removal_cost = 10
			traits = { ideology_D HoI_Technical_Specialist }
		}
	# Åke Hammerskiöld
		SWE_HoI_Ake_Hammerskiold = {
			picture = Generic_Portrait
			allowed = { tag = SWE }
			available = {
				date > 1941.1.1
				date < 1964.1.1
				D_Minister_Allowed = yes
				NOT = { has_country_flag = Ake_Hammerskiold_unavailable }
			}
			cost = 150
			removal_cost = 10
			traits = { ideology_D HoI_Dismal_Enigma }
		}
	# Otto Grimlund
		SWE_HoI_Otto_Grimlund = {
			picture = Generic_Portrait
			allowed = { tag = SWE }
			available = {
				date > 1914.1.1
				date < 1933.1.1
				C_Minister_Allowed = yes
				NOT = { has_country_flag = Otto_Grimlund_unavailable }
			}
			cost = 150
			removal_cost = 10
			traits = { ideology_C HoI_Dismal_Enigma }
		}
	# C.H. Hermansson
		SWE_HoI_CH_Hermansson = {
			picture = Generic_Portrait
			allowed = { tag = SWE }
			available = {
				date > 1933.1.1
				date < 1964.1.1
				C_Minister_Allowed = yes
				NOT = { has_country_flag = CH_Hermansson_unavailable }
			}
			cost = 150
			removal_cost = 10
			traits = { ideology_C HoI_Naval_Intelligence_Specialist }
		}
}
#################################################
### Chief of Staff
#################################################
	Chief_of_Staff = {
	# Archibald Douglas
		SWE_CoStaff_Archibald_Douglas = {
			picture = Generic_Portrait
			allowed = { tag = SWE }
			available = {
				date > 1933.1.1
				date < 1964.1.1
				F_Minister_Allowed = yes
				NOT = { has_country_flag = Archibald_Douglas_unavailable }
			}
			cost = 150
			removal_cost = 10
			traits = { ideology_F CoStaff_School_Of_Manoeuvre }
		}
	# Axel Rappe
		SWE_CoStaff_Axel_Rappe_3 = {
			picture = Generic_Portrait
			allowed = { tag = SWE }
			available = {
				date > 1914.1.1
				date < 1933.1.1
				A_Minister_Allowed = yes
				NOT = { has_country_flag = Axel_Rappe_unavailable }
			}
			cost = 150
			removal_cost = 10
			traits = { ideology_A CoStaff_School_Of_Psychology }
		}
	# Axel Rappe
		SWE_CoStaff_Axel_Rappe_2 = {
			picture = Generic_Portrait
			allowed = { tag = SWE }
			available = {
				date > 1900.1.1
				date < 1933.1.1
				D_Minister_Allowed = yes
				NOT = { has_country_flag = Axel_Rappe_unavailable }
			}
			cost = 150
			removal_cost = 10
			traits = { ideology_D CoStaff_School_Of_Psychology }
		}
	# Carsten Warberg
		SWE_CoStaff_Carsten_Warberg = {
			picture = Generic_Portrait
			allowed = { tag = SWE }
			available = {
				date > 1900.1.1
				date < 1911.1.1
				D_Minister_Allowed = yes
				NOT = { has_country_flag = Carsten_Warberg_unavailable }
			}
			cost = 150
			removal_cost = 10
			traits = { ideology_D CoStaff_School_Of_Defence }
		}
	# Knut Gillis Bildt
		SWE_CoStaff_Knut_Gillis_Bildt = {
			picture = Generic_Portrait
			allowed = { tag = SWE }
			available = {
				date > 1905.1.1
				date < 1933.1.1
				D_Minister_Allowed = yes
				NOT = { has_country_flag = Knut_Gillis_Bildt_unavailable }
			}
			cost = 150
			removal_cost = 10
			traits = { ideology_D CoStaff_School_Of_Manoeuvre }
		}
	# Lars Tingsten
		SWE_CoStaff_Lars_Tingsten = {
			picture = Generic_Portrait
			allowed = { tag = SWE }
			available = {
				date > 1919.1.1
				date < 1933.1.1
				D_Minister_Allowed = yes
				NOT = { has_country_flag = Lars_Tingsten_unavailable }
			}
			cost = 150
			removal_cost = 10
			traits = { ideology_D CoStaff_School_Of_Psychology }
		}
	# Carl Gustaf Hammarskjöld
		SWE_CoStaff_Carl_Gustaf_Hammarskjold = {
			picture = Generic_Portrait
			allowed = { tag = SWE }
			available = {
				date > 1922.1.1
				date < 1933.1.1
				D_Minister_Allowed = yes
				NOT = { has_country_flag = Carl_Gustaf_Hammarskjold_unavailable }
			}
			cost = 150
			removal_cost = 10
			traits = { ideology_D CoStaff_School_Of_Mass_Combat }
		}
	# Oscar Nygren
		SWE_CoStaff_Oscar_Nygren = {
			picture = Generic_Portrait
			allowed = { tag = SWE }
			available = {
				date > 1933.1.1
				date < 1964.1.1
				D_Minister_Allowed = yes
				NOT = { has_country_flag = Oscar_Nygren_unavailable }
			}
			cost = 150
			removal_cost = 10
			traits = { ideology_D CoStaff_School_Of_Defence }
		}
	# Olof Thörnell
		SWE_CoStaff_Olof_Thornell = {
			picture = Generic_Portrait
			allowed = { tag = SWE }
			available = {
				date > 1937.1.1
				date < 1964.1.1
				D_Minister_Allowed = yes
				NOT = { has_country_flag = Olof_Thornell_unavailable }
			}
			cost = 150
			removal_cost = 10
			traits = { ideology_D CoStaff_School_Of_Fire_Support }
		}
	# Axel Rappe
		SWE_CoStaff_Axel_Rappe = {
			picture = Generic_Portrait
			allowed = { tag = SWE }
			available = {
				date > 1940.1.1
				date < 1964.1.1
				D_Minister_Allowed = yes
				NOT = { has_country_flag = Axel_Rappe_unavailable }
			}
			cost = 150
			removal_cost = 10
			traits = { ideology_D CoStaff_School_Of_Manoeuvre }
		}
	# Carl Gustav Ehrensvärd
		SWE_CoStaff_Carl_Gustav_Ehrensvard = {
			picture = Generic_Portrait
			allowed = { tag = SWE }
			available = {
				date > 1944.1.1
				date < 1964.1.1
				D_Minister_Allowed = yes
				NOT = { has_country_flag = Carl_Gustav_Ehrensvard_unavailable }
			}
			cost = 150
			removal_cost = 10
			traits = { ideology_D CoStaff_School_Of_Manoeuvre }
		}
	# Samuel Åkerhielm
		SWE_CoStaff_Samuel_Akerhielm = {
			picture = Generic_Portrait
			allowed = { tag = SWE }
			available = {
				date > 1941.1.1
				date < 1964.1.1
				D_Minister_Allowed = yes
				NOT = { has_country_flag = Samuel_Akerhielm_unavailable }
			}
			cost = 150
			removal_cost = 10
			traits = { ideology_D CoStaff_School_Of_Mass_Combat }
		}
	# Axel Bredberg
		SWE_CoStaff_Axel_Bredberg = {
			picture = Generic_Portrait
			allowed = { tag = SWE }
			available = {
				date > 1942.1.1
				date < 1964.1.1
				D_Minister_Allowed = yes
				NOT = { has_country_flag = Axel_Bredberg_unavailable }
			}
			cost = 150
			removal_cost = 10
			traits = { ideology_D CoStaff_School_Of_Psychology }
		}
	# Nils Swedlund
		SWE_CoStaff_Nils_Swedlund = {
			picture = Generic_Portrait
			allowed = { tag = SWE }
			available = {
				date > 1946.1.1
				date < 1964.1.1
				D_Minister_Allowed = yes
				NOT = { has_country_flag = Nils_Swedlund_unavailable }
			}
			cost = 150
			removal_cost = 10
			traits = { ideology_D CoStaff_School_Of_Psychology }
		}
	# Lennart Ljung
		SWE_CoStaff_Lennart_Ljung = {
			picture = Generic_Portrait
			allowed = { tag = SWE }
			available = {
				date > 1985.1.1
				date < 1992.1.1
				D_Minister_Allowed = yes
				NOT = { has_country_flag = Lennart_Ljung_unavailable }
			}
			cost = 150
			removal_cost = 10
			traits = { ideology_D CoStaff_School_Of_Defence }
		}
	# Anton Nilsson
		SWE_CoStaff_Anton_Nilsson = {
			picture = Generic_Portrait
			allowed = { tag = SWE }
			available = {
				date > 1914.1.1
				date < 1933.1.1
				C_Minister_Allowed = yes
				NOT = { has_country_flag = Anton_Nilsson_unavailable }
			}
			cost = 150
			removal_cost = 10
			traits = { ideology_C CoStaff_School_Of_Mass_Combat }
		}
	# Gunnar Johansson
		SWE_CoStaff_Gunnar_Johansson = {
			picture = Generic_Portrait
			allowed = { tag = SWE }
			available = {
				date > 1933.1.1
				date < 1964.1.1
				C_Minister_Allowed = yes
				NOT = { has_country_flag = Gunnar_Johansson_unavailable }
			}
			cost = 150
			removal_cost = 10
			traits = { ideology_C CoStaff_School_Of_Mass_Combat }
		}
}
#################################################
### Chief of Army
#################################################
	Chief_of_Army = {
	# Martin Ekström
		SWE_CoArmy_Martin_Ekstrom = {
			picture = Generic_Portrait
			allowed = { tag = SWE }
			available = {
				date > 1933.1.1
				date < 1964.1.1
				F_Minister_Allowed = yes
				NOT = { has_country_flag = Martin_Ekstrom_unavailable }
			}
			cost = 150
			removal_cost = 10
			traits = { ideology_F CoArmy_Decisive_Battle_Doctrine }
		}
	# Axel Rappe
		SWE_CoArmy_Axel_Rappe_3 = {
			picture = Generic_Portrait
			allowed = { tag = SWE }
			available = {
				date > 1915.1.1
				date < 1933.1.1
				A_Minister_Allowed = yes
				NOT = { has_country_flag = Axel_Rappe_unavailable }
			}
			cost = 150
			removal_cost = 10
			traits = { ideology_A CoArmy_Guns_And_Butter_Doctrine }
		}
	# Archibald Douglas
		SWE_CoArmy_Archibald_Douglas = {
			picture = Generic_Portrait
			allowed = { tag = SWE }
			available = {
				date > 1943.1.1
				date < 1964.1.1
				A_Minister_Allowed = yes
				NOT = { has_country_flag = Archibald_Douglas_unavailable }
			}
			cost = 150
			removal_cost = 10
			traits = { ideology_A CoArmy_Decisive_Battle_Doctrine }
		}
	# Carsten Warberg
		SWE_CoArmy_Carsten_Warberg = {
			picture = Generic_Portrait
			allowed = { tag = SWE }
			available = {
				date > 1900.1.1
				date < 1911.1.1
				D_Minister_Allowed = yes
				NOT = { has_country_flag = Carsten_Warberg_unavailable }
			}
			cost = 150
			removal_cost = 10
			traits = { ideology_D CoArmy_Static_Defence_Doctrine }
		}
	# Oscar II
		SWE_CoArmy_Oscar_II = {
			picture = Generic_Portrait
			allowed = { tag = SWE }
			available = {
				date > 1900.1.1
				date < 1907.1.1
				D_Minister_Allowed = yes
				NOT = { has_country_flag = Oscar_II_unavailable }
			}
			cost = 150
			removal_cost = 10
			traits = { ideology_D CoArmy_Static_Defence_Doctrine }
		}
	# Axel Rappe
		SWE_CoArmy_Axel_Rappe_2 = {
			picture = Generic_Portrait
			allowed = { tag = SWE }
			available = {
				date > 1900.1.1
				date < 1933.1.1
				D_Minister_Allowed = yes
				NOT = { has_country_flag = Axel_Rappe_unavailable }
			}
			cost = 150
			removal_cost = 10
			traits = { ideology_D CoArmy_Static_Defence_Doctrine }
		}
	# Knut Gillis Bildt
		SWE_CoArmy_Knut_Gillis_Bildt = {
			picture = Generic_Portrait
			allowed = { tag = SWE }
			available = {
				date > 1905.1.1
				date < 1933.1.1
				D_Minister_Allowed = yes
				NOT = { has_country_flag = Knut_Gillis_Bildt_unavailable }
			}
			cost = 150
			removal_cost = 10
			traits = { ideology_D CoArmy_Decisive_Battle_Doctrine }
		}
	# Lars Tingsten
		SWE_CoArmy_Lars_Tingsten_2 = {
			picture = Generic_Portrait
			allowed = { tag = SWE }
			available = {
				date > 1919.1.1
				date < 1933.1.1
				D_Minister_Allowed = yes
				NOT = { has_country_flag = Lars_Tingsten_unavailable }
			}
			cost = 150
			removal_cost = 10
			traits = { ideology_D CoArmy_Decisive_Battle_Doctrine }
		}
	# Carl Gustaf Hammarskjöld
		SWE_CoArmy_Carl_Gustaf_Hammarskjold = {
			picture = Generic_Portrait
			allowed = { tag = SWE }
			available = {
				date > 1922.1.1
				date < 1933.1.1
				D_Minister_Allowed = yes
				NOT = { has_country_flag = Carl_Gustaf_Hammarskjold_unavailable }
			}
			cost = 150
			removal_cost = 10
			traits = { ideology_D CoArmy_Static_Defence_Doctrine }
		}
	# Oscar Nygren
		SWE_CoArmy_Oscar_Nygren = {
			picture = Generic_Portrait
			allowed = { tag = SWE }
			available = {
				date > 1933.1.1
				date < 1964.1.1
				D_Minister_Allowed = yes
				NOT = { has_country_flag = Oscar_Nygren_unavailable }
			}
			cost = 150
			removal_cost = 10
			traits = { ideology_D CoArmy_Guns_And_Butter_Doctrine }
		}
	# Per Sylvan
		SWE_CoArmy_Per_Sylvan = {
			picture = Generic_Portrait
			allowed = { tag = SWE }
			available = {
				date > 1937.1.1
				date < 1964.1.1
				D_Minister_Allowed = yes
				NOT = { has_country_flag = Per_Sylvan_unavailable }
			}
			cost = 150
			removal_cost = 10
			traits = { ideology_D CoArmy_Static_Defence_Doctrine }
		}
	# Olof Thörnell
		SWE_CoArmy_Olof_Thornell = {
			picture = Generic_Portrait
			allowed = { tag = SWE }
			available = {
				date > 1940.1.1
				date < 1964.1.1
				D_Minister_Allowed = yes
				NOT = { has_country_flag = Olof_Thornell_unavailable }
			}
			cost = 150
			removal_cost = 10
			traits = { ideology_D CoArmy_Guns_And_Butter_Doctrine }
		}
	# Axel Rappe
		SWE_CoArmy_Axel_Rappe = {
			picture = Generic_Portrait
			allowed = { tag = SWE }
			available = {
				date > 1943.1.1
				date < 1964.1.1
				D_Minister_Allowed = yes
				NOT = { has_country_flag = Axel_Rappe_unavailable }
			}
			cost = 150
			removal_cost = 10
			traits = { ideology_D CoArmy_Elastic_Defence_Doctrine }
		}
	# Gustaf V
		SWE_CoArmy_Gustaf_V = {
			picture = Generic_Portrait
			allowed = { tag = SWE }
			available = {
				date > 1907.1.1
				date < 1933.1.1
				D_Minister_Allowed = yes
				NOT = { has_country_flag = Gustaf_V_unavailable }
			}
			cost = 150
			removal_cost = 10
			traits = { ideology_D CoArmy_Static_Defence_Doctrine }
		}
	# Nils Swedlund
		SWE_CoArmy_Nils_Swedlund = {
			picture = Generic_Portrait
			allowed = { tag = SWE }
			available = {
				date > 1950.1.1
				date < 1964.1.1
				D_Minister_Allowed = yes
				NOT = { has_country_flag = Nils_Swedlund_unavailable }
			}
			cost = 150
			removal_cost = 10
			traits = { ideology_D CoArmy_Armoured_Spearhead_Doctrine }
		}
	# Erik G. Bengtsson
		SWE_CoArmy_Erik_G_Bengtsson = {
			picture = Generic_Portrait
			allowed = { tag = SWE }
			available = {
				date > 1985.1.1
				date < 1992.1.1
				D_Minister_Allowed = yes
				NOT = { has_country_flag = Erik_G_Bengtsson_unavailable }
			}
			cost = 150
			removal_cost = 10
			traits = { ideology_D CoArmy_Elastic_Defence_Doctrine }
		}
	# Lars Tingsten
		SWE_CoArmy_Lars_Tingsten = {
			picture = Generic_Portrait
			allowed = { tag = SWE }
			available = {
				date > 1916.1.1
				date < 1933.1.1
				D_Minister_Allowed = yes
				NOT = { has_country_flag = Lars_Tingsten_unavailable }
			}
			cost = 150
			removal_cost = 10
			traits = { ideology_D CoArmy_Decisive_Battle_Doctrine }
		}
	# Axel Bredberg
		SWE_CoArmy_Axel_Bredberg = {
			picture = Generic_Portrait
			allowed = { tag = SWE }
			available = {
				date > 1943.1.1
				date < 1964.1.1
				D_Minister_Allowed = yes
				NOT = { has_country_flag = Axel_Bredberg_unavailable }
			}
			cost = 150
			removal_cost = 10
			traits = { ideology_D CoArmy_Static_Defence_Doctrine }
		}
	# Helge Jung
		SWE_CoArmy_Helge_Jung = {
			picture = Generic_Portrait
			allowed = { tag = SWE }
			available = {
				date > 1943.1.1
				date < 1964.1.1
				D_Minister_Allowed = yes
				NOT = { has_country_flag = Helge_Jung_unavailable }
			}
			cost = 150
			removal_cost = 10
			traits = { ideology_D CoArmy_Armoured_Spearhead_Doctrine }
		}
	# Bengt Nordenskiöld
		SWE_CoArmy_Bengt_Nordenskiold = {
			picture = Generic_Portrait
			allowed = { tag = SWE }
			available = {
				date > 1943.1.1
				date < 1964.1.1
				D_Minister_Allowed = yes
				NOT = { has_country_flag = Bengt_Nordenskiold_unavailable }
			}
			cost = 150
			removal_cost = 10
			traits = { ideology_D CoArmy_Decisive_Battle_Doctrine }
		}
	# Anton Nilsson
		SWE_CoArmy_Anton_Nilsson = {
			picture = Generic_Portrait
			allowed = { tag = SWE }
			available = {
				date > 1914.1.1
				date < 1933.1.1
				C_Minister_Allowed = yes
				NOT = { has_country_flag = Anton_Nilsson_unavailable }
			}
			cost = 150
			removal_cost = 10
			traits = { ideology_C CoArmy_Guns_And_Butter_Doctrine }
		}
	# Axel Pettersson
		SWE_CoArmy_Axel_Pettersson = {
			picture = Generic_Portrait
			allowed = { tag = SWE }
			available = {
				date > 1933.1.1
				date < 1964.1.1
				C_Minister_Allowed = yes
				NOT = { has_country_flag = Axel_Pettersson_unavailable }
			}
			cost = 150
			removal_cost = 10
			traits = { ideology_C CoArmy_Decisive_Battle_Doctrine }
		}
}
#################################################
### Chief of Navy
#################################################
	Chief_of_Navy = {
	# Charles de Champs
		SWE_CoNavy_Charles_de_Champs_2 = {
			picture = Generic_Portrait
			allowed = { tag = SWE }
			available = {
				date > 1933.1.1
				date < 1964.1.1
				F_Minister_Allowed = yes
				NOT = { has_country_flag = Charles_de_Champs_unavailable }
			}
			cost = 150
			removal_cost = 10
			traits = { ideology_F CoNavy_Decisive_Naval_Battle_Doctrine }
		}
	# Charles de Champs
		SWE_CoNavy_Charles_de_Champs = {
			picture = Generic_Portrait
			allowed = { tag = SWE }
			available = {
				date > 1933.1.1
				date < 1964.1.1
				A_Minister_Allowed = yes
				NOT = { has_country_flag = Charles_de_Champs_unavailable }
			}
			cost = 150
			removal_cost = 10
			traits = { ideology_A CoNavy_Decisive_Naval_Battle_Doctrine }
		}
	# Theodor Carl Adam Sandström
		SWE_CoNavy_Theodor_Carl_Adam_Sandstrom = {
			picture = Generic_Portrait
			allowed = { tag = SWE }
			available = {
				date > 1907.1.1
				date < 1933.1.1
				D_Minister_Allowed = yes
				NOT = { has_country_flag = Theodor_Carl_Adam_Sandstrom_unavailable }
			}
			cost = 150
			removal_cost = 10
			traits = { ideology_D CoNavy_Decisive_Naval_Battle_Doctrine }
		}
	# Fabian Tamm
		SWE_CoNavy_Fabian_Tamm = {
			picture = Generic_Portrait
			allowed = { tag = SWE }
			available = {
				date > 1944.1.1
				date < 1964.1.1
				D_Minister_Allowed = yes
				NOT = { has_country_flag = Fabian_Tamm_unavailable }
			}
			cost = 150
			removal_cost = 10
			traits = { ideology_D CoNavy_Open_Seas_Doctrine }
		}
	# Sten Ankarcrona
		SWE_CoNavy_Sten_Ankarcrona = {
			picture = Generic_Portrait
			allowed = { tag = SWE }
			available = {
				date > 1911.1.1
				date < 1933.1.1
				D_Minister_Allowed = yes
				NOT = { has_country_flag = Sten_Ankarcrona_unavailable }
			}
			cost = 150
			removal_cost = 10
			traits = { ideology_D CoNavy_Decisive_Naval_Battle_Doctrine }
		}
	# Gösta Ehrensvärd
		SWE_CoNavy_Gosta_Ehrensvard = {
			picture = Generic_Portrait
			allowed = { tag = SWE }
			available = {
				date > 1942.1.1
				date < 1964.1.1
				D_Minister_Allowed = yes
				NOT = { has_country_flag = Gosta_Ehrensvard_unavailable }
			}
			cost = 150
			removal_cost = 10
			traits = { ideology_D CoNavy_Decisive_Naval_Battle_Doctrine }
		}
	# Bengt Schuback
		SWE_CoNavy_Bengt_Schuback = {
			picture = Generic_Portrait
			allowed = { tag = SWE }
			available = {
				date > 1985.1.1
				date < 1992.1.1
				D_Minister_Allowed = yes
				NOT = { has_country_flag = Bengt_Schuback_unavailable }
			}
			cost = 150
			removal_cost = 10
			traits = { ideology_D CoNavy_Indirect_Approach_Doctrine }
		}
	# Ludvig Sidner
		SWE_CoNavy_Ludvig_Sidner = {
			picture = Generic_Portrait
			allowed = { tag = SWE }
			available = {
				date > 1914.1.1
				date < 1933.1.1
				D_Minister_Allowed = yes
				NOT = { has_country_flag = Ludvig_Sidner_unavailable }
			}
			cost = 150
			removal_cost = 10
			traits = { ideology_D CoNavy_Indirect_Approach_Doctrine }
		}
	# Henning von Krusenstjerna
		SWE_CoNavy_Henning_von_Krusenstjerna = {
			picture = Generic_Portrait
			allowed = { tag = SWE }
			available = {
				date > 1916.1.1
				date < 1933.1.1
				D_Minister_Allowed = yes
				NOT = { has_country_flag = Henning_von_Krusenstjerna_unavailable }
			}
			cost = 150
			removal_cost = 10
			traits = { ideology_D CoNavy_Open_Seas_Doctrine }
		}
	# Helge Strömbäck
		SWE_CoNavy_Helge_Stromback = {
			picture = Generic_Portrait
			allowed = { tag = SWE }
			available = {
				date > 1945.1.1
				date < 1964.1.1
				D_Minister_Allowed = yes
				NOT = { has_country_flag = Helge_Stromback_unavailable }
			}
			cost = 150
			removal_cost = 10
			traits = { ideology_D CoNavy_Indirect_Approach_Doctrine }
		}
	# Erik Palmstierna
		SWE_CoNavy_Erik_Palmstierna = {
			picture = Generic_Portrait
			allowed = { tag = SWE }
			available = {
				date > 1933.1.1
				date < 1964.1.1
				D_Minister_Allowed = yes
				NOT = { has_country_flag = Erik_Palmstierna_unavailable }
			}
			cost = 150
			removal_cost = 10
			traits = { ideology_D CoNavy_Base_Control_Doctrine }
		}
	# Per M. Eriksson
		SWE_CoNavy_Per_M_Eriksson = {
			picture = Generic_Portrait
			allowed = { tag = SWE }
			available = {
				date > 1933.1.1
				date < 1964.1.1
				C_Minister_Allowed = yes
				NOT = { has_country_flag = Per_M_Eriksson_unavailable }
			}
			cost = 150
			removal_cost = 10
			traits = { ideology_C CoNavy_Decisive_Naval_Battle_Doctrine }
		}
}
#################################################
### Chief of Airforce
#################################################
	Chief_of_Airforce = {
	# Axel Gyllenkrok
		SWE_CoAir_Axel_Gyllenkrok = {
			picture = Generic_Portrait
			allowed = { tag = SWE }
			available = {
				date > 1933.1.1
				date < 1964.1.1
				A_Minister_Allowed = yes
				NOT = { has_country_flag = Axel_Gyllenkrok_unavailable }
			}
			cost = 150
			removal_cost = 10
			traits = { ideology_A CoAir_Army_Aviation_Doctrine }
		}
	# Torsten Friis
		SWE_CoAir_Torsten_Friis = {
			picture = Generic_Portrait
			allowed = { tag = SWE }
			available = {
				date > 1933.1.1
				date < 1964.1.1
				D_Minister_Allowed = yes
				NOT = { has_country_flag = Torsten_Friis_unavailable }
			}
			cost = 150
			removal_cost = 10
			traits = { ideology_D CoAir_Army_Aviation_Doctrine }
		}
	# Bengt Nordenskiöld
		SWE_CoAir_Bengt_Nordenskiold = {
			picture = Generic_Portrait
			allowed = { tag = SWE }
			available = {
				date > 1942.1.1
				date < 1964.1.1
				D_Minister_Allowed = yes
				NOT = { has_country_flag = Bengt_Nordenskiold_unavailable }
			}
			cost = 150
			removal_cost = 10
			traits = { ideology_D CoAir_Air_Superiority_Doctrine }
		}
	# Sven-Olof Olson
		SWE_CoAir_SvenOlof_Olson = {
			picture = Generic_Portrait
			allowed = { tag = SWE }
			available = {
				date > 1985.1.1
				date < 1992.1.1
				D_Minister_Allowed = yes
				NOT = { has_country_flag = SvenOlof_Olson_unavailable }
			}
			cost = 150
			removal_cost = 10
			traits = { ideology_D CoAir_Air_Superiority_Doctrine }
		}
	# Axel Ljungdahl
		SWE_CoAir_Axel_Ljungdahl = {
			picture = Generic_Portrait
			allowed = { tag = SWE }
			available = {
				date > 1944.1.1
				date < 1964.1.1
				D_Minister_Allowed = yes
				NOT = { has_country_flag = Axel_Ljungdahl_unavailable }
			}
			cost = 150
			removal_cost = 10
			traits = { ideology_D CoAir_Vertical_Envelopment_Doctrine }
		}
	# Torsten Rapp
		SWE_CoAir_Torsten_Rapp = {
			picture = Generic_Portrait
			allowed = { tag = SWE }
			available = {
				date > 1948.1.1
				date < 1964.1.1
				D_Minister_Allowed = yes
				NOT = { has_country_flag = Torsten_Rapp_unavailable }
			}
			cost = 150
			removal_cost = 10
			traits = { ideology_D CoAir_Air_Superiority_Doctrine }
		}
	# Krister Reuterswärd
		SWE_CoAir_Krister_Reutersward = {
			picture = Generic_Portrait
			allowed = { tag = SWE }
			available = {
				date > 1933.1.1
				date < 1964.1.1
				S_Minister_Allowed = yes
				NOT = { has_country_flag = Krister_Reutersward_unavailable }
			}
			cost = 150
			removal_cost = 10
			traits = { ideology_S CoAir_Army_Aviation_Doctrine }
		}
	}
}
