focus_tree = {
	id = ENG_Democracy
	country = {
		factor = 0
		modifier = {
			add = 10
			tag = ENG
		}
	}
	default = no
	focus = {
		id = ENG_Code_Breaking_Initiatives
		icon = GFX_focus_generic_cryptologic_bomb
		cost = 10
		x = 44
		y = 3
		completion_reward = {
			add_tech_bonus = {
				uses = 2
				bonus = 0.5
				category = decryption_tech
			}
		}
	}
	focus = {
		id = ENG_General_Rearmament
		icon = GFX_focus_generic_little_entente
		cost = 10
		x = 47
		y = 0
		available = {
			OR = {
				threat > 0.1
				has_war = yes
			}
		}
		continue_if_invalid = yes
		available_if_capitulated = yes
		completion_reward = {
			add_ideas = british_austerity_idea
		}
	}
	focus = {
		id = ENG_Defend_British_Skies
		icon = GFX_goal_generic_air_doctrine
		cost = 10
		x = 30
		y = 5
		completion_reward = {
			air_experience = 10
			add_tech_bonus = {
				uses = 2
				bonus = 0.5
				category = air_doctrine
			}
		}
	}
	focus = {
		id = ENG_Rolls_Royce_Jet_Engine
		icon = GFX_ENG_RR_Jet
		cost = 10
		x = 37
		y = 5
		completion_reward = {
			add_tech_bonus = {
				uses = 2
				bonus = 0.4
				category = jet_technology
			}
			add_tech_bonus = {
				uses = 1
				ahead_reduction = 0.75
				category = jet_technology
			}
		}
	}
	focus = {
		id = ENG_Overseas_Empire
		icon = GFX_ENG_Reinforce_the_Commonwealth
		cost = 10
		x = 15
		y = 0
		available = {
			447 = {
				OR = {
					owner = {
						tag = ROOT
					}
					owner = {
						is_puppet_of = ROOT
					}
				}
			}
			336 = {
				OR = {
					owner = {
						tag = ROOT
					}
					owner = {
						is_puppet_of = ROOT
					}
				}
			}
			126 = {
				OR = {
					owner = {
						tag = ROOT
					}
					owner = {
						is_puppet_of = ROOT
					}
				}
			}
		}
		completion_reward = {
			add_political_power = 150
		}
	}
	focus = {
		id = ENG_The_London_Economic_Conference
		icon = GFX_goal_unknown
		cost = 10
		x = 5
		y = 0
	}
	focus = {
		id = ENG_Dealing_With_Unemployment
		icon = GFX_goal_unknown
		cost = 10
		prerequisite = {
			focus = ENG_The_London_Economic_Conference
		}
		x = 5
		y = 1
	}
	focus = {
		id = ENG_Complete_of_the_National_Grid
		icon = GFX_GENERIC_Electric_Grid
		cost = 10
		prerequisite = {
			focus = ENG_Dealing_With_Unemployment
		}
		x = 4
		y = 2
	}
	focus = {
		id = ENG_Reduction_of_the_Interest_Rates
		icon = GFX_GENERIC_Austerity_Measures
		cost = 10
		prerequisite = {
			focus = ENG_Complete_of_the_National_Grid
		}
		x = 2
		y = 3
	}
	focus = {
		id = ENG_Electronic_Industry_Boom
		icon = GFX_goal_tfv_generic_tech_sharing
		cost = 10
		prerequisite = {
			focus = ENG_Complete_of_the_National_Grid
		}
		x = 4
		y = 3
	}
	focus = {
		id = ENG_House_Building_Projects
		icon = GFX_GENERIC_Housing_Campaign
		cost = 10
		prerequisite = {
			focus = ENG_Dealing_With_Unemployment
		}
		x = 6
		y = 2
	}
	focus = {
		id = ENG_Tariffs_on_Imports
		icon = GFX_goal_unknown
		cost = 10
		prerequisite = {
			focus = ENG_House_Building_Projects
		}
		x = 6
		y = 3
	}
	focus = {
		id = ENG_Increase_Social_Spending
		icon = GFX_GENERIC_Anti_Poverty_Campaign
		cost = 10
		prerequisite = {
			focus = ENG_House_Building_Projects
		}
		x = 8
		y = 3
	}
	focus = {
		id = ENG_Limited_Rearmament
		icon = GFX_focus_generic_industry_2
		cost = 10
		prerequisite = {
			focus = ENG_Electronic_Industry_Boom
		}
		prerequisite = {
			focus = ENG_Tariffs_on_Imports
		}
		prerequisite = {
			focus = ENG_Increase_Social_Spending
		}
		prerequisite = {
			focus = ENG_Reduction_of_the_Interest_Rates
		}
		x = 5
		y = 4
		completion_reward = {
			random_owned_controlled_state = {
				limit = {
					free_building_slots = {
						building = industrial_complex
						size > 1
						include_locked = yes
					}
					is_core_of = ROOT
				}
				add_extra_state_shared_building_slots = 2
				add_building_construction = {
					type = industrial_complex
					level = 2
					instant_build = yes
				}
			}
			random_owned_controlled_state = {
				prioritize = {
					123
					338
					127
					126
					125
					129
					128
				}
				limit = {
					free_building_slots = {
						building = infrastructure
						size > 0
					}
				}
				add_building_construction = {
					type = infrastructure
					level = 1
					instant_build = yes
				}
			}
			random_owned_controlled_state = {
				prioritize = {
					123
					338
					127
					126
					125
					129
					128
				}
				limit = {
					free_building_slots = {
						building = infrastructure
						size > 0
					}
				}
				add_building_construction = {
					type = infrastructure
					level = 1
					instant_build = yes
				}
			}
			random_owned_controlled_state = {
				prioritize = {
					123
					338
					127
					126
					125
					129
					128
				}
				limit = {
					free_building_slots = {
						building = infrastructure
						size > 0
					}
				}
				add_building_construction = {
					type = infrastructure
					level = 1
					instant_build = yes
				}
			}
			random_owned_controlled_state = {
				prioritize = {
					123
					338
					127
					126
					125
					129
					128
				}
				limit = {
					free_building_slots = {
						building = infrastructure
						size > 0
					}
				}
				add_building_construction = {
					type = infrastructure
					level = 1
					instant_build = yes
				}
			}
		}
	}
	focus = {
		id = ENG_Imperial_Preference
		icon = GFX_goal_unknown
		cost = 10
		prerequisite = {
			focus = ENG_The_London_Economic_Conference
		}
		prerequisite = {
			focus = ENG_Overseas_Empire
		}
		x = 9
		y = 1
	}
	focus = {
		id = ENG_Colonial_Development
		icon = GFX_goal_tfv_strengthen_commonwealth_ties
		cost = 10
		prerequisite = {
			focus = ENG_Overseas_Empire
		}
		x = 15
		y = 1
		completion_reward = {
			add_political_power = 100
			random_owned_controlled_state = {
				limit = {
					free_building_slots = {
						building = infrastructure
						size > 0
					}
					NOT = {
						is_core_of = ROOT
					}
				}
				add_building_construction = {
					type = infrastructure
					level = 1
					instant_build = yes
				}
			}
			random_owned_controlled_state = {
				limit = {
					free_building_slots = {
						building = infrastructure
						size > 0
					}
					NOT = {
						is_core_of = ROOT
					}
				}
				add_building_construction = {
					type = infrastructure
					level = 1
					instant_build = yes
				}
			}
			random_owned_controlled_state = {
				limit = {
					free_building_slots = {
						building = infrastructure
						size > 0
					}
					NOT = {
						is_core_of = ROOT
					}
				}
				add_building_construction = {
					type = infrastructure
					level = 1
					instant_build = yes
				}
			}
			random_owned_controlled_state = {
				limit = {
					free_building_slots = {
						building = infrastructure
						size > 0
					}
					NOT = {
						is_core_of = ROOT
					}
				}
				add_building_construction = {
					type = infrastructure
					level = 1
					instant_build = yes
				}
			}
			random_owned_controlled_state = {
				limit = {
					free_building_slots = {
						building = infrastructure
						size > 0
					}
					NOT = {
						is_core_of = ROOT
					}
				}
				add_building_construction = {
					type = infrastructure
					level = 1
					instant_build = yes
				}
			}
			random_owned_controlled_state = {
				limit = {
					free_building_slots = {
						building = infrastructure
						size > 0
					}
					NOT = {
						is_core_of = ROOT
					}
				}
				add_building_construction = {
					type = infrastructure
					level = 1
					instant_build = yes
				}
			}
		}
	}
	focus = {
		id = ENG_African_Sun
		icon = GFX_ENG_African_Sun
		cost = 15
		prerequisite = {
			focus = ENG_Colonial_Development
		}
		x = 11
		y = 2
		completion_reward = {
			random_owned_controlled_state = {
				limit = {
					free_building_slots = {
						building = infrastructure
						size > 0
					}
					NOT = {
						is_core_of = ROOT
					}
					is_on_continent = africa
				}
				add_building_construction = {
					type = infrastructure
					level = 1
					instant_build = yes
				}
			}
			random_owned_controlled_state = {
				limit = {
					free_building_slots = {
						building = infrastructure
						size > 0
					}
					NOT = {
						is_core_of = ROOT
					}
					is_on_continent = africa
				}
				add_building_construction = {
					type = infrastructure
					level = 1
					instant_build = yes
				}
			}
			random_owned_controlled_state = {
				limit = {
					free_building_slots = {
						building = infrastructure
						size > 0
					}
					NOT = {
						is_core_of = ROOT
					}
					is_on_continent = africa
				}
				add_building_construction = {
					type = infrastructure
					level = 1
					instant_build = yes
				}
			}
			random_owned_controlled_state = {
				limit = {
					free_building_slots = {
						building = industrial_complex
						size > 0
						include_locked = yes
					}
					NOT = {
						is_core_of = ROOT
					}
					is_on_continent = africa
				}
				add_extra_state_shared_building_slots = 1
				add_building_construction = {
					type = industrial_complex
					level = 1
					instant_build = yes
				}
			}
			random_owned_controlled_state = {
				limit = {
					free_building_slots = {
						building = industrial_complex
						size > 0
						include_locked = yes
					}
					NOT = {
						is_core_of = ROOT
					}
					is_on_continent = africa
				}
				add_extra_state_shared_building_slots = 1
				add_building_construction = {
					type = industrial_complex
					level = 1
					instant_build = yes
				}
			}
		}
	}
	focus = {
		id = ENG_Development_of_the_League_Mandates
		icon = GFX_ENG_Development_of_the_League_Mandates
		cost = 10
		prerequisite = {
			focus = ENG_African_Sun
		}
		mutually_exclusive = {
			focus = ENG_Sub_Saharan_Investment
		}
		x = 10
		y = 3
		completion_reward = {
			454 = {
				if = {
					limit = {
						free_building_slots = {
							building = industrial_complex
							size > 0
							include_locked = yes
						}
						free_building_slots = {
							building = infrastructure
							size > 0
						}
					}
					add_extra_state_shared_building_slots = 1
					add_building_construction = {
						type = industrial_complex
						level = 1
						instant_build = yes
					}
					add_building_construction = {
						type = infrastructure
						level = 1
						instant_build = yes
					}
				}
			}
			455 = {
				if = {
					limit = {
						free_building_slots = {
							building = industrial_complex
							size > 0
							include_locked = yes
						}
						free_building_slots = {
							building = infrastructure
							size > 0
						}
					}
					add_extra_state_shared_building_slots = 1
					add_building_construction = {
						type = industrial_complex
						level = 1
						instant_build = yes
					}
					add_building_construction = {
						type = infrastructure
						level = 1
						instant_build = yes
					}
				}
			}
			546 = {
				if = {
					limit = {
						free_building_slots = {
							building = industrial_complex
							size > 0
							include_locked = yes
						}
						free_building_slots = {
							building = infrastructure
							size > 0
						}
					}
					add_extra_state_shared_building_slots = 1
					add_building_construction = {
						type = industrial_complex
						level = 1
						instant_build = yes
					}
					add_building_construction = {
						type = infrastructure
						level = 1
						instant_build = yes
					}
				}
			}
		}
	}
	focus = {
		id = ENG_Sub_Saharan_Investment
		icon = GFX_ENG_Sub_Saharan_Investment
		cost = 10
		prerequisite = {
			focus = ENG_African_Sun
		}
		mutually_exclusive = {
			focus = ENG_Development_of_the_League_Mandates
		}
		x = 12
		y = 3
		completion_reward = {
			773 = {
				if = {
					limit = {
						free_building_slots = {
							building = industrial_complex
							size > 0
							include_locked = yes
						}
					}
					add_extra_state_shared_building_slots = 1
					add_building_construction = {
						type = industrial_complex
						level = 1
						instant_build = yes
					}
				}
			}
			446 = {
				if = {
					limit = {
						free_building_slots = {
							building = industrial_complex
							size > 0
							include_locked = yes
						}
					}
					add_extra_state_shared_building_slots = 1
					add_building_construction = {
						type = industrial_complex
						level = 1
						instant_build = yes
					}
				}
			}
		}
	}
	focus = {
		id = ENG_Nigerian_Oil_Exploration
		icon = GFX_goal_generic_oil_refinery
		cost = 10
		prerequisite = {
			focus = ENG_Sub_Saharan_Investment
		}
		x = 12
		y = 4
		completion_reward = {
			558 = {
				if = {
					limit = {
						is_owned_and_controlled_by = ROOT
					}
					add_resource = {
						type = oil
						amount = 8
					}
				}
			}
		}
	}
	focus = {
		id = ENG_Invest_in_our_Dominions
		icon = GFX_ENG_Invest_in_our_Dominions
		cost = 15
		prerequisite = {
			focus = ENG_Colonial_Development
		}
		x = 15
		y = 2
		completion_reward = {
			unlock_decision_category_tooltip = ENG_invest_dominions_category
		}
	}
	focus = {
		id = ENG_The_Old_Lion_Defies_his_Foes
		icon = GFX_ENG_The_Old_Lion_Defies_His_Foes
		cost = 15
		prerequisite = {
			focus = ENG_Invest_in_our_Dominions
		}
		x = 15
		y = 3
		completion_reward = {
			add_ideas = ENG_The_Old_Lion_Defies_his_Foes
		}
	}
	focus = {
		id = ENG_Empire_Air_Training_Scheme
		icon = GFX_ENG_Empire_Air_Training_Scheme
		cost = 10
		prerequisite = {
			focus = ENG_The_Old_Lion_Defies_his_Foes
		}
		mutually_exclusive = {
			focus = ENG_Commonwealth_Divisions
		}
		x = 14
		y = 4
		completion_reward = {
			air_experience = 25
			add_tech_bonus = {
				bonus = 0.3
				uses = 2
				category = air_doctrine
			}
		}
	}
	focus = {
		id = ENG_Commonwealth_Divisions
		icon = GFX_focus_generic_commonwealth_build_infantry
		cost = 20
		prerequisite = {
			focus = ENG_The_Old_Lion_Defies_his_Foes
		}
		mutually_exclusive = {
			focus = ENG_Empire_Air_Training_Scheme
		}
		x = 16
		y = 4
		completion_reward = {
			swap_ideas = {
				add_idea = ENG_The_Old_Lion_Defies_his_Foes
				remove_idea = ENG_Commonwealth_Divisions
			}
		}
	}
	focus = {
		id = ENG_India_and_Beyond
		icon = GFX_ENG_India_and_Beyond
		cost = 15
		prerequisite = {
			focus = ENG_Colonial_Development
		}
		x = 19
		y = 2
		completion_reward = {
			RAJ = {
				random_owned_controlled_state = {
					limit = {
						free_building_slots = {
							building = industrial_complex
							size > 0
							include_locked = yes
						}
					}
					add_extra_state_shared_building_slots = 1
					add_building_construction = {
						type = industrial_complex
						level = 1
						instant_build = yes
					}
				}
				random_owned_controlled_state = {
					limit = {
						free_building_slots = {
							building = industrial_complex
							size > 0
							include_locked = yes
						}
					}
					add_extra_state_shared_building_slots = 1
					add_building_construction = {
						type = industrial_complex
						level = 1
						instant_build = yes
					}
				}
				random_owned_controlled_state = {
					limit = {
						free_building_slots = {
							building = industrial_complex
							size > 0
							include_locked = yes
						}
					}
					add_extra_state_shared_building_slots = 1
					add_building_construction = {
						type = industrial_complex
						level = 1
						instant_build = yes
					}
				}
				random_owned_controlled_state = {
					limit = {
						free_building_slots = {
							building = industrial_complex
							size > 0
							include_locked = yes
						}
					}
					add_extra_state_shared_building_slots = 1
					add_building_construction = {
						type = industrial_complex
						level = 1
						instant_build = yes
					}
				}
				random_owned_controlled_state = {
					limit = {
						free_building_slots = {
							building = arms_factory
							size > 0
							include_locked = yes
						}
					}
					add_extra_state_shared_building_slots = 1
					add_building_construction = {
						type = arms_factory
						level = 1
						instant_build = yes
					}
				}
				random_owned_controlled_state = {
					limit = {
						free_building_slots = {
							building = arms_factory
							size > 0
							include_locked = yes
						}
					}
					add_extra_state_shared_building_slots = 1
					add_building_construction = {
						type = arms_factory
						level = 1
						instant_build = yes
					}
				}
			}
		}
	}
	focus = {
		id = ENG_Indian_Railways
		icon = GFX_goal_generic_construct_infrastructure
		cost = 10
		prerequisite = {
			focus = ENG_India_and_Beyond
		}
		x = 18
		y = 3
		completion_reward = {
			RAJ = {
				random_owned_controlled_state = {
					limit = {
						free_building_slots = {
							building = infrastructure
							size > 2
						}
					}
					add_building_construction = {
						type = infrastructure
						level = 3
						instant_build = yes
					}
				}
				random_owned_controlled_state = {
					limit = {
						free_building_slots = {
							building = infrastructure
							size > 2
						}
					}
					add_building_construction = {
						type = infrastructure
						level = 3
						instant_build = yes
					}
				}
				random_owned_controlled_state = {
					limit = {
						free_building_slots = {
							building = infrastructure
							size > 2
						}
					}
					add_building_construction = {
						type = infrastructure
						level = 3
						instant_build = yes
					}
				}
				random_owned_controlled_state = {
					limit = {
						free_building_slots = {
							building = infrastructure
							size > 2
						}
					}
					add_building_construction = {
						type = infrastructure
						level = 3
						instant_build = yes
					}
				}
			}
		}
	}
	focus = {
		id = ENG_The_Burma_Road
		icon = GFX_ENG_Burma_Road
		cost = 15
		prerequisite = {
			focus = ENG_Indian_Railways
		}
		x = 18
		y = 4
		available = {
			CHI = {
				has_war_with = JAP
				NOT = {
					has_war_with = ENG
				}
			}
			JAP = {
				NOT = {
					is_in_faction_with = ENG
				}
			}
		}
		bypass = {
			CHI = {
				exists = no
			}
		}
		bypass = {
			640 = {
				free_building_slots = {
					building = infrastructure
					size < 1
				}
			}
			325 = {
				free_building_slots = {
					building = infrastructure
					size < 1
				}
			}
			601 = {
				free_building_slots = {
					building = infrastructure
					size < 2
				}
				free_building_slots = {
					building = air_base
					size < 1
				}
				free_building_slots = {
					building = arms_factory
					size < 1
					include_locked = yes
				}
			}
		}
		completion_reward = {
			640 = {
				if = {
					limit = {
						OR = {
							ENG = {
								controls_state = 640
							}
							any_other_country = {
								is_in_faction_with = ENG
								controls_state = 640
							}
						}
					}
					add_building_construction = {
						type = infrastructure
						level = 2
						instant_build = yes
					}
					add_building_construction = {
						type = air_base
						level = 2
						instant_build = yes
					}
				}
			}
			325 = {
				if = {
					limit = {
						OR = {
							CHI = {
								controls_state = 325
							}
							any_other_country = {
								is_in_faction_with = CHI
								controls_state = 640
							}
						}
					}
					add_building_construction = {
						type = infrastructure
						level = 2
						instant_build = yes
					}
					add_building_construction = {
						type = air_base
						level = 2
						instant_build = yes
					}
				}
			}
			601 = {
				if = {
					limit = {
						OR = {
							CHI = {
								controls_state = 601
							}
							any_other_country = {
								is_in_faction_with = CHI
								controls_state = 601
							}
						}
					}
					add_building_construction = {
						type = infrastructure
						level = 2
						instant_build = yes
					}
					add_building_construction = {
						type = air_base
						level = 1
						instant_build = yes
					}
					add_extra_state_shared_building_slots = 1
					add_building_construction = {
						type = arms_factory
						level = 1
						instant_build = yes
					}
				}
			}
			add_war_support = 0.05
			CHI = {
				add_opinion_modifier = {
					target = ENG
					modifier = burma_road_good
				}
				country_event = britain.4
			}
			YUN = {
				add_opinion_modifier = {
					target = ENG
					modifier = burma_road_good
				}
				country_event = britain.5
			}
			JAP = {
				add_opinion_modifier = {
					target = ENG
					modifier = burma_road_bad
				}
			}
		}
	}
	focus = {
		id = ENG_The_Singapore_Strategy
		icon = GFX_focus_RAJ_lions_of_the_great_war
		cost = 10
		prerequisite = {
			focus = ENG_India_and_Beyond
		}
		x = 20
		y = 3
		available = {
			336 = {
				CONTROLLER = {
					OR = {
						tag = ENG
						is_subject_of = ENG
					}
				}
			}
		}
		completion_reward = {
			336 = {
				add_building_construction = {
					type = coastal_bunker
					level = 3
					province = 12299
					instant_build = yes
				}
				if = {
					limit = {
						CONTROLLER = {
							NOT = {
								tag = ENG
							}
						}
					}
					CONTROLLER = {
						add_autonomy_ratio = {
							value = -0.02
							localization = singapore_focus
						}
					}
				}
			}
		}
	}
	focus = {
		id = ENG_Oriental_Bulwark
		icon = GFX_ENG_Oriental_Bulwark
		cost = 15
		prerequisite = {
			focus = ENG_The_Singapore_Strategy
		}
		x = 20
		y = 4
		completion_reward = {
			336 = {
				add_building_construction = {
					type = coastal_bunker
					province = 12299
					level = 2
					instant_build = yes
				}
			}
			326 = {
				add_building_construction = {
					type = coastal_bunker
					province = 10062
					level = 2
					instant_build = yes
				}
			}
		}
	}
	focus = {
		id = ENG_Mediterranean_Hegemony
		icon = GFX_goal_generic_position_armies
		cost = 15
		prerequisite = {
			focus = ENG_Colonial_Development
		}
		x = 21
		y = 2
		completion_reward = {
			116 = {
				if = {
					limit = {
						free_building_slots = {
							building = infrastructure
							size > 1
						}
					}
					add_building_construction = {
						type = infrastructure
						level = 2
						instant_build = yes
					}
				}
			}
			118 = {
				if = {
					limit = {
						free_building_slots = {
							building = infrastructure
							size > 1
						}
					}
					add_building_construction = {
						type = infrastructure
						level = 2
						instant_build = yes
					}
				}
			}
			447 = {
				if = {
					limit = {
						free_building_slots = {
							building = infrastructure
							size > 1
						}
					}
					add_building_construction = {
						type = infrastructure
						level = 2
						instant_build = yes
					}
				}
			}
			773 = {
				if = {
					limit = {
						free_building_slots = {
							building = infrastructure
							size > 1
						}
					}
					add_building_construction = {
						type = infrastructure
						level = 2
						instant_build = yes
					}
				}
			}
		}
	}
	focus = {
		id = ENG_Mediterranean_Bastions
		icon = GFX_goal_generic_construct_military
		cost = 10
		prerequisite = {
			focus = ENG_Mediterranean_Hegemony
		}
		x = 22
		y = 3
		completion_reward = {
			116 = {
				add_building_construction = {
					type = coastal_bunker
					province = 12003
					level = 2
					instant_build = yes
				}
			}
			118 = {
				add_building_construction = {
					type = coastal_bunker
					province = 4135
					level = 2
					instant_build = yes
				}
			}
			447 = {
				add_building_construction = {
					type = coastal_bunker
					province = 4076
					level = 2
					instant_build = yes
				}
			}
			773 = {
				add_building_construction = {
					type = coastal_bunker
					province = {
						all_provinces = yes
					}
					level = 2
					instant_build = yes
				}
			}
		}
	}
	focus = {
		id = ENG_Royal_Airforce
		icon = GFX_ENG_RAF
		cost = 5
		prerequisite = {
			focus = ENG_General_Rearmament
		}
		x = 35
		y = 1
		completion_reward = {
			air_experience = 25
			126 = {
				if = {
					limit = {
						free_building_slots = {
							building = air_base
							size > 3
							include_locked = yes
						}
					}
					add_extra_state_shared_building_slots = 4
					add_building_construction = {
						type = air_base
						level = 4
						instant_build = yes
					}
				}
			}
			add_tech_bonus = {
				uses = 2
				bonus = 0.5
				category = air_doctrine
			}
		}
	}
	focus = {
		id = ENG_Reorganize_Air_Defences
		icon = GFX_focus_generic_air_defense
		cost = 10
		prerequisite = {
			focus = ENG_Royal_Airforce
		}
		x = 33
		y = 2
		completion_reward = {
			125 = {
				if = {
					limit = {
						free_building_slots = {
							building = air_base
							size > 1
							include_locked = yes
						}
					}
					add_extra_state_shared_building_slots = 2
					add_building_construction = {
						type = air_base
						level = 2
						instant_build = yes
					}
				}
			}
			120 = {
				if = {
					limit = {
						free_building_slots = {
							building = air_base
							size > 3
							include_locked = yes
						}
					}
					add_extra_state_shared_building_slots = 4
					add_building_construction = {
						type = air_base
						level = 4
						instant_build = yes
					}
				}
			}
			127 = {
				if = {
					limit = {
						free_building_slots = {
							building = anti_air_building
							size > 1
							include_locked = yes
						}
					}
					add_extra_state_shared_building_slots = 2
					add_building_construction = {
						type = anti_air_building
						level = 2
						instant_build = yes
					}
				}
			}
			125 = {
				if = {
					limit = {
						free_building_slots = {
							building = anti_air_building
							size > 1
							include_locked = yes
						}
					}
					add_extra_state_shared_building_slots = 2
					add_building_construction = {
						type = anti_air_building
						level = 2
						instant_build = yes
					}
				}
			}
		}
	}
	focus = {
		id = ENG_Chain_Home
		icon = GFX_ENG_Chain_Home
		cost = 10
		prerequisite = {
			focus = ENG_Reorganize_Air_Defences
		}
		x = 32
		y = 3
		completion_reward = {
			123 = {
				if = {
					limit = {
						free_building_slots = {
							building = radar_station
							size > 0
						}
					}
					add_building_construction = {
						type = radar_station
						level = 1
						instant_build = yes
					}
				}
			}
			125 = {
				if = {
					limit = {
						free_building_slots = {
							building = radar_station
							size > 0
						}
					}
					add_building_construction = {
						type = radar_station
						level = 1
						instant_build = yes
					}
				}
			}
			126 = {
				if = {
					limit = {
						free_building_slots = {
							building = radar_station
							size > 0
						}
					}
					add_building_construction = {
						type = radar_station
						level = 1
						instant_build = yes
					}
				}
			}
			127 = {
				if = {
					limit = {
						free_building_slots = {
							building = radar_station
							size > 0
						}
					}
					add_building_construction = {
						type = radar_station
						level = 1
						instant_build = yes
					}
				}
			}
			add_tech_bonus = {
				uses = 1
				bonus = 0.5
				category = radar_tech
			}
		}
	}
	focus = {
		id = ENG_Fighter_Command
		icon = GFX_ENG_Fighter_Command
		cost = 10
		prerequisite = {
			focus = ENG_Royal_Airforce
		}
		x = 35
		y = 2
		completion_reward = {
			air_experience = 15
			add_tech_bonus = {
				uses = 1
				bonus = 0.5
				category = air_doctrine
			}
		}
	}
	focus = {
		id = ENG_Spitfire
		icon = GFX_ENG_Spitfire
		cost = 10
		prerequisite = {
			focus = ENG_Fighter_Command
		}
		mutually_exclusive = {
			focus = ENG_Hurricane
		}
		x = 34
		y = 3
		completion_reward = {
			air_experience = 10
			add_tech_bonus = {
				uses = 1
				bonus = 0.75
				technology = fighter_1936
				technology = fighter_1940
				technology = fighter_1943
			}
		}
	}
	focus = {
		id = ENG_Hurricane
		icon = GFX_ENG_Hurricane
		cost = 10
		prerequisite = {
			focus = ENG_Fighter_Command
		}
		mutually_exclusive = {
			focus = ENG_Spitfire
		}
		x = 36
		y = 3
		completion_reward = {
			air_experience = 10
			add_tech_bonus = {
				uses = 1
				bonus = 0.75
				technology = Fighter_Bomber_1936
			}
		}
	}
	focus = {
		id = ENG_Dowding_System
		icon = GFX_ENG_Dowding_System
		cost = 10
		prerequisite = {
			focus = ENG_Spitfire
			focus = ENG_Hurricane
		}
		prerequisite = {
			focus = ENG_Chain_Home
		}
		x = 35
		y = 4
		available = {
			has_tech = decimetric_radar
		}
		completion_reward = {
			123 = {
				if = {
					limit = {
						free_building_slots = {
							building = radar_station
							size > 0
						}
					}
					add_building_construction = {
						type = radar_station
						level = 1
						instant_build = yes
					}
				}
			}
			125 = {
				if = {
					limit = {
						free_building_slots = {
							building = radar_station
							size > 0
						}
					}
					add_building_construction = {
						type = radar_station
						level = 1
						instant_build = yes
					}
				}
			}
			126 = {
				if = {
					limit = {
						free_building_slots = {
							building = radar_station
							size > 0
						}
					}
					add_building_construction = {
						type = radar_station
						level = 1
						instant_build = yes
					}
				}
			}
			127 = {
				if = {
					limit = {
						free_building_slots = {
							building = radar_station
							size > 0
						}
					}
					add_building_construction = {
						type = radar_station
						level = 1
						instant_build = yes
					}
				}
			}
		}
	}
	focus = {
		id = ENG_Red_Devils
		icon = GFX_ENG_Red_Devils
		cost = 10
		prerequisite = {
			focus = ENG_Royal_Airforce
		}
		x = 37
		y = 2
		available = {
			has_tech = paratroopers
		}
		completion_reward = {
			army_experience = 10
			air_experience = 10
			load_oob = "ENG_Red_Devils"
		}
	}
	focus = {
		id = ENG_SAS
		icon = GFX_ENG_SAS
		cost = 10
		prerequisite = {
			focus = ENG_Red_Devils
		}
		x = 37
		y = 4
		completion_reward = {
			add_ideas = ENG_SAS
			add_tech_bonus = {
				uses = 1
				bonus = 0.5
				category = para_tech
			}
		}
	}
	focus = {
		id = ENG_Bomber_Command
		icon = GFX_ENG_Bomber_Command
		cost = 10
		prerequisite = {
			focus = ENG_Royal_Airforce
		}
		x = 39
		y = 2
		completion_reward = {
			add_tech_bonus = {
				uses = 1
				bonus = 0.5
				category = air_doctrine
			}
			add_tech_bonus = {
				uses = 1
				bonus = 0.5
				category = cat_strategic_bomber
				category = tactical_bomber
			}
			air_experience = 15
			custom_effect_tooltip = available_political_advisor
			show_ideas_tooltip = ENG_CoAir_Arthur_Harris
		}
	}
	focus = {
		id = ENG_Advanced_Striking_Force
		icon = GFX_goal_poland_goal
		cost = 10
		prerequisite = {
			focus = ENG_Bomber_Command
		}
		mutually_exclusive = {
			focus = ENG_Area_Bombing_Initiative
		}
		x = 38
		y = 3
		completion_reward = {
			add_tech_bonus = {
				uses = 1
				bonus = 0.5
				category = cat_strategic_bomber
			}
			air_experience = 10
			add_ideas = ENG_Advanced_Striking_Force
		}
	}
	focus = {
		id = ENG_Area_Bombing_Initiative
		icon = GFX_goal_generic_occupy_start_war
		cost = 10
		prerequisite = {
			focus = ENG_Bomber_Command
		}
		mutually_exclusive = {
			focus = ENG_Advanced_Striking_Force
		}
		x = 40
		y = 3
		completion_reward = {
			add_tech_bonus = {
				uses = 1
				bonus = 0.5
				category = cat_strategic_bomber
			}
			air_experience = 10
			add_ideas = ENG_Area_Bombing_Initiative
		}
	}
	focus = {
		id = ENG_Combined_Bombing_Offensive
		icon = GFX_ENG_Combined_Bomber_Offensive
		cost = 10
		prerequisite = {
			focus = ENG_Advanced_Striking_Force
			focus = ENG_Area_Bombing_Initiative
		}
		x = 39
		y = 4
		bypass = {
			date > 1946.12.31
		}
		available = {
			any_other_country = {
				AND = {
					has_war_with = USA
					has_war_with = ENG
				}
			}
		}
		completion_reward = {
			add_ideas = ENG_Combined_Bomber_Offensive
		}
	}
	focus = {
		id = ENG_Fleet_Air_Arm
		icon = GFX_ENG_Fleet_Air_Arm
		cost = 10
		prerequisite = {
			focus = ENG_Royal_Airforce
		}
		x = 41
		y = 2
		completion_reward = {
			123 = {
				if = {
					limit = {
						free_building_slots = {
							building = dockyard
							size > 0
							include_locked = yes
						}
					}
					add_extra_state_shared_building_slots = 1
					add_building_construction = {
						type = dockyard
						level = 1
						instant_build = yes
					}
				}
			}
			123 = {
				if = {
					limit = {
						free_building_slots = {
							building = air_base
							size > 1
							include_locked = yes
						}
					}
					add_extra_state_shared_building_slots = 2
					add_building_construction = {
						type = air_base
						level = 2
						instant_build = yes
					}
				}
			}
			add_tech_bonus = {
				uses = 2
				bonus = 0.4
				category = naval_bomber
				category = cas_bomber
			}
			navy_experience = 10
			air_experience = 10
		}
	}
	focus = {
		id = ENG_Coastal_Command
		icon = GFX_ENG_Coastal_Defense
		cost = 10
		prerequisite = {
			focus = ENG_Fleet_Air_Arm
		}
		x = 41
		y = 4
		completion_reward = {
			navy_experience = 15
			add_tech_bonus = {
				uses = 1
				bonus = 0.4
				category = naval_bomber
				category = cas_bomber
			}
			every_state = {
				limit = {
					region = 1
				}
				add_building_construction = {
					type = coastal_bunker
					province = {
						all_provinces = yes
						limit_to_coastal = yes
					}
					level = 1
					instant_build = yes
				}
			}
		}
	}
	focus = {
		id = ENG_High_Seas_Airforce
		icon = GFX_ENG_High_Seas_Airforce
		cost = 10
		prerequisite = {
			focus = ENG_Fleet_Air_Arm
		}
		x = 42
		y = 3
		completion_reward = {
			add_tech_bonus = {
				uses = 3
				bonus = 0.3
				category = naval_air
			}
		}
	}
	focus = {
		id = ENG_Royal_Navy
		icon = GFX_ENG_Royal_Navy
		cost = 5
		prerequisite = {
			focus = ENG_General_Rearmament
		}
		x = 56
		y = 1
		completion_reward = {
			random_owned_controlled_state = {
				limit = {
					free_building_slots = {
						building = infrastructure
						size > 5
						include_locked = yes
					}
					is_coastal = yes
					is_in_home_area = yes
				}
				add_extra_state_shared_building_slots = 6
				add_building_construction = {
					type = dockyard
					level = 6
					instant_build = yes
				}
			}
			120 = {
				add_building_construction = {
					type = naval_base
					level = 2
					instant_build = yes
					province = 11064
				}
			}
			add_tech_bonus = {
				uses = 2
				bonus = 0.3
				category = naval_doctrine
			}
			navy_experience = 25
		}
	}
	focus = {
		id = ENG_Royal_Marines
		icon = GFX_goal_generic_amphibious_assault
		cost = 10
		prerequisite = {
			focus = ENG_Royal_Navy
		}
		x = 45
		y = 2
		completion_reward = {
			if = {
				limit = {
					NOT = {
						has_tech = marines
					}
				}
				set_technology = {
					marines = 1
				}
			}
			else_if = {
				limit = {
					has_tech = marines
				}
				add_tech_bonus = {
					uses = 1
					bonus = 0.5
					category = marine_tech
				}
			}
		}
	}
	focus = {
		id = ENG_Amphibious_Warfare
		icon = GFX_GENERIC_Marines
		cost = 15
		prerequisite = {
			focus = ENG_Royal_Marines
		}
		x = 45
		y = 4
		completion_reward = {
			add_tech_bonus = {
				uses = 1
				bonus = 0.5
				category = tp_tech
			}
			add_tech_bonus = {
				uses = 1
				bonus = 0.5
				category = marine_tech
			}
		}
	}
	focus = {
		id = ENG_British_Army
		icon = GFX_ENG_British_Army
		cost = 5
		prerequisite = {
			focus = ENG_General_Rearmament
		}
		x = 47
		y = 1
		completion_reward = {
			army_experience = 50
		}
	}
	focus = {
		id = ENG_The_Future_of_Warfare
		icon = GFX_GENERIC_Mobile_Warfare
		cost = 15
		prerequisite = {
			focus = ENG_British_Army
		}
		mutually_exclusive = {
			focus = ENG_Grand_Battleplan
		}
		x = 49
		y = 2
		completion_reward = {
			set_technology = {
				Mobility_Focus = 1
			}
			add_tech_bonus = {
				uses = 1
				bonus = 0.1
				category = cat_mobile_warfare
			}
		}
	}
	focus = {
		id = ENG_Grand_Battleplan
		icon = GFX_GENERIC_Grand_Battleplan
		cost = 10
		prerequisite = {
			focus = ENG_British_Army
		}
		mutually_exclusive = {
			focus = ENG_The_Future_of_Warfare
		}
		x = 45
		y = 2
		completion_reward = {
			set_technology = {
				trench_warfare = 1
			}
			add_tech_bonus = {
				uses = 2
				bonus = 0.5
				category = cat_grand_battle_plan
			}
		}
	}
	focus = {
		id = ENG_A_Motorized_Army
		icon = GFX_goal_generic_army_motorized
		cost = 10
		prerequisite = {
			focus = ENG_The_Future_of_Warfare
			focus = ENG_Grand_Battleplan
		}
		x = 48
		y = 3
		completion_reward = {
			add_tech_bonus = {
				uses = 1
				bonus = 0.5
				category = cat_mechanized_equipment
			}
			custom_effect_tooltip = ENG_mot_focus_tooltip
			hidden_effect = {
				load_oob = "ENG_Motorized"
			}
		}
	}
	focus = {
		id = ENG_Expand_Rifle_Regiments
		icon = GFX_goal_generic_small_arms
		cost = 10
		prerequisite = {
			focus = ENG_Grand_Battleplan
			focus = ENG_The_Future_of_Warfare
		}
		x = 46
		y = 3
		completion_reward = {
			add_tech_bonus = {
				uses = 2
				bonus = 0.4
				category = infantry_weapons
			}
		}
	}
	focus = {
		id = ENG_Royal_Tank_Regiment
		icon = GFX_goal_generic_army_tanks
		cost = 10
		prerequisite = {
			focus = ENG_The_Future_of_Warfare
			focus = ENG_Grand_Battleplan
		}
		x = 50
		y = 3
		completion_reward = {
			add_tech_bonus = {
				uses = 1
				bonus = 0.5
				category = armor
			}
			army_experience = 20
		}
	}
	focus = {
		id = ENG_Infantry_Tank
		icon = GFX_ENG_Infantry_Tank
		cost = 10
		prerequisite = {
			focus = ENG_Royal_Tank_Regiment
			focus = ENG_A_Motorized_Army
		}
		mutually_exclusive = {
			focus = ENG_Cruiser_Tank
		}
		x = 49
		y = 4
		completion_reward = {
			add_tech_bonus = {
				uses = 2
				bonus = 0.3
				category = cat_heavy_armor
			}
		}
	}
	focus = {
		id = ENG_Cruiser_Tank
		icon = GFX_ENG_Cruiser_Tank
		cost = 10
		prerequisite = {
			focus = ENG_Royal_Tank_Regiment
		}
		mutually_exclusive = {
			focus = ENG_Infantry_Tank
		}
		x = 51
		y = 4
		completion_reward = {
			add_tech_bonus = {
				uses = 2
				bonus = 0.3
				category = cat_medium_armor
			}
		}
	}
	focus = {
		id = ENG_Britannia_Rule_the_Waves
		icon = GFX_focus_ger_accept_british_naval_dominance
		cost = 10
		prerequisite = {
			focus = ENG_Royal_Navy
		}
		x = 56
		y = 2
		completion_reward = {
			add_tech_bonus = {
				uses = 3
				bonus = 0.5
				category = naval_doctrine
			}
		}
	}
	focus = {
		id = ENG_Carrier_Innovation
		icon = GFX_goal_generic_navy_carrier
		cost = 10
		prerequisite = {
			focus = ENG_Britannia_Rule_the_Waves
		}
		mutually_exclusive = {
			focus = ENG_Battleship_Primacy
		}
		x = 54
		y = 3
		completion_reward = {
			add_tech_bonus = {
				uses = 1
				bonus = 0.5
				category = cv_tech
			}
		}
	}
	focus = {
		id = ENG_Woolworth_Carriers
		icon = GFX_ENG_Woolworth_Carriers
		cost = 10
		prerequisite = {
			focus = ENG_Carrier_Innovation
		}
		mutually_exclusive = {
			focus = ENG_Pacific_Fleet_Carriers
		}
		x = 53
		y = 4
		completion_reward = {
			add_tech_bonus = {
				uses = 1
				bonus = 0.5
				technology = CVE_1940
				technology = CVE_1945
				technology = CVL_1940
				technology = CVL_1945
			}
			random_owned_controlled_state = {
				limit = {
					free_building_slots = {
						building = dockyard
						size > 0
						include_locked = yes
					}
					free_building_slots = {
						building = naval_base
						size > 1
					}
					OR = {
						region = 1
						region = 2
					}
				}
				add_extra_state_shared_building_slots = 1
				add_building_construction = {
					type = dockyard
					level = 1
					instant_build = yes
				}
				add_building_construction = {
					type = naval_base
					level = 1
					province = {
						limit_to_coastal = yes
					}
				}
			}
		}
	}
	focus = {
		id = ENG_Pacific_Fleet_Carriers
		icon = GFX_ENG_Pacific_Fleet_Carriers
		cost = 10
		prerequisite = {
			focus = ENG_Carrier_Innovation
		}
		mutually_exclusive = {
			focus = ENG_Woolworth_Carriers
		}
		x = 55
		y = 4
		completion_reward = {
			add_tech_bonus = {
				uses = 1
				bonus = 0.3
				category = cv_tech
			}
			add_tech_bonus = {
				uses = 1
				bonus = 0.3
				category = fleet_in_being_tree
			}
			326 = {
				if = {
					limit = {
						free_building_slots = {
							building = dockyard
							size > 0
							include_locked = yes
						}
						free_building_slots = {
							building = naval_base
							size > 1
						}
						is_owned_and_controlled_by = ROOT
					}
					add_extra_state_shared_building_slots = 1
					add_building_construction = {
						type = dockyard
						level = 1
						instant_build = yes
					}
					add_building_construction = {
						type = naval_base
						level = 2
						province = 10062
					}
				}
			}
		}
	}
	focus = {
		id = ENG_Battleship_Primacy
		icon = GFX_goal_generic_navy_battleship
		cost = 10
		prerequisite = {
			focus = ENG_Britannia_Rule_the_Waves
		}
		mutually_exclusive = {
			focus = ENG_Carrier_Innovation
		}
		x = 58
		y = 3
		completion_reward = {
			add_tech_bonus = {
				uses = 1
				bonus = 0.5
				category = bb_tech
			}
			add_tech_bonus = {
				uses = 1
				bonus = 0.25
				category = naval_doctrine
			}
			navy_experience = 15
			119 = {
				if = {
					limit = {
						free_building_slots = {
							building = dockyard
							size > 1
							include_locked = yes
						}
					}
					add_extra_state_shared_building_slots = 2
					add_building_construction = {
						type = dockyard
						level = 2
						instant_build = yes
					}
				}
			}
		}
	}
	focus = {
		id = ENG_Fast_Battleships
		icon = GFX_GENERIC_Battleship
		cost = 10
		prerequisite = {
			focus = ENG_Battleship_Primacy
		}
		mutually_exclusive = {
			focus = ENG_Battleships
		}
		x = 57
		y = 4
		completion_reward = {
			navy_experience = 20
			add_tech_bonus = {
				uses = 2
				bonus = 0.4
				category = bc_tech
			}
		}
	}
	focus = {
		id = ENG_Battleships
		icon = GFX_GENERIC_Battleship
		cost = 10
		prerequisite = {
			focus = ENG_Battleship_Primacy
		}
		mutually_exclusive = {
			focus = ENG_Fast_Battleships
		}
		x = 59
		y = 4
		completion_reward = {
			add_tech_bonus = {
				uses = 1
				bonus = 0.6
				category = bb_tech
			}
		}
	}
	focus = {
		id = ENG_Convoy_Defence
		icon = GFX_goal_continuous_naval_production
		cost = 10
		prerequisite = {
			focus = ENG_Royal_Navy
		}
		x = 62
		y = 2
		completion_reward = {
			navy_experience = 15
			add_ideas = british_convoy_discount
		}
	}
	focus = {
		id = ENG_Hunter_Killer_Groups
		icon = GFX_focus_generic_destroyer
		cost = 10
		prerequisite = {
			focus = ENG_Convoy_Defence
		}
		mutually_exclusive = {
			focus = ENG_Beneath_the_Waves
		}
		x = 61
		y = 3
		bypass = {
			has_tech = hunter_killer_groups
		}
		completion_reward = {
			add_tech_bonus = {
				uses = 1
				bonus = 0.5
				technology = hunter_killer_groups
			}
			add_tech_bonus = {
				uses = 1
				bonus = 0.5
				category = dd_tech
			}
		}
	}
	focus = {
		id = ENG_Advanced_ASW_Tactics
		icon = GFX_GENERIC_ASW_Tactics
		cost = 10
		prerequisite = {
			focus = ENG_Hunter_Killer_Groups
		}
		x = 61
		y = 4
		completion_reward = {
			add_tech_bonus = {
				uses = 1
				bonus = 0.4
				category = dd_tech
			}
			add_tech_bonus = {
				uses = 1
				bonus = 0.3
				category = naval_doctrine
			}
		}
	}
	focus = {
		id = ENG_Shadow_Scheme
		icon = GFX_goal_continuous_air_production
		cost = 10
		prerequisite = {
			focus = ENG_Limited_Rearmament
		}
		x = 5
		y = 5
		available = {
			OR = {
				threat > 0.05
				has_war = yes
			}
		}
		continue_if_invalid = yes
		available_if_capitulated = yes
		completion_reward = {
			add_ideas = british_fighter_discount
		}
	}
	focus = {
		id = ENG_Royal_Ordnance_Factories
		icon = GFX_goal_generic_build_tank
		cost = 10
		prerequisite = {
			focus = ENG_Shadow_Scheme
		}
		x = 3
		y = 6
		completion_reward = {
			random_owned_controlled_state = {
				limit = {
					free_building_slots = {
						building = arms_factory
						size > 1
						include_locked = yes
					}
					is_core_of = ROOT
				}
				add_extra_state_shared_building_slots = 2
				add_building_construction = {
					type = arms_factory
					level = 2
					instant_build = yes
				}
			}
		}
	}
	focus = {
		id = ENG_Heavy_Industry_Expansion
		icon = GFX_goal_generic_construct_mil_factory
		cost = 20
		prerequisite = {
			focus = ENG_Light_Industry_Expansion
		}
		x = 3
		y = 7
		completion_reward = {
			random_owned_controlled_state = {
				limit = {
					free_building_slots = {
						building = arms_factory
						size > 3
						include_locked = yes
					}
					is_core_of = ROOT
				}
				add_extra_state_shared_building_slots = 4
				add_building_construction = {
					type = arms_factory
					level = 4
					instant_build = yes
				}
			}
			random_owned_controlled_state = {
				limit = {
					free_building_slots = {
						building = dockyard
						size > 0
						include_locked = yes
					}
					is_core_of = ROOT
				}
				add_extra_state_shared_building_slots = 1
				add_building_construction = {
					type = dockyard
					level = 1
					instant_build = yes
				}
			}
		}
	}
	focus = {
		id = ENG_BSA_Company
		icon = GFX_ENG_BSA_Company
		cost = 10
		prerequisite = {
			focus = ENG_Shadow_Scheme
		}
		x = 7
		y = 6
		completion_reward = {
			add_ideas = british_arms_discount
		}
	}
	focus = {
		id = ENG_Light_Industry_Expansion
		icon = GFX_goal_generic_construct_civ_factory
		cost = 10
		prerequisite = {
			focus = ENG_Shadow_Scheme
		}
		x = 5
		y = 6
		completion_reward = {
			random_owned_controlled_state = {
				limit = {
					free_building_slots = {
						building = industrial_complex
						size > 4
						include_locked = yes
					}
					is_core_of = ROOT
				}
				add_extra_state_shared_building_slots = 5
				add_building_construction = {
					type = industrial_complex
					level = 5
					instant_build = yes
				}
			}
			add_tech_bonus = {
				uses = 1
				bonus = 0.5
				category = excavation_tech
				category = construction_tech
			}
		}
	}
	focus = {
		id = ENG_Highway_Development_Survey
		icon = GFX_goal_generic_construct_infrastructure
		cost = 10
		prerequisite = {
			focus = ENG_Light_Industry_Expansion
		}
		x = 7
		y = 7
		completion_reward = {
			126 = {
				if = {
					limit = {
						free_building_slots = {
							building = infrastructure
							size > 0
						}
					}
					add_building_construction = {
						type = infrastructure
						level = 1
						instant_build = yes
					}
				}
			}
			127 = {
				if = {
					limit = {
						free_building_slots = {
							building = infrastructure
							size > 1
						}
					}
					add_building_construction = {
						type = infrastructure
						level = 2
						instant_build = yes
					}
				}
			}
			338 = {
				if = {
					limit = {
						free_building_slots = {
							building = infrastructure
							size > 1
						}
					}
					add_building_construction = {
						type = infrastructure
						level = 2
						instant_build = yes
					}
				}
			}
			129 = {
				if = {
					limit = {
						free_building_slots = {
							building = infrastructure
							size > 1
						}
					}
					add_building_construction = {
						type = infrastructure
						level = 2
						instant_build = yes
					}
				}
			}
			125 = {
				if = {
					limit = {
						free_building_slots = {
							building = infrastructure
							size > 1
						}
					}
					add_building_construction = {
						type = infrastructure
						level = 2
						instant_build = yes
					}
				}
			}
		}
	}
	focus = {
		id = ENG_Bletchley_Park
		icon = GFX_ENG_Bletchley_Park
		cost = 20
		prerequisite = {
			focus = ENG_Tizard_Mission
		}
		x = 8
		y = 8
		completion_reward = {
			add_tech_bonus = {
				uses = 2
				bonus = 0.5
				category = decryption_tech
			}
		}
	}
	focus = {
		id = ENG_Double_Cross_System
		icon = GFX_focus_RAJ_clamp_down_on_corruption
		cost = 10
		prerequisite = {
			focus = ENG_Tizard_Mission
		}
		x = 2
		y = 8
		completion_reward = {
			add_ideas = ENG_Double_Cross_System
		}
	}
	focus = {
		id = ENG_Tizard_Mission
		icon = GFX_ENG_Tizard_Mission
		cost = 10
		prerequisite = {
			focus = ENG_Light_Industry_Expansion
		}
		x = 5
		y = 7
		completion_reward = {
			USA = {
				country_event = britain.1
			}
		}
	}
	focus = {
		id = ENG_MAUD_Committee
		icon = GFX_ENG_MAUD_Committee
		cost = 15
		prerequisite = {
			focus = ENG_Tizard_Mission
		}
		mutually_exclusive = {
			focus = ENG_Assist_Manhattan_Project
		}
		x = 4
		y = 8
		completion_reward = {
			add_tech_bonus = {
				uses = 1
				bonus = 0.5
				category = nuclear
			}
		}
	}
	focus = {
		id = ENG_Assist_Manhattan_Project
		icon = GFX_ENG_Assist_the_Manhattan_Project
		cost = 15
		prerequisite = {
			focus = ENG_Tizard_Mission
		}
		mutually_exclusive = {
			focus = ENG_MAUD_Committee
		}
		x = 6
		y = 8
		available = {
			is_in_faction_with = USA
		}
		completion_reward = {
			add_tech_bonus = {
				uses = 1
				bonus = 0.25
				category = nuclear
			}
			USA = {
				add_tech_bonus = {
					uses = 1
					bonus = 0.25
					category = nuclear
				}
			}
		}
	}
	focus = {
		id = ENG_Beneath_the_Waves
		icon = GFX_goal_generic_navy_submarine
		cost = 10
		prerequisite = {
			focus = ENG_Convoy_Defence
		}
		mutually_exclusive = {
			focus = ENG_Hunter_Killer_Groups
		}
		x = 63
		y = 3
		completion_reward = {
			add_tech_bonus = {
				uses = 1
				bonus = 0.5
				category = submarine_doctrine
			}
			add_tech_bonus = {
				uses = 1
				bonus = 0.5
				category = ss_tech
			}
		}
	}
	focus = {
		id = ENG_Royal_Submarine_Service
		icon = GFX_ENG_Submarine_Service
		cost = 10
		prerequisite = {
			focus = ENG_Beneath_the_Waves
		}
		x = 63
		y = 4
		completion_reward = {
			add_tech_bonus = {
				uses = 1
				bonus = 0.4
				category = ss_tech
			}
			add_tech_bonus = {
				uses = 1
				bonus = 0.4
				category = submarine_doctrine
			}
		}
	}
	focus = {
		id = ENG_Torpex
		icon = GFX_ENG_TORPEX
		cost = 10
		prerequisite = {
			focus = ENG_Advanced_ASW_Tactics
			focus = ENG_Royal_Submarine_Service
		}
		x = 62
		y = 5
		completion_reward = {
			add_ideas = ENG_TORPEX
		}
	}
	focus = {
		id = ENG_Expand_Royal_Artillery
		icon = GFX_goal_generic_army_artillery2
		cost = 10
		prerequisite = {
			focus = ENG_Grand_Battleplan
		}
		x = 44
		y = 3
		completion_reward = {
			add_tech_bonus = {
				uses = 2
				bonus = 0.3
				category = artillery
			}
		}
	}
	focus = {
		id = ENG_BEF
		icon = GFX_focus_generic_commonwealth_build_infantry
		cost = 10
		prerequisite = {
			focus = ENG_Expand_Rifle_Regiments
		}
		prerequisite = {
			focus = ENG_Expand_Royal_Artillery
		}
		x = 45
		y = 4
		available = {
			threat > 0.5
		}
		completion_reward = {
			add_ideas = ENG_BEF
		}
	}
	focus = {
		id = ENG_British_Saharan_Minerals_Company
		icon = GFX_focus_generic_steel
		cost = 10
		prerequisite = {
			focus = ENG_Development_of_the_League_Mandates
		}
		x = 10
		y = 4
		completion_reward = {
			549 = {
				if = {
					limit = {
						is_owned_and_controlled_by = ROOT
					}
					add_resource = {
						type = oil
						amount = 4
					}
					add_resource = {
						type = chromium
						amount = 2
					}
					add_resource = {
						type = tungsten
						amount = 8
					}
					add_resource = {
						type = steel
						amount = 8
					}
				}
			}
		}
	}
}