focus_tree = {
	id = SAF_focus_tree
	country = {
		factor = 0
		modifier = {
			add = 10
			tag = SAF
		}
	}
	continuous_focus_position = { x = 20 y = 1080 }	
	default = no
	focus = {
		id = SAF_The_South_African_Army
		icon = GFX_SAF_South_African_Army
		cost = 70.00
		x = 25
		y = 0
		completion_reward = {
			army_experience = 15
		}
		
	}
	focus = {
		id = SAF_Form_the_Seaward_Defense_Force
		icon = GFX_focus_generic_coastal_fort
		cost = 70.00
		x = 34
		y = 0
		completion_reward = {
			navy_experience = 15
			create_navy_leader = {
				name = "Guy Hallifax"
				picture = "M_Guy_Hallifax.tga"
				traits = {
					
				}
				skill = 3
			}
		}
		
	}
	focus = {
		id = SAF_South_African_Airforce
		icon = GFX_SAF_South_African_Air_Force
		cost = 70.00
		x = 39
		y = 0
		completion_reward = {
			air_experience = 15
		}
		
	}
	focus = {
		id = SAF_1933_General_Elections
		icon = GFX_SAF_South_African_Elections
		cost = 70.00
		x = 9
		y = 0
		available = {
			custom_trigger_tooltip = {
				tooltip = SAF_1933_General_Elections_held
				has_country_flag = SAF_1933_General_Elections_held
			}
		}
		bypass = {
			custom_trigger_tooltip = {
				tooltip = SAF_1933_General_Elections_held
				has_country_flag = SAF_1933_General_Elections_held
			}
		}
		completion_reward = {
			custom_effect_tooltip = ""
		}
		
	}
	focus = {
		id = SAF_United_Party_Victory
		icon = GFX_SAF_United_Party_Victory
		cost = 70.00
		x = 9
		y = 9
		available = {
			always = no
		}
		completion_reward = {
			add_stability = 0.10
			add_political_power = 120
		}
		
	}
	focus = {
		id = SAF_History_Repeats_Itself
		icon = GFX_focus_AST_never_gallipoli
		cost = 70.00
		x = 22
		y = 9
		available = {
			always = no
		}
		completion_reward = {
			
		}
		
	}
	focus = {
		id = SAF_ASW_Vessels
		icon = GFX_GENERIC_Destroyer
		cost = 70.00
		prerequisite = {
			focus = SAF_Form_the_Seaward_Defense_Force
		}
		mutually_exclusive = {
			focus = SAF_Submarine_Hunter_Killers
		}
		x = -2
		y = 1
		relative_position_id = SAF_Form_the_Seaward_Defense_Force
		completion_reward = {
			add_tech_bonus = {
				uses = 2
				bonus = 1
				category = cat_fleet_in_being
			}
		}
		
	}
	focus = {
		id = SAF_Submarine_Hunter_Killers
		icon = GFX_GENERIC_Submarine
		cost = 70.00
		prerequisite = {
			focus = SAF_Form_the_Seaward_Defense_Force
		}
		mutually_exclusive = {
			focus = SAF_ASW_Vessels
		}
		x = 2
		y = 1
		relative_position_id = SAF_Form_the_Seaward_Defense_Force
		completion_reward = {
			
		}
		
	}
	focus = {
		id = SAF_Expand_the_Capetown_Shipyards
		icon = GFX_goal_generic_construct_naval_dockyard
		cost = 70.00
		prerequisite = {
			focus = SAF_Form_the_Seaward_Defense_Force
		}
		x = 0
		y = 2
		relative_position_id = SAF_Form_the_Seaward_Defense_Force
		available = {
			681 = {
				is_owned_and_controlled_by = ROOT
			}
		}
		completion_reward = {
			681 = {
				if = {
					limit = {
						free_building_slots = {
							building = dockyard
							size > 1
							include_locked = yes
						}
					}
					add_extra_state_shared_building_slots = 2
					add_building_construction = {
						type = dockyard
						level = 2
						instant_build = yes
					}
				}
				add_building_construction = {
					type = naval_base
					level = 2
					instant_build = yes
					province = 12589
				}
			}
		}
		
	}
	focus = {
		id = SAF_Minesweeping_Operations
		icon = GFX_GENERIC_Naval_Mine
		cost = 70.00
		prerequisite = {
			focus = SAF_ASW_Vessels
			focus = SAF_Submarine_Hunter_Killers
		}
		prerequisite = {
			focus = SAF_Expand_the_Capetown_Shipyards
		}
		x = 0
		y = 1
		relative_position_id = SAF_Expand_the_Capetown_Shipyards
		completion_reward = {
			
		}
		
	}
	focus = {
		id = SAF_South_African_Party_Victory
		icon = GFX_SAF_South_African_Party_Victory
		cost = 70.00
		prerequisite = {
			focus = SAF_1933_General_Elections
		}
		mutually_exclusive = {
			focus = SAF_National_Party_Victory
		}
		x = 5
		y = 1
		relative_position_id = SAF_1933_General_Elections
		completion_reward = {
			add_political_power = 120
		}
		
	}
	focus = {
		id = SAF_Reshuffle_the_Cabinet
		icon = GFX_GENERIC_Cabinet
		cost = 70.00
		prerequisite = {
			focus = SAF_United_Party_Victory
		}
		x = -1
		y = 1
		relative_position_id = SAF_United_Party_Victory
		completion_reward = {
			
		}
		
	}
	focus = {
		id = SAF_Appoint_Loyal_State_Governors
		icon = GFX_focus_generic_military_mission
		cost = 70.00
		prerequisite = {
			focus = SAF_United_Party_Victory
		}
		x = 1
		y = 1
		relative_position_id = SAF_United_Party_Victory
		completion_reward = {
			every_owned_state = {
				add_building_construction = {
					type = infrastructure
					level = 1
					instant_build = yes
				}
			}
		}
		
	}
	focus = {
		id = SAF_The_Asiatics_Bill
		icon = GFX_focus_hol_the_foundations_of_defense
		cost = 70.00
		prerequisite = {
			focus = SAF_Reshuffle_the_Cabinet
		}
		prerequisite = {
			focus = SAF_Appoint_Loyal_State_Governors
		}
		x = 7
		y = 11
		completion_reward = {
			add_stability = -0.05
			add_political_power = 120
		}
		
	}
	focus = {
		id = SAF_The_Home_Guard
		icon = GFX_focus_generic_home_defense
		cost = 70.00
		prerequisite = {
			focus = SAF_The_South_African_Army
		}
		mutually_exclusive = {
			focus = SAF_Face_our_Enemies_Head_On
		}
		x = 21
		y = 1
		completion_reward = {
			add_ideas = SAF_The_Home_Guard
		}
		
	}
	focus = {
		id = SAF_Expand_our_Northern_Forts
		icon = GFX_goal_generic_construct_military
		cost = 70.00
		prerequisite = {
			focus = SAF_The_Home_Guard
		}
		x = 20
		y = 2
		available = {
			541 = {
				is_owned_and_controlled_by = ROOT
			}
			275 = {
				is_owned_and_controlled_by = ROOT
			}
			800 = {
				is_owned_and_controlled_by = ROOT
			}
			719 = {
				is_owned_and_controlled_by = ROOT
			}
			681 = {
				is_owned_and_controlled_by = ROOT
			}
		}
		completion_reward = {
			541 = {
				set_building_level = {
					type = bunker
					level = 2
					province = {
						id = 12921
						id = 8136
						id = 12519
						id = 7770
						id = 7605
					}
				}
			}
			275 = {
				set_building_level = {
					type = bunker
					level = 2
					province = {
						id = 1688
						id = 10566
						id = 5217
						id = 2213
						id = 10668
					}
				}
			}
			800 = {
				set_building_level = {
					type = bunker
					level = 2
					province = {
						id = 7900
					}
				}
			}
			719 = {
				set_building_level = {
					type = bunker
					level = 2
					province = {
						id = 8178
					}
				}
			}
			719 = {
				set_building_level = {
					type = bunker
					level = 2
					province = {
						id = 1509
						id = 5203
					}
				}
			}
		}
		
	}
	focus = {
		id = SAF_Development_of_Weapons
		icon = GFX_goal_generic_small_arms
		cost = 70.00
		prerequisite = {
			focus = SAF_Expand_our_Northern_Forts
		}
		x = 21
		y = 3
		completion_reward = {
			add_tech_bonus = {
				bonus = 0.5
				uses = 1
				category = infantry_weapons
			}
		}
		
	}
	focus = {
		id = SAF_Cape_Corps
		icon = GFX_goal_generic_production
		cost = 70.00
		prerequisite = {
			focus = SAF_Development_of_Weapons
		}
		x = 22
		y = 4
		completion_reward = {
			custom_effect_tooltip = SAF_Cape_Corps_tt
			hidden_effect = {
				load_oob = SAF_cape_corps
			}
		}
		
	}
	focus = {
		id = SAF_Bush_Warfare
		icon = GFX_SAF_Bush_Warfare
		cost = 70.00
		prerequisite = {
			focus = SAF_The_Home_Guard
		}
		x = 1
		y = 1
		relative_position_id = SAF_The_Home_Guard
		completion_reward = {
			add_tech_bonus = {
				uses = 1
				bonus = 1
				category = cat_grand_battle_plan
			}
			hidden_effect = {
				set_variable = {
					saf_bush_warfare_supply_consumption_factor = -0.15
				}
				set_variable = {
					saf_bush_warfare_army_org_factor = -0.002
				}
				set_variable = {
					saf_bush_warfare_land_reinforce_rate = 0
				}
				set_variable = {
					saf_bush_warfare_army_speed_factor = 0
				}
				add_dynamic_modifier = {
					modifier = SAF_bush_warfare_idea
				}
			}
			custom_effect_tooltip = SAF_Bush_Warfare_tt
		}
		
	}
	focus = {
		id = SAF_Bring_the_Artillery_up_to_Standard
		icon = GFX_goal_generic_army_artillery2
		cost = 70.00
		prerequisite = {
			focus = SAF_Expand_our_Northern_Forts
		}
		prerequisite = {
			focus = SAF_Bush_Warfare
		}
		x = 19
		y = 3
		completion_reward = {
			add_tech_bonus = {
				bonus = 0.5
				uses = 1
				category = artillery
			}
		}
		
	}
	focus = {
		id = SAF_Expand_the_UDF
		icon = GFX_focus_generic_little_entente
		cost = 70.00
		prerequisite = {
			focus = SAF_Development_of_Weapons
		}
		prerequisite = {
			focus = SAF_Bring_the_Artillery_up_to_Standard
		}
		x = 20
		y = 4
		completion_reward = {
			swap_ideas = {
				remove_idea = SAF_The_Home_Guard
				add_idea = SAF_The_Home_Guard_1
			}
		}
		
	}
	focus = {
		id = SAF_Bush_Warriors_of_Africa
		icon = GFX_SAF_Bush_Warriors
		cost = 70.00
		prerequisite = {
			focus = SAF_Expand_the_UDF
		}
		prerequisite = {
			focus = SAF_Cape_Corps
		}
		x = 22
		y = 5
		completion_reward = {
			custom_effect_tooltip = SAF_Bush_Warriors_of_Africa_tt
			hidden_effect = {
				add_to_variable = {
					saf_bush_warfare_land_reinforce_rate = 0.05
				}
				add_to_variable = {
					saf_bush_warfare_army_speed_factor = 0.05
				}
				force_update_dynamic_modifier = yes
			}
		}
		
	}
	focus = {
		id = SAF_Face_our_Enemies_Head_On
		icon = GFX_focus_generic_commonwealth_build_infantry
		cost = 70.00
		prerequisite = {
			focus = SAF_The_South_African_Army
		}
		mutually_exclusive = {
			focus = SAF_The_Home_Guard
		}
		x = 28
		y = 1
		completion_reward = {
			add_tech_bonus = {
				bonus = 0.5
				uses = 2
				category = land_doctrine
			}
		}
		
	}
	focus = {
		id = SAF_Expand_the_Army_College
		icon = GFX_GENERIC_Military_Academy
		cost = 70.00
		prerequisite = {
			focus = SAF_The_Home_Guard
			focus = SAF_Face_our_Enemies_Head_On
		}
		x = 25
		y = 2
		completion_reward = {
			every_army_leader = {
				add_planning = 1
			}
			add_tech_bonus = {
				bonus = 0.5
				uses = 1
				category = land_doctrine
			}
		}
		
	}
	focus = {
		id = SAF_Desert_Warfare
		icon = GFX_focus_RAJ_indian_gurkhas
		cost = 70.00
		prerequisite = {
			focus = SAF_Face_our_Enemies_Head_On
		}
		x = 0
		y = 1
		relative_position_id = SAF_Face_our_Enemies_Head_On
		completion_reward = {
			add_ideas = SAF_desert_patrols
		}
		
	}
	focus = {
		id = SAF_Promote_the_Q_Corps
		icon = GFX_goal_generic_production2
		cost = 70.00
		prerequisite = {
			focus = SAF_Bush_Warfare
			focus = SAF_Desert_Warfare
		}
		x = 26
		y = 3
		completion_reward = {
			add_tech_bonus = {
				uses = 2
				bonus = 1
				category = support_tech
			}
		}
		
	}
	focus = {
		id = SAF_Unify_the_Regional_Commands
		icon = GFX_focus_generic_military_mission
		cost = 70.00
		prerequisite = {
			focus = SAF_Bush_Warfare
			focus = SAF_Desert_Warfare
		}
		x = 24
		y = 3
		completion_reward = {
			custom_effect_tooltip = SAF_Unify_the_Regional_Commands_tt
			hidden_effect = {
				load_oob = SAF_regional_command
			}
		}
		
	}
	focus = {
		id = SAF_Invest_in_Radars
		icon = GFX_goal_generic_radar
		cost = 70.00
		prerequisite = {
			focus = SAF_Unify_the_Regional_Commands
		}
		prerequisite = {
			focus = SAF_Promote_the_Q_Corps
		}
		x = 25
		y = 4
		available = {
			681 = {
				is_owned_and_controlled_by = ROOT
			}
			275 = {
				is_owned_and_controlled_by = ROOT
			}
			541 = {
				is_owned_and_controlled_by = ROOT
			}
		}
		completion_reward = {
			add_tech_bonus = {
				uses = 2
				bonus = 1
				category = radar_tech
			}
			custom_effect_tooltip = SAF_Invest_in_Radars_tt
			if = {
				limit = {
					NOT = {
						has_tech = radio_detection
					}
				}
				set_technology = {
					radio_detection = 1
				}
			}
			681 = {
				if = {
					limit = {
						free_building_slots = {
							building = radar_station
							size > 0
						}
					}
					add_building_construction = {
						type = radar_station
						level = 1
						instant_build = yes
					}
				}
			}
			275 = {
				if = {
					limit = {
						free_building_slots = {
							building = radar_station
							size > 0
						}
					}
					add_building_construction = {
						type = radar_station
						level = 1
						instant_build = yes
					}
				}
			}
			541 = {
				if = {
					limit = {
						free_building_slots = {
							building = radar_station
							size > 0
						}
					}
					add_building_construction = {
						type = radar_station
						level = 1
						instant_build = yes
					}
				}
			}
		}
		
	}
	focus = {
		id = SAF_Smuts_takes_Reign
		icon = GFX_SAF_South_African_Party_Victory
		cost = 70.00
		prerequisite = {
			focus = SAF_History_Repeats_Itself
		}
		mutually_exclusive = {
			focus = SAF_Suspend_the_Parliament
		}
		x = 25
		y = 10
		completion_reward = {
			
		}
		
	}
	focus = {
		id = SAF_Stay_Inline_with_the_Statute_of_Westminster
		icon = GFX_focus_chi_british_cooperation
		cost = 70.00
		prerequisite = {
			focus = SAF_Smuts_takes_Reign
		}
		x = 30
		y = 11
		completion_reward = {
			
		}
		
	}
	focus = {
		id = SAF_Closer_ties_to_the_Commonwealth
		icon = GFX_ENG_Invest_in_our_Dominions
		cost = 70.00
		prerequisite = {
			focus = SAF_Stay_Inline_with_the_Statute_of_Westminster
		}
		x = 29
		y = 12
		completion_reward = {
			
		}
		
	}
	focus = {
		id = SAF_Export_Arms_and_Volunteers
		icon = GFX_ENG_The_Old_Lion_Defies_His_Foes
		cost = 70.00
		prerequisite = {
			focus = SAF_Stay_Inline_with_the_Statute_of_Westminster
		}
		x = 31
		y = 12
		completion_reward = {
			
		}
		
	}
	focus = {
		id = SAF_Question_of_Federalisation
		icon = GFX_GENERIC_Westernization
		cost = 70.00
		prerequisite = {
			focus = SAF_Closer_ties_to_the_Commonwealth
		}
		prerequisite = {
			focus = SAF_Export_Arms_and_Volunteers
		}
		x = 30
		y = 13
		completion_reward = {
			
		}
		
	}
	focus = {
		id = SAF_Federal_Union_of_South_Africa
		icon = GFX_GENERIC_Curtail_the_Military
		cost = 70.00
		prerequisite = {
			focus = SAF_Question_of_Federalisation
		}
		mutually_exclusive = {
			focus = SAF_Centralised_Rule
		}
		x = 31
		y = 14
		completion_reward = {
			
		}
		
	}
	focus = {
		id = SAF_South_African_Naval_Forces
		icon = GFX_SAF_South_African_Navy
		cost = 70.00
		prerequisite = {
			focus = SAF_Minesweeping_Operations
		}
		x = 0
		y = 1
		relative_position_id = SAF_Minesweeping_Operations
		available = {
			681 = {
				is_owned_and_controlled_by = ROOT
			}
		}
		completion_reward = {
			navy_experience = 50
			681 = {
				if = {
					limit = {
						free_building_slots = {
							building = dockyard
							size > 0
							include_locked = yes
						}
					}
					add_extra_state_shared_building_slots = 1
					add_building_construction = {
						type = dockyard
						level = 1
						instant_build = yes
					}
				}
			}
		}
		
	}
	focus = {
		id = SAF_South_African_Airways
		icon = GFX_GENERIC_International_Airport
		cost = 70.00
		prerequisite = {
			focus = SAF_South_African_Airforce
		}
		x = 0
		y = 1
		relative_position_id = SAF_South_African_Airforce
		completion_reward = {
			country_event = DH_SouthAfrica.3
		}
		
	}
	focus = {
		id = SAF_The_Hawkers_Prowl
		icon = GFX_ENG_Empire_Air_Training_Scheme
		cost = 70.00
		prerequisite = {
			focus = SAF_South_African_Airways
		}
		x = 0
		y = 1
		relative_position_id = SAF_South_African_Airways
		completion_reward = {
			
		}
		
	}
	focus = {
		id = SAF_Beyond_Biplanes
		icon = GFX_GENERIC_Import_Fighters
		cost = 70.00
		prerequisite = {
			focus = SAF_The_Hawkers_Prowl
		}
		x = -1
		y = 1
		relative_position_id = SAF_The_Hawkers_Prowl
		completion_reward = {
			
		}
		
	}
	focus = {
		id = SAF_Convert_Passenger_Planes
		icon = GFX_GENERIC_Import_Bombers
		cost = 70.00
		prerequisite = {
			focus = SAF_The_Hawkers_Prowl
		}
		x = 1
		y = 1
		relative_position_id = SAF_The_Hawkers_Prowl
		completion_reward = {
			add_tech_bonus = {
				uses = 2
				bonus = 1
				category = air_equipment
			}
		}
		
	}
	focus = {
		id = SAF_Close_Air_Support
		icon = GFX_goal_generic_CAS
		cost = 70.00
		prerequisite = {
			focus = SAF_Beyond_Biplanes
		}
		x = -1
		y = 1
		relative_position_id = SAF_Beyond_Biplanes
		completion_reward = {
			
		}
		
	}
	focus = {
		id = SAF_Establish_Aerial_Academies
		icon = GFX_GENERIC_Flight_School
		cost = 70.00
		prerequisite = {
			focus = SAF_Beyond_Biplanes
		}
		prerequisite = {
			focus = SAF_Convert_Passenger_Planes
		}
		x = 1
		y = 1
		relative_position_id = SAF_Beyond_Biplanes
		completion_reward = {
			add_tech_bonus = {
				uses = 1
				bonus = 0.5
				category = air_doctrine
			}
		}
		
	}
	focus = {
		id = SAF_Maritime_Patrols
		icon = GFX_GENERIC_ASW_Tactics
		cost = 70.00
		prerequisite = {
			focus = SAF_Convert_Passenger_Planes
		}
		x = 1
		y = 1
		relative_position_id = SAF_Convert_Passenger_Planes
		completion_reward = {
			
		}
		
	}
	focus = {
		id = SAF_National_Party_Victory
		icon = GFX_SAF_National_Party_Victory_Hertzog
		cost = 70.00
		prerequisite = {
			focus = SAF_1933_General_Elections
		}
		mutually_exclusive = {
			focus = SAF_South_African_Party_Victory
		}
		x = -5
		y = 1
		relative_position_id = SAF_1933_General_Elections
		completion_reward = {
			add_political_power = 120
		}
		
	}
	focus = {
		id = SAF_Centralize_the_Government
		icon = GFX_GENERIC_Ideology_Authoritarian_Democracy
		cost = 70.00
		prerequisite = {
			focus = SAF_National_Party_Victory
		}
		x = -1
		y = 1
		relative_position_id = SAF_National_Party_Victory
		available = {
			has_political_power > 49
		}
		completion_reward = {
			add_political_power = -50
			add_stability = 0.1
		}
		
	}
	focus = {
		id = SAF_Restore_Relations_with_the_Boers
		icon = GFX_focus_chi_british_cooperation
		cost = 70.00
		prerequisite = {
			focus = SAF_National_Party_Victory
		}
		x = 1
		y = 1
		relative_position_id = SAF_National_Party_Victory
		available = {
			275 = {
				is_owned_and_controlled_by = ROOT
			}
		}
		completion_reward = {
			add_stability = 0.05
			275 = {
				if = {
					limit = {
						free_building_slots = {
							building = industrial_complex
							size > 0
							include_locked = yes
						}
					}
					add_extra_state_shared_building_slots = 1
					add_building_construction = {
						type = industrial_complex
						level = 1
						instant_build = yes
					}
				}
			}
		}
		
	}
	focus = {
		id = SAF_Merger_with_the_SAP
		icon = GFX_SAF_United_Party_Merger
		cost = 70.00
		prerequisite = {
			focus = SAF_Centralize_the_Government
		}
		prerequisite = {
			focus = SAF_Restore_Relations_with_the_Boers
		}
		x = 1
		y = 1
		relative_position_id = SAF_Centralize_the_Government
		completion_reward = {
			add_stability = 0.10
		}
		
	}
	focus = {
		id = SAF_Increase_Afrikaner_Privileges
		icon = GFX_SAF_Increase_Afrikaner_Privileges
		cost = 70.00
		prerequisite = {
			focus = SAF_Merger_with_the_SAP
		}
		x = -2
		y = 1
		relative_position_id = SAF_Merger_with_the_SAP
		completion_reward = {
			add_stability = 0.05
			add_political_power = 150
		}
		
	}
	focus = {
		id = SAF_Grants_for_the_Old_and_Disabled
		icon = GFX_GENERIC_Scars_of_the_Civil_War
		cost = 70.00
		prerequisite = {
			focus = SAF_Increase_Afrikaner_Privileges
		}
		x = 0
		y = 2
		relative_position_id = SAF_Increase_Afrikaner_Privileges
		completion_reward = {
			add_ideas = SAF_all_for_one
		}
		
	}
	focus = {
		id = SAF_Replace_Dutch_with_Afrikaner
		icon = GFX_focus_hol_oranje_boven
		cost = 70.00
		prerequisite = {
			focus = SAF_Increase_Afrikaner_Privileges
		}
		prerequisite = {
			focus = SAF_Merger_with_the_SAP
		}
		x = 1
		y = 1
		relative_position_id = SAF_Increase_Afrikaner_Privileges
		completion_reward = {
			add_political_power = 120
			country_event = DH_SouthAfrica.2
		}
		
	}
	focus = {
		id = SAF_Promote_Economic_Autarky
		icon = GFX_GENERIC_Autarky
		cost = 70.00
		prerequisite = {
			focus = SAF_Merger_with_the_SAP
		}
		x = 2
		y = 1
		relative_position_id = SAF_Merger_with_the_SAP
		completion_reward = {
			add_ideas = SAF_no_rural_funds
		}
		
	}
	focus = {
		id = SAF_White_Only_Voting
		icon = GFX_focus_usa_voter_registration_act
		cost = 70.00
		prerequisite = {
			focus = SAF_Promote_Economic_Autarky
		}
		prerequisite = {
			focus = SAF_Merger_with_the_SAP
		}
		x = 1
		y = 2
		relative_position_id = SAF_Merger_with_the_SAP
		completion_reward = {
			add_stability = -0.05
			add_political_power = 120
		}
		
	}
	focus = {
		id = SAF_Representation_of_Natives_Act
		icon = GFX_focus_hol_the_foundations_of_defense
		cost = 70.00
		prerequisite = {
			focus = SAF_Replace_Dutch_with_Afrikaner
		}
		prerequisite = {
			focus = SAF_White_Only_Voting
		}
		x = 1
		y = 1
		relative_position_id = SAF_Replace_Dutch_with_Afrikaner
		completion_reward = {
			add_stability = 0.05
			add_war_support = 0.05
		}
		
	}
	focus = {
		id = SAF_Establish_the_Department_of_Social_Welfare
		icon = GFX_GENERIC_Anti_Poverty_Campaign
		cost = 70.00
		prerequisite = {
			focus = SAF_Promote_Economic_Autarky
		}
		x = 0
		y = 2
		relative_position_id = SAF_Promote_Economic_Autarky
		available = {
			681 = {
				is_owned_and_controlled_by = ROOT
			}
		}
		completion_reward = {
			add_stability = 0.05
			681 = {
				if = {
					limit = {
						free_building_slots = {
							building = industrial_complex
							size > 0
							include_locked = yes
						}
					}
					add_extra_state_shared_building_slots = 1
					add_building_construction = {
						type = industrial_complex
						level = 1
						instant_build = yes
					}
				}
			}
		}
		
	}
	focus = {
		id = SAF_Fund_Rural_Mechanisation
		icon = GFX_goal_generic_army_motorized
		cost = 70.00
		prerequisite = {
			focus = SAF_Appoint_Loyal_State_Governors
		}
		prerequisite = {
			focus = SAF_Reshuffle_the_Cabinet
		}
		x = 9
		y = 11
		available = {
			set_temp_variable = { amount_of_money_to_check = 300 }
			has_specific_amount_of_money = yes
		}
		completion_reward = {
			set_temp_variable = { money_to_gain = -300 }
			add_money_with_tooltip_effect = yes			
			add_tech_bonus = {
				uses = 1
				bonus = 1
				category = industry
			}
			every_owned_state = {
				add_building_construction = {
					type = infrastructure
					level = 1
					instant_build = yes
				}
			}
		}
		
	}
	focus = {
		id = SAF_Aliens_Registration_Act
		icon = GFX_focus_CZE_german_puppet
		cost = 70.00
		prerequisite = {
			focus = SAF_Appoint_Loyal_State_Governors
		}
		prerequisite = {
			focus = SAF_Reshuffle_the_Cabinet
		}
		x = 1
		y = 1
		relative_position_id = SAF_Appoint_Loyal_State_Governors
		completion_reward = {
			add_war_support = -0.05
			add_political_power = 120
		}
		
	}
	focus = {
		id = SAF_Fund_Engineering_Companies
		icon = GFX_focus_research
		cost = 70.00
		prerequisite = {
			focus = SAF_Fund_Rural_Mechanisation
		}
		prerequisite = {
			focus = SAF_The_Asiatics_Bill
		}
		prerequisite = {
			focus = SAF_Aliens_Registration_Act
		}
		x = 9
		y = 12
		completion_reward = {
			add_tech_bonus = {
				uses = 2
				bonus = 0.5
				category = industry
			}
			add_tech_bonus = {
				uses = 1
				bonus = 0.5
				category = electronics
			}
		}
		
	}
	focus = {
		id = SAF_The_Storm_Looms
		icon = GFX_focus_generic_strike_at_democracy2
		cost = 70.00
		prerequisite = {
			focus = SAF_Fund_Engineering_Companies
		}
		x = 9
		y = 13
		completion_reward = {
			add_war_support = 0.10
			add_ideas = partial_economic_mobilisation
			country_event = DH_SouthAfrica.4
		}
		
	}
	focus = {
		id = SAF_Expand_Heavy_Industry
		icon = GFX_goal_generic_construct_mil_factory
		cost = 70.00
		prerequisite = {
			focus = SAF_The_Storm_Looms
		}
		x = 8
		y = 14
		available = {
			275 = {
				is_owned_and_controlled_by = ROOT
			}
		}
		completion_reward = {
			275 = {
				if = {
					limit = {
						free_building_slots = {
							building = industrial_complex
							size > 1
							include_locked = yes
						}
						free_building_slots = {
							building = arms_factory
							size > 1
							include_locked = yes
						}
					}
					add_extra_state_shared_building_slots = 4
					add_building_construction = {
						type = industrial_complex
						level = 2
						instant_build = yes
					}
					add_building_construction = {
						type = arms_factory
						level = 2
						instant_build = yes
					}
				}
			}
		}
		
	}
	focus = {
		id = SAF_Nationalise_Foreign_Arms_Companies
		icon = GFX_GENERIC_Nationalize_Industry
		cost = 70.00
		prerequisite = {
			focus = SAF_The_Storm_Looms
		}
		x = 10
		y = 14
		available = {
			681 = {
				is_owned_and_controlled_by = ROOT
			}
		}
		completion_reward = {
			add_war_support = 0.05
			681 = {
				if = {
					limit = {
						free_building_slots = {
							building = arms_factory
							size > 2
							include_locked = yes
						}
					}
					add_extra_state_shared_building_slots = 3
					add_building_construction = {
						type = arms_factory
						level = 3
						instant_build = yes
					}
				}
			}
		}
		
	}
	focus = {
		id = SAF_An_Industrialised_South_Africa
		icon = GFX_SAF_An_Industrialized_South_Africa
		cost = 70.00
		prerequisite = {
			focus = SAF_Expand_Heavy_Industry
		}
		prerequisite = {
			focus = SAF_Nationalise_Foreign_Arms_Companies
		}
		x = 9
		y = 15
		completion_reward = {
			add_tech_bonus = {
				uses = 2
				bonus = 1
				category = industry
			}
			random_owned_state = {
				limit = {
					is_owned_and_controlled_by = ROOT
					free_building_slots = {
						building = industrial_complex
						size > 0
						include_locked = yes
					}
				}
				add_extra_state_shared_building_slots = 1
				add_building_construction = {
					type = industrial_complex
					level = 1
					instant_build = yes
				}
			}
			random_owned_state = {
				limit = {
					is_owned_and_controlled_by = ROOT
					free_building_slots = {
						building = industrial_complex
						size > 0
						include_locked = yes
					}
				}
				add_extra_state_shared_building_slots = 1
				add_building_construction = {
					type = industrial_complex
					level = 1
					instant_build = yes
				}
			}
			random_owned_state = {
				limit = {
					is_owned_and_controlled_by = ROOT
					free_building_slots = {
						building = synthetic_refinery
						size > 0
						include_locked = yes
					}
				}
				add_extra_state_shared_building_slots = 1
				add_building_construction = {
					type = synthetic_refinery
					level = 1
					instant_build = yes
				}
			}
			random_owned_state = {
				limit = {
					is_owned_and_controlled_by = ROOT
					free_building_slots = {
						building = synthetic_refinery
						size > 0
						include_locked = yes
					}
				}
				add_extra_state_shared_building_slots = 1
				add_building_construction = {
					type = synthetic_refinery
					level = 1
					instant_build = yes
				}
			}
		}
		
	}
	focus = {
		id = SAF_Suspend_the_Parliament
		icon = GFX_GENERIC_Burn_the_Parliament
		cost = 70.00
		prerequisite = {
			focus = SAF_History_Repeats_Itself
		}
		mutually_exclusive = {
			focus = SAF_Smuts_takes_Reign
		}
		x = 19
		y = 10
		completion_reward = {
			add_political_power = 200
			add_stability = -0.20
		}
		
	}
	focus = {
		id = SAF_Form_the_Herenigde
		icon = GFX_GENERIC_Populist_Politics
		cost = 70.00
		prerequisite = {
			focus = SAF_Suspend_the_Parliament
		}
		x = 19
		y = 11
		completion_reward = {
			add_stability = -0.10
			add_war_support = 0.10
			add_political_power = 120
		}
		
	}
	focus = {
		id = SAF_Call_for_a_General_Election
		icon = GFX_SAF_South_African_Elections
		cost = 70.00
		prerequisite = {
			focus = SAF_Form_the_Herenigde
		}
		x = 19
		y = 12
		completion_reward = {
			add_stability = 0.10
			add_political_power = 120
		}
		
	}
	focus = {
		id = SAF_Contest_British_Rule
		icon = GFX_goal_tfv_sever_ties_with_uk
		cost = 70.00
		prerequisite = {
			focus = SAF_Call_for_a_General_Election
		}
		x = 17
		y = 13
		completion_reward = {
			ENG = {
				country_event = DH_SouthAfrica.5
			}
		}
		
	}
	focus = {
		id = SAF_Proclaim_the_South_African_Republic
		icon = GFX_focus_eng_decolonization
		cost = 70.00
		prerequisite = {
			focus = SAF_Contest_British_Rule
		}
		x = 17
		y = 14
		completion_reward = {
			ENG = {
				release = SAF
			}
			SAF = {
				leave_faction = yes
			}
			add_war_support = 0.10
		}
		
	}
	focus = {
		id = SAF_Claim_Bechuanaland_and_South_Rhodesia
		icon = GFX_goal_generic_territory_or_war
		cost = 70.00
		prerequisite = {
			focus = SAF_Proclaim_the_South_African_Republic
		}
		x = 16
		y = 15
		completion_reward = {
			542 = {
				add_claim_by = ROOT
			}
			771 = {
				add_claim_by = ROOT
			}
			ENG = {
				country_event = DH_SouthAfrica.6
			}
		}
		
	}
	focus = {
		id = SAF_Integrate_the_Protectorates
		icon = GFX_SAF_Help_out_the_Protectorates
		cost = 70.00
		prerequisite = {
			focus = SAF_Proclaim_the_South_African_Republic
		}
		x = 18
		y = 15
		completion_reward = {
			800 = {
				add_core_of = ROOT
			}
			799 = {
				add_core_of = ROOT
			}
			add_stability = 0.10
		}
		
	}
	focus = {
		id = SAF_Empower_the_Broederbond
		icon = GFX_focus_eng_concessions_to_the_trade_unions
		cost = 70.00
		prerequisite = {
			focus = SAF_Call_for_a_General_Election
		}
		x = 21
		y = 13
		completion_reward = {
			hidden_effect = {
				set_variable = {
					saf_afrikaner_dominance_stability_factor = 0.10
				}
				set_variable = {
					saf_afrikaner_dominance_pp_growth_factor = 0
				}
				set_variable = {
					saf_afrikaner_dominance_conscription_factor = 0
				}
				add_dynamic_modifier = {
					modifier = SAF_afrikaner_dominance
				}
			}
			custom_effect_tooltip = SAF_Empower_the_Broederbond_tt
		}
		
	}
	focus = {
		id = SAF_Ban_Natives_from_the_Army
		icon = GFX_focus_generic_commonwealth_build_infantry
		cost = 70.00
		prerequisite = {
			focus = SAF_Empower_the_Broederbond
		}
		x = 20
		y = 14
		completion_reward = {
			custom_effect_tooltip = SAF_Ban_Natives_from_the_Army_tt
			hidden_effect = {
				subtract_from_variable = {
					saf_afrikaner_dominance_conscription_factor = 0.025
				}
				add_to_variable = {
					saf_afrikaner_dominance_pp_growth_factor = 0.5
				}
				force_update_dynamic_modifier = yes
			}
		}
		
	}
	focus = {
		id = SAF_Recognise_German_Namibians
		icon = GFX_focus_chi_mission_to_germany
		cost = 70.00
		prerequisite = {
			focus = SAF_Empower_the_Broederbond
		}
		x = 22
		y = 14
		completion_reward = {
			custom_effect_tooltip = SAF_Recognise_German_Namibians_tt
			hidden_effect = {
				add_to_variable = {
					saf_afrikaner_dominance_pp_growth_factor = 0.5
				}
				add_to_variable = {
					saf_afrikaner_dominance_stability_factor = 0.05
				}
				force_update_dynamic_modifier = yes
			}
		}
		
	}
	focus = {
		id = SAF_Establish_the_Sauer_Commission
		icon = GFX_GENERIC_Parliament
		cost = 70.00
		prerequisite = {
			focus = SAF_Ban_Natives_from_the_Army
		}
		prerequisite = {
			focus = SAF_Recognise_German_Namibians
		}
		x = 21
		y = 15
		completion_reward = {
			add_timed_idea = {
				idea = SAF_sauer_commission
				days = 180
			}
		}
		
	}
	focus = {
		id = SAF_Moving_Past_Neutrality
		icon = GFX_goal_generic_territory_or_war
		cost = 70.00
		prerequisite = {
			focus = SAF_Smuts_takes_Reign
		}
		x = 25
		y = 11
		completion_reward = {
			add_stability = 0.10
			add_war_support = 0.10
		}
		
	}
	focus = {
		id = SAF_Divert_Resources_into_the_War
		icon = GFX_GENERIC_Autarky
		cost = 70.00
		prerequisite = {
			focus = SAF_Moving_Past_Neutrality
		}
		x = 24
		y = 12
		available = {
			719 = {
				is_owned_and_controlled_by = ROOT
			}
			275 = {
				is_owned_and_controlled_by = ROOT
			}
		}
		completion_reward = {
			719 = {
				add_resource = {
					type = steel
					amount = 20
				}
			}
			275 = {
				add_resource = {
					type = rubber
					amount = 8
				}
			}
			random_owned_state = {
				limit = {
					is_owned_and_controlled_by = ROOT
					free_building_slots = {
						building = arms_factory
						size > 0
						include_locked = yes
					}
				}
				add_extra_state_shared_building_slots = 1
				add_building_construction = {
					type = arms_factory
					level = 1
					instant_build = yes
				}
			}
			random_owned_state = {
				limit = {
					is_owned_and_controlled_by = ROOT
					free_building_slots = {
						building = arms_factory
						size > 0
						include_locked = yes
					}
				}
				add_extra_state_shared_building_slots = 1
				add_building_construction = {
					type = arms_factory
					level = 1
					instant_build = yes
				}
			}
			random_owned_state = {
				limit = {
					is_owned_and_controlled_by = ROOT
					free_building_slots = {
						building = arms_factory
						size > 0
						include_locked = yes
					}
				}
				add_extra_state_shared_building_slots = 1
				add_building_construction = {
					type = arms_factory
					level = 1
					instant_build = yes
				}
			}
		}
		
	}
	focus = {
		id = SAF_Handle_the_Ossewabrandwag
		icon = GFX_focus_generic_anti_fascist_diplomacy
		cost = 70.00
		prerequisite = {
			focus = SAF_Moving_Past_Neutrality
		}
		x = 26
		y = 12
		completion_reward = {
			add_stability = 0.10
			add_political_power = 120
		}
		
	}
	focus = {
		id = SAF_Curtail_Apartheid_Rhetoric
		icon = GFX_focus_generic_support_the_left_right
		cost = 70.00
		prerequisite = {
			focus = SAF_Divert_Resources_into_the_War
		}
		x = 23
		y = 13
		completion_reward = {
			add_stability = -0.05
			add_war_support = 0.05
			add_political_power = 120
		}
		
	}
	focus = {
		id = SAF_Coordinated_Planning
		icon = GFX_GENERIC_Grand_Battleplan
		cost = 70.00
		prerequisite = {
			focus = SAF_Divert_Resources_into_the_War
		}
		prerequisite = {
			focus = SAF_Handle_the_Ossewabrandwag
		}
		x = 25
		y = 13
		completion_reward = {
			add_ideas = SAF_coordinated_army
		}
		
	}
	focus = {
		id = SAF_Crackdown_on_Ultranationalism
		icon = GFX_focus_eng_move_to_secure_the_dominions
		cost = 70.00
		prerequisite = {
			focus = SAF_Handle_the_Ossewabrandwag
		}
		x = 27
		y = 13
		completion_reward = {
			add_popularity = {
				ideology = democratic
				popularity = 0.15
			}
			add_political_power = 120
			add_stability = 0.05
		}
		
	}
	focus = {
		id = SAF_Draw_up_the_Native_Military_Corps
		icon = GFX_GENERIC_Drafted_Army
		cost = 70.00
		prerequisite = {
			focus = SAF_Coordinated_Planning
		}
		x = 24
		y = 14
		available = {
			275 = {
				is_owned_and_controlled_by = ROOT
			}
		}
		completion_reward = {
			hidden_effect = {
				load_oob = SAF_native_corps
			}
			add_manpower = 100000
			custom_effect_tooltip = SAF_Draw_up_the_Native_Military_Corps_tt
		}
		
	}
	focus = {
		id = SAF_Fortify_the_Cape_and_the_North
		icon = GFX_goal_generic_fortify_city
		cost = 70.00
		prerequisite = {
			focus = SAF_Coordinated_Planning
		}
		x = 26
		y = 14
		completion_reward = {
			every_owned_state = {
				add_building_construction = {
					type = coastal_bunker
					province = {
						all_provinces = yes
						limit_to_coastal = yes
					}
					level = 2
					instant_build = yes
				}
				add_building_construction = {
					type = bunker
					province = {
						all_provinces = yes
						limit_to_border = yes
					}
					level = 1
					instant_build = yes
				}
			}
		}
		
	}
	focus = {
		id = SAF_Restore_the_Cape_Qualified_Franchise
		icon = GFX_focus_generic_the_giant_wakes
		cost = 70.00
		prerequisite = {
			focus = SAF_Draw_up_the_Native_Military_Corps
		}
		prerequisite = {
			focus = SAF_Fortify_the_Cape_and_the_North
		}
		x = 25
		y = 15
		completion_reward = {
			
		}
		
	}
	focus = {
		id = SAF_Centralised_Rule
		icon = GFX_GENERIC_Centralization
		cost = 70.00
		prerequisite = {
			focus = SAF_Question_of_Federalisation
		}
		mutually_exclusive = {
			focus = SAF_Federal_Union_of_South_Africa
		}
		x = 29
		y = 14
		completion_reward = {
			
		}
		
	}
	focus = {
		id = SAF_Reconcile_with_the_States
		icon = GFX_goal_generic_improve_relations
		cost = 70.00
		prerequisite = {
			focus = SAF_South_African_Party_Victory
		}
		x = -1
		y = 1
		relative_position_id = SAF_South_African_Party_Victory
		available = {
			541 = {
				is_owned_and_controlled_by = ROOT
			}
		}
		completion_reward = {
			541 = {
				if = {
					limit = {
						free_building_slots = {
							building = industrial_complex
							size > 0
							include_locked = yes
						}
					}
					add_extra_state_shared_building_slots = 1
					add_building_construction = {
						type = industrial_complex
						level = 1
						instant_build = yes
					}
				}
			}
		}
		
	}
	focus = {
		id = SAF_Revive_the_Agricultural_Sector
		icon = GFX_GENERIC_Support_for_Agriculture
		cost = 70.00
		prerequisite = {
			focus = SAF_South_African_Party_Victory
		}
		x = 1
		y = 1
		relative_position_id = SAF_South_African_Party_Victory
		available = {
			719 = {
				is_owned_and_controlled_by = ROOT
			}
		}
		completion_reward = {
			719 = {
				if = {
					limit = {
						free_building_slots = {
							building = industrial_complex
							size > 0
							include_locked = yes
						}
					}
					add_extra_state_shared_building_slots = 1
					add_building_construction = {
						type = industrial_complex
						level = 1
						instant_build = yes
					}
				}
			}
			custom_effect_tooltip = SAF_Revive_the_Agricultural_Sector_tt
			hidden_effect = {
				add_to_variable = {
					saf_agricultural_stability_factor = 0.05
				}
				force_update_dynamic_modifier = yes
			}
		}
		
	}
	focus = {
		id = SAF_Merger_with_the_Nationalists
		icon = GFX_SAF_United_Party_Merger
		cost = 70.00
		prerequisite = {
			focus = SAF_Reconcile_with_the_States
		}
		prerequisite = {
			focus = SAF_Revive_the_Agricultural_Sector
		}
		x = 1
		y = 1
		relative_position_id = SAF_Reconcile_with_the_States
		completion_reward = {
			add_stability = 0.10
		}
		
	}
	focus = {
		id = SAF_Connect_the_Rurals
		icon = GFX_GENERIC_Road_Construction
		cost = 70.00
		prerequisite = {
			focus = SAF_Merger_with_the_Nationalists
		}
		x = -1
		y = 1
		relative_position_id = SAF_Merger_with_the_Nationalists
		completion_reward = {
			every_owned_state = {
				limit = {
					free_building_slots = {
						building = infrastructure
						size > 1
					}
				}
				add_building_construction = {
					type = infrastructure
					level = 2
					instant_build = yes
				}
			}
			add_stability = 0.05
		}
		
	}
	focus = {
		id = SAF_Encourage_Privatisation
		icon = GFX_GENERIC_Support_Privatization
		cost = 70.00
		prerequisite = {
			focus = SAF_Merger_with_the_Nationalists
		}
		x = 1
		y = 1
		relative_position_id = SAF_Merger_with_the_Nationalists
		completion_reward = {
			add_timed_idea = {
				idea = SAF_privatization_efforts
				days = 180
			}
		}
		
	}
	focus = {
		id = SAF_Abolish_Property_Discrimination
		icon = GFX_GENERIC_Dissolve_the_Parliament
		cost = 70.00
		prerequisite = {
			focus = SAF_Merger_with_the_Nationalists
		}
		x = 3
		y = 1
		relative_position_id = SAF_Merger_with_the_Nationalists
		completion_reward = {
			add_political_power = 100
		}
		
	}
	focus = {
		id = SAF_Healthcare_Investments
		icon = GFX_GENERIC_Health_Care_Investement
		cost = 70.00
		prerequisite = {
			focus = SAF_Connect_the_Rurals
		}
		prerequisite = {
			focus = SAF_Encourage_Privatisation
		}
		x = 1
		y = 1
		relative_position_id = SAF_Connect_the_Rurals
		completion_reward = {
			add_stability = 0.05
			random_owned_state = {
				limit = {
					is_owned_and_controlled_by = ROOT
					free_building_slots = {
						building = industrial_complex
						size > 0
						include_locked = yes
					}
				}
				add_extra_state_shared_building_slots = 1
				add_building_construction = {
					type = industrial_complex
					level = 1
					instant_build = yes
				}
			}
		}
		
	}
	focus = {
		id = SAF_Extend_Pensions_and_Grants
		icon = GFX_GENERIC_Anti_Poverty_Campaign
		cost = 70.00
		prerequisite = {
			focus = SAF_Abolish_Property_Discrimination
		}
		x = -1
		y = 1
		relative_position_id = SAF_Abolish_Property_Discrimination
		completion_reward = {
			add_ideas = SAF_extended_pensions
		}
		
	}
	focus = {
		id = SAF_Bring_Natives_into_Factories
		icon = GFX_focus_CZE_german_puppet
		cost = 70.00
		prerequisite = {
			focus = SAF_Connect_the_Rurals
		}
		x = 0
		y = 2
		relative_position_id = SAF_Connect_the_Rurals
		completion_reward = {
			add_ideas = SAF_natives_in_factories
		}
		
	}
	focus = {
		id = SAF_Reform_the_Party
		icon = GFX_GENERIC_Cabinet
		cost = 70.00
		prerequisite = {
			focus = SAF_Healthcare_Investments
		}
		prerequisite = {
			focus = SAF_Extend_Pensions_and_Grants
		}
		x = 1
		y = 1
		relative_position_id = SAF_Healthcare_Investments
		completion_reward = {
			add_war_support = 0.10
			random_owned_state = {
				limit = {
					is_owned_and_controlled_by = ROOT
					free_building_slots = {
						building = industrial_complex
						size > 0
						include_locked = yes
					}
				}
				add_extra_state_shared_building_slots = 1
				add_building_construction = {
					type = industrial_complex
					level = 1
					instant_build = yes
				}
			}
			random_owned_state = {
				limit = {
					is_owned_and_controlled_by = ROOT
					free_building_slots = {
						building = industrial_complex
						size > 0
						include_locked = yes
					}
				}
				add_extra_state_shared_building_slots = 1
				add_building_construction = {
					type = industrial_complex
					level = 1
					instant_build = yes
				}
			}
		}
		
	}
	focus = {
		id = SAF_Treat_the_Depression_Sorrows
		icon = GFX_GENERIC_Depression
		cost = 70.00
		prerequisite = {
			focus = SAF_Merger_with_the_SAP
			focus = SAF_Merger_with_the_Nationalists
		}
		x = 5
		y = 1
		relative_position_id = SAF_Merger_with_the_SAP
		completion_reward = {
			add_political_power = 150
			add_stability = 0.10
		}
		
	}
	focus = {
		id = SAF_Exploit_the_Witwatersrand_Basin
		icon = GFX_goal_generic_construction2
		cost = 70.00
		prerequisite = {
			focus = SAF_Treat_the_Depression_Sorrows
		}
		x = -2
		y = 1
		relative_position_id = SAF_Treat_the_Depression_Sorrows
		completion_reward = {
			custom_effect_tooltip = SAF_Exploit_the_Witwatersrand_Basin_tt
			hidden_effect = {
				subtract_from_variable = {
					saf_depression_consumer_factor = 0.05
				}
				force_update_dynamic_modifier = yes
			}
		}
		
	}
	focus = {
		id = SAF_Form_the_Anglovaal_Group
		icon = GFX_GENERIC_Nationalize_Industry
		cost = 70.00
		prerequisite = {
			focus = SAF_Treat_the_Depression_Sorrows
		}
		x = 0
		y = 1
		relative_position_id = SAF_Treat_the_Depression_Sorrows
		completion_reward = {
			
		}
		
	}
	focus = {
		id = SAF_Mines_on_the_Orange_River
		icon = GFX_focus_generic_steel
		cost = 70.00
		prerequisite = {
			focus = SAF_Treat_the_Depression_Sorrows
		}
		x = 2
		y = 1
		relative_position_id = SAF_Treat_the_Depression_Sorrows
		completion_reward = {
			add_tech_bonus = {
				bonus = 1
				uses = 2
				category = industry
			}
		}
		
	}
	focus = {
		id = SAF_Market_Security_Haven
		icon = GFX_goal_generic_positive_trade_relations
		cost = 70.00
		prerequisite = {
			focus = SAF_Form_the_Anglovaal_Group
		}
		prerequisite = {
			focus = SAF_Exploit_the_Witwatersrand_Basin
		}
		prerequisite = {
			focus = SAF_Mines_on_the_Orange_River
		}
		x = 0
		y = 1
		relative_position_id = SAF_Form_the_Anglovaal_Group
		completion_reward = {
			custom_effect_tooltip = SAF_Market_Security_Haven_tt
			hidden_effect = {
				subtract_from_variable = {
					saf_depression_consumer_factor = 0.10
				}
				force_update_dynamic_modifier = yes
			}
			add_stability = 0.10
			add_offsite_building = {
				type = industrial_complex
				level = 2
			}
		}
		
	}
	focus = {
		id = SAF_Commission_New_Steel_Mills
		icon = GFX_goal_generic_construct_civ_factory
		cost = 70.00
		prerequisite = {
			focus = SAF_Market_Security_Haven
		}
		x = -2
		y = 1
		relative_position_id = SAF_Market_Security_Haven
		available = {
			681 = {
				is_owned_and_controlled_by = ROOT
			}
		}
		completion_reward = {
			681 = {
				add_resource = {
					type = steel
					amount = 24
				}
			}
		}
		
	}
	focus = {
		id = SAF_Help_out_the_Protectorates
		icon = GFX_GENERIC_Money
		cost = 70.00
		prerequisite = {
			focus = SAF_Market_Security_Haven
		}
		x = 0
		y = 1
		relative_position_id = SAF_Market_Security_Haven
		available = {
			800 = {
				is_owned_and_controlled_by = ROOT
			}
			799 = {
				is_owned_and_controlled_by = ROOT
			}
		}
		completion_reward = {
			800 = {
				if = {
					limit = {
						free_building_slots = {
							building = industrial_complex
							size > 0
							include_locked = yes
						}
					}
					add_extra_state_shared_building_slots = 1
					add_building_construction = {
						type = industrial_complex
						level = 1
						instant_build = yes
					}
				}
			}
			799 = {
				if = {
					limit = {
						free_building_slots = {
							building = industrial_complex
							size > 0
							include_locked = yes
						}
					}
					add_extra_state_shared_building_slots = 1
					add_building_construction = {
						type = industrial_complex
						level = 1
						instant_build = yes
					}
				}
			}
		}
		
	}
	focus = {
		id = SAF_Build_up_Arms_Stockpiles
		icon = GFX_goal_generic_construct_mil_factory
		cost = 70.00
		prerequisite = {
			focus = SAF_Market_Security_Haven
		}
		x = 2
		y = 1
		relative_position_id = SAF_Market_Security_Haven
		completion_reward = {
			random_owned_state = {
				limit = {
					is_owned_and_controlled_by = ROOT
					free_building_slots = {
						building = arms_factory
						size > 0
						include_locked = yes
					}
				}
				add_extra_state_shared_building_slots = 1
				add_building_construction = {
					type = arms_factory
					level = 1
					instant_build = yes
				}
			}
			random_owned_state = {
				limit = {
					is_owned_and_controlled_by = ROOT
					free_building_slots = {
						building = arms_factory
						size > 0
						include_locked = yes
					}
				}
				add_extra_state_shared_building_slots = 1
				add_building_construction = {
					type = arms_factory
					level = 1
					instant_build = yes
				}
			}
			add_equipment_to_stockpile = {
				type = infantry_equipment
				amount = 2000
			}
		}
		
	}
	focus = {
		id = SAF_The_Economy_Survives
		icon = GFX_GENERIC_Stimulus_Plan
		cost = 70.00
		prerequisite = {
			focus = SAF_Commission_New_Steel_Mills
		}
		prerequisite = {
			focus = SAF_Help_out_the_Protectorates
		}
		prerequisite = {
			focus = SAF_Build_up_Arms_Stockpiles
		}
		x = 9
		y = 8
		completion_reward = {
			add_stability = 0.20
			add_war_support = 0.15
			remove_dynamic_modifier = {
				modifier = SAF_great_depression
			}
		}
		
	}
	focus = {
		id = SAF_Better_Equipment_for_the_Troops
		icon = GFX_goal_generic_military_sphere
		cost = 70.00
		prerequisite = {
			focus = SAF_Face_our_Enemies_Head_On
		}
		x = 2
		y = 1
		relative_position_id = SAF_Face_our_Enemies_Head_On
		completion_reward = {
			add_tech_bonus = {
				uses = 2
				bonus = 0.5
				category = infantry_weapons
				category = support_tech
			}
		}
		
	}
	focus = {
		id = SAF_Comission_Trucks_from_Ford
		icon = GFX_HUN_The_Botond
		cost = 70.00
		prerequisite = {
			focus = SAF_Desert_Warfare
		}
		prerequisite = {
			focus = SAF_Better_Equipment_for_the_Troops
		}
		x = 1
		y = 1
		relative_position_id = SAF_Desert_Warfare
		completion_reward = {
			set_technology = {
				truck_1936 = 1
			}
			add_equipment_to_stockpile = {
				type = truck_equipment_1936
				amount = 200
				producer = SAF
			}
		}
		
	}
	focus = {
		id = SAF_Engineering_Batallions
		icon = GFX_goal_generic_build_tank
		cost = 70.00
		prerequisite = {
			focus = SAF_Better_Equipment_for_the_Troops
		}
		x = 1
		y = 1
		relative_position_id = SAF_Better_Equipment_for_the_Troops
		completion_reward = {
			add_tech_bonus = {
				uses = 1
				bonus = 0.5
				category = engineers_tech
			}
			add_ideas = SAF_engineering_corps
		}
		
	}
	focus = {
		id = SAF_Integrate_the_Tank_Batallions
		icon = GFX_goal_generic_army_tanks
		cost = 70.00
		prerequisite = {
			focus = SAF_Comission_Trucks_from_Ford
		}
		x = -1
		y = 1
		relative_position_id = SAF_Comission_Trucks_from_Ford
		available = {
			ENG = {
				has_equipment = {
					armor_equipment > 49
				}
				OR = {
					has_tech = Medium_Tank_1939
					has_tech = Medium_Tank_1941
				}
			}
		}
		completion_reward = {
			send_equipment = {
				equipment = armor_equipment
				amount = 50
				target = SAF
			}
		}
		
	}
	focus = {
		id = SAF_Motorized_Artillery
		icon = GFX_goal_generic_army_artillery2
		cost = 70.00
		prerequisite = {
			focus = SAF_Comission_Trucks_from_Ford
		}
		prerequisite = {
			focus = SAF_Engineering_Batallions
		}
		x = 1
		y = 1
		relative_position_id = SAF_Comission_Trucks_from_Ford
		completion_reward = {
			add_equipment_to_stockpile = {
				type = truck_equipment_1936
				amount = 300
				producer = SAF
			}
			add_tech_bonus = {
				uses = 1
				bonus = 0.10
				category = artillery
			}
		}
		
	}
	focus = {
		id = SAF_Bring_the_Heat
		icon = GFX_GENERIC_Superior_Firepower
		cost = 70.00
		prerequisite = {
			focus = SAF_Integrate_the_Tank_Batallions
		}
		prerequisite = {
			focus = SAF_Motorized_Artillery
		}
		x = 1
		y = 1
		relative_position_id = SAF_Integrate_the_Tank_Batallions
		completion_reward = {
			add_tech_bonus = {
				uses = 3
				bonus = 1
				category = cat_superior_firepower
				category = cat_medium_armor
			}
		}
		
	}
}
