sub_units = {
	heavy_cruiser = {
		sprite = heavy_cruiser
		map_icon_category = ship
		priority = 6
		active = yes
		type = { capital_ship }
		need = { CA_equipment = 1 }
		
		max_organisation = 40

		
		supply_consumption = 0.1
	}

}
