
state={
	id=1008
	name="STATE_1008"

	history={
		owner = FRA
		victory_points = {
			13311 2
		}
		buildings = {
			infrastructure = 2

		}
		add_core_of = LEB
		1950.1.1 = {
			owner = LEB

		}

	}

	provinces={
		13311 13312 
	}
	manpower=120000
	buildings_max_level_factor=1.000
	state_category=pastoral
}
