state={
	id=1013
	name="STATE_1013"
	
	history={
		owner = IRQ
		victory_points = {
			6826 2
		}
		buildings = {
			infrastructure = 2

		}
		add_core_of = IRQ

	}
	
	provinces={
		6826 13333 13337 13342 
	}
	manpower=676500
	buildings_max_level_factor=1.000
	state_category=rural
}
