state={
	id=1031
	name="STATE_1031"
	
	history={
		owner = ENG
		victory_points = {
			7001 2 
		}
		buildings = {
			infrastructure = 2

		}
		add_core_of = JOR
		1950.1.1 = {
			owner = JOR

		}

	}
	
	provinces={
		1544 4440 7001 
	}
	manpower=580000
	buildings_max_level_factor=1.000
	state_category=pastoral
}
