state={
	id=1037
	name="STATE_1037"
	
	history={
		owner = POR
		victory_points = {
			6880 2
		}
		buildings = {
			infrastructure = 4
			industrial_complex = 1
			3790 = {
				naval_base = 2

			}

		}
		add_core_of = POR
	}
	
	provinces={
		3790 6880 
	}
	manpower=451006
	buildings_max_level_factor=1.000
	state_category=rural
}
