state={
	id=1069
	name="STATE_1069"
	
	history={
		owner = YEM
	    victory_points = {
			13553 2
		}
		buildings = {
			infrastructure = 3
			industrial_complex = 1
			13553 = {
				naval_base = 1

			}

		}
		add_core_of = YEM

	}
	
	provinces={
		13553 13557 
	}
	manpower=402560
	buildings_max_level_factor=1.000
	state_category=rural
}
