state={
	id=1070
	name="STATE_1070"
	
	history={
		owner = YEM
	    victory_points = {
			13552 2
		}
		buildings = {
			infrastructure = 2

		}
		add_core_of = YEM

	}
	
	provinces={
		1973 10752 13552 
	}
	manpower=2612222
	buildings_max_level_factor=1.000
	state_category=rural
}
