state={
	id=1081
	name="STATE_1081"
	
	history={
		owner = SAU
		victory_points = {
			12702 3
		}
		buildings = {
			infrastructure = 3
			12702 = {
				naval_base = 6

			}

		}
		add_core_of = SAU

	}
	
	provinces={
		5024 5081 10791 12702 12768 13592 
	}
	manpower=903000
	buildings_max_level_factor=1.000
	state_category=town
}
