state={
	id=1104
	name="STATE_1104"
	
	history={
		owner = FRA
		victory_points = {
			12834 2
		}
		victory_points = {
			13628 1
		}
		buildings = {
			infrastructure = 2

		}
		add_core_of = SEN
		1941.6.20 = {
			owner = VIC

		}
		1942.11.22 = {
			owner = FRA

		}
		1972.1.1 = {
			owner = SEN

		}

	}
	
	provinces={
		2100 12834 13627 13628 
	}
	manpower=205294
	buildings_max_level_factor=1.000
	state_category=pastoral
}
