
state={
	id=139
	name="STATE_139"
	resources={
		steel=7.000
	}

	history={
		owner = SWE
		victory_points = {
			9393 2
		}
		victory_points = {
			11380 1 
		}
		victory_points = {
			9329 1
		}
		victory_points = {
			242 1
		}
		victory_points = {
			299 1
		}
		buildings = {
			infrastructure = 5
			industrial_complex = 2
			air_base = 2
			11380 = {
				naval_base = 1

			}

		}
		add_core_of = SWE

	}

	provinces={
		211 242 299 329 363 3229 6148 6311 6397 9251 9308 9329 9393 9406 9410 11231 11280 11289 11311 11380 11390 13095 
	}
	manpower=918593
	buildings_max_level_factor=1.000
	state_category=town
}
