state=
{
	id=164
	name="STATE_164"
	manpower = 120000
	
	state_category = small_island
	
	history=
	{
		owner = ITA
		victory_points = {
			10007 1 
		}
		buildings = {
			infrastructure = 5
			air_base = 1
			10007 = {
				naval_base = 4
			}
			7003 = {
				naval_base = 1
			}
		}
		add_core_of = GRE
		1946.1.1 = {
			owner = ENG
			controller = ENG
		}
		1950.1.1 = {
			owner = GRE
			controller = GRE
		}
	}
	provinces=
	{
7003 10007 	}
}
