
state={
	id=269
	name="STATE_269"

	history={
		owner = ENG
		victory_points = {
		    5068 2
		}
		victory_points = {
		    1905 1
		}
		victory_points = {
		    10833 1
		}
		buildings = {
			infrastructure = 3
			12759 = {
				naval_base = 1

			}

		}
		add_core_of = SOM
		1941.6.22 = {
			owner = ENG
			controller = ITA

		}
		1942.11.22 = {
			owner = ENG
			controller = ENG

		}
		1972.1.1 = {
			owner = SOM
			controller = SOM

		}

	}

	provinces={
		1905 5068 8094 10777 10833 10921 12759 12814 13428 13429 13431 13433 13435 
	}
	manpower=344700
	buildings_max_level_factor=1.000
	state_category=enclave
}
