
state={
	id=308
	name="STATE_308"

	history={
		owner = ENG
		buildings = {
			infrastructure = 4
			7123 = {
				naval_base = 1

			}

		}

	}

	provinces={
		7123 
	}
	manpower=51100
	buildings_max_level_factor=1.000
	state_category=small_island
}
