
state={
	id=381
	name="STATE_381"

	history={
		owner = USA
		victory_points = {
			10640 1 
		}
		victory_points = {
			4723 1 
		}
		buildings = {
			infrastructure = 3

		}
		add_core_of = USA

	}

	provinces={
		1815 4610 4723 4794 4820 7688 7814 7888 10640 10711 12561 12633 12651 
	}
	manpower=225564
	buildings_max_level_factor=1.000
	state_category=rural
}
