
state={
	id=44
	name="STATE_44"
	resources={
		aluminium=2.000
		chromium=2.000
		oil=1.000
	}

	history={
		owner = ALB
		victory_points = {
			9914 5
		}
		victory_points = {
			11767 3
		}
		victory_points = {
			9780 2
		}
		buildings = {
			infrastructure = 3
			arms_factory = 1
			industrial_complex = 1
			air_base = 3
			11767 = {
				naval_base = 4

			}

		}
		add_core_of = ALB
		1939.9.1 = {
			owner = ITA

		}
		1944.6.20 = {
			owner = GER

		}
		1946.1.1 = {
			owner = ALB

		}

	}

	provinces={
		3884 3896 9780 9875 9914 11762 11767 13358 
	}
	manpower=1003000
	buildings_max_level_factor=1.000
	state_category=town
}
