
state={
	id=501
	name="STATE_501"

	history={
		owner = BRA
		add_core_of = BRA
		buildings = {
			arms_factory = 1
			industrial_complex = 3
			infrastructure = 5

		}
		victory_points = {
			10513 14 
		}

	}

	provinces={
		1583 2167 2185 5186 7476 7636 8148 8210 10360 10513 10945 10947 10994 11003 11008 12438 12479 12937 12972 12977 
	}
	manpower=6199200
	buildings_max_level_factor=1.000
	state_category=city
}
