
state={
	id=694
	name="STATE_694"

	history={
		owner = FRA
		buildings = {
			infrastructure = 4
			air_base = 1
			9377 = {
				naval_base = 1

			}

		}

	}

	provinces={
		9377 
	}
	manpower=209999
	buildings_max_level_factor=1.000
	state_category=small_island
}
