state={
	id=706
	name="STATE_706"
	manpower = 186637
	
	state_category = small_island

	history={
		owner = FRA
		victory_points = {
			13017 1
		}
		buildings = {
			infrastructure = 3
			13017 = {
				naval_base = 1
			}
		}
	}

	provinces={
		13017 
	}
}
