
state={
	id=709
	name="STATE_709"

	history={
		owner = ENG
		victory_points = {
			2188 1
		}
		buildings = {
			infrastructure = 3
			2188 = {
				naval_base = 1

			}

		}

	}

	provinces={
		2188 
	}
	manpower=126703
	buildings_max_level_factor=1.000
	state_category=small_island
}
