
state={
	id=715
	name="STATE_715"

	history={
		owner = MAN
		add_core_of = CHI
		add_core_of = MAN
		add_core_of = PRC
		buildings = {
			infrastructure = 3
			arms_factory = 1
			industrial_complex = 1

		}
		victory_points = {
			930 1 
		}
		1946.1.1 = {
			owner = PRC
			controller = PRC
		}
	}

	provinces={
		887 916 930 1499 1502 1558 1627 1638 3877 3913 4561 4633 4642 7812 9831 11836 11903 12337 12469 12485 
	}
	manpower=3643373
	buildings_max_level_factor=1.000
	state_category=town
}
