
state={
	id=718
	name="STATE_718"
	resources={
		rubber=5.000
	}

	history={
		owner = BEL
		buildings = {
			infrastructure = 2

		}
		add_core_of = COG
		1944.6.20 = {
			owner = BEL
			controller = BEL
		}
		1972.1.1 = {
			owner = COG
		}
	}

	provinces={
		1181 1950 2034 2073 2154 4201 4941 6027 7161 10766 11934 12783 12808 12847 13176 
	}
	manpower=6229078
	buildings_max_level_factor=1.000
	state_category=pastoral
}
