
state={
	id=732
	name="STATE_732"

	history={
		owner = SOV
		victory_points = {
			4768 2
		}
		buildings = {
			infrastructure = 1

		}
		add_core_of = SOV
		add_core_of = KYR
		1939.9.1 = {
			set_province_name = { id = 4768 name = "Przhevalsk" }
			
		}
		2000.1.1 = {
			owner = KYR
			remove_core_of = SOV
			set_province_name = { id = 4768 name = "Karakol" }
			
		}
	}

	provinces={
		1591 1675 1825 4316 4391 4768 5062 12370 12511 13147 
	}
	manpower=230000
	buildings_max_level_factor=1.000
	state_category=wasteland
}
