
state={
	id=781
	name="STATE_781"

	history={
		owner = USA
		victory_points = {
			11830 2 
		}
		buildings = {
			infrastructure = 6
			industrial_complex = 1
			11830 = {
				naval_base = 2

			}

		}
		add_core_of = USA

	}

	provinces={
		11830 
	}
	manpower=686000
	buildings_max_level_factor=1.000
	state_category=rural
}
