
state={
	id=814
	name="STATE_814"

	history={
		owner = ITA
		victory_points = {
			599 1
		}
		buildings = {
			infrastructure = 3

		}
		add_core_of = ITA
		add_core_of = YUG
		1944.6.20 = {
			owner = GER

		}
		1946.1.1 = {
			owner = YUG

		}
		2000.1.1 = {
			owner = SLV

		}

	}

	provinces={
		599 11595 
	}
	manpower=327000
	buildings_max_level_factor=1.000
	state_category=rural
}
