
state={
	id=824
	name="STATE_824"

	history={
		owner = ENG
		victory_points = {
			13214 10 
		}
		buildings = {
			infrastructure = 4
			industrial_complex = 1
			air_base = 2

		}
		add_core_of = PAL
		add_core_of = ISR
		1950.1.1 = {
			owner = ISR
		}
	}

	provinces={
		13214 
	}
	manpower=324000
	buildings_max_level_factor=1.000
	state_category=rural
}
