
state={
	id=845
	name="STATE_845"

	history={
		owner = FRA
		buildings = {
			infrastructure = 0

		}
		add_core_of = FRA
		add_core_of = MLI
		1941.6.20 = {
			owner = VIC
		}
		1942.11.22 = {
			owner = FRA
		}
		1972.1.1 = {
			owner = MLI
		}
	}

	provinces={
		1115 
	}
	manpower=26000
	buildings_max_level_factor=1.000
	state_category=wasteland
	impassable=yes
}
