
state={
	id=858
	name="STATE_858"

	history={
		owner = ITA
		victory_points = {
			11837 15 
		}
		victory_points = {
			9784 5
		}
		victory_points = {
			883 3
		}
		buildings = {
			infrastructure = 5
			dockyard = 3
			air_base = 5
			11837 = {
				naval_base = 10

			}
			11998 = {
				naval_base = 2

			}

		}
		add_core_of = ITA
		1939.1.1 = {
			buildings = {
				dockyard = 4

			}

		}

	}

	provinces={
		883 6843 6939 6979 6980 9784 11837 11998 
	}
	manpower=2642000
	buildings_max_level_factor=1.000
	state_category=town
}
