
state={
	id=899
	name="STATE_899"

	history={
		owner = ENG
		victory_points = {
			2029 2
		}
		buildings = {
			infrastructure = 2

		}
		add_core_of = YEM
		add_core_of = PRY
		1972.1.1 = {
			owner = PRY

		}
		1991.1.1 = {
			owner = YEM

		}

	}

	provinces={
		2029 4976 12894 13079 13554 13558 13559 13562 13566 
	}
	manpower=300000
	buildings_max_level_factor=1.000
	state_category=pastoral
}
