state={
	id=907
	name="STATE_907"
	history={
		owner = MON
		add_core_of = MON
		buildings = {
			infrastructure = 2
			industrial_complex = 1
		}
	}
	provinces={
		1791 1834 4882 7676 7717 12579 
	}
	manpower=31300
	buildings_max_level_factor=1.000
	state_category=town
}
