state={
	id=931
	name="STATE_931"
	
	history={
		owner = ENG
		buildings = {
			infrastructure = 3
			13009 = {
				naval_base = 1

			}

		}

	}
	
	provinces={
		13009 
	}
	manpower=82782
	buildings_max_level_factor=1.000
	state_category=tiny_island
}
