state={
	id=946
	name="STATE_946"
	
	history={
		owner = FRA
		victory_points = {
			1074 2
		}
		buildings = {
			infrastructure = 2

		}
		add_core_of = SYR
		1950.1.1 = {
			owner = SYR

		}
		1960.1.1 = {
			owner = EGY

		}
		1972.1.1 = {
			owner = SYR

		}

	}
	
	provinces={
		1074 10907 
	}
	manpower=98500
	buildings_max_level_factor=1.000
	state_category=wasteland
}
