state={
	id=954
	name="STATE_954"
	
	history={
		owner = SPR
		add_core_of = MOR
		victory_points = {
			8038 1
		}
		buildings = {
			infrastructure = 2

		}
		1939.9.1 = {
			owner = SPA
		}		
		1980.1.1 = {
			owner = MOR

		}

	}
	
	provinces={
		8038 
	}
	manpower=26277
	buildings_max_level_factor=1.000
	state_category=wasteland
}
