
state={
	id=97
	name="STATE_97"

	history={
		owner = POL
		victory_points = {
			3393 1 
		}
		buildings = {
			infrastructure = 5
			industrial_complex = 1
			air_base = 3

		}
		add_core_of = POL
		1940.5.10 = {
			owner = SOV
			controller = SOV
		}
		1944.6.20 = {
			owner = POL
			controller = GER
		}
		1946.1.1 = {
			owner = POL
			controller = POL
		}
	}

	provinces={
		290 347 400 11247 11274 11301 11329 11357 
	}
	manpower=1461010
	buildings_max_level_factor=1.000
	state_category=rural
}
