
state={
	id=999
	name="STATE_999"

	history={
		owner = VIN
		victory_points = {
		    4302 3
		}
		victory_points = {
		    4639 2
		}
		buildings = {
			infrastructure = 2

		}
		add_core_of = CAM
		1942.11.22 = {
			owner = JAP
			controller = JAP

		}
		1946.1.1 = {
			owner = VIN
			controller = VIN

		}
		1956.1.1 = {
			owner = CAM
			controller = CAM

		}

	}

	provinces={
		1324 4302 4639 5236 12447 12475 
	}
	manpower=139458
	buildings_max_level_factor=1.000
	state_category=rural
}
