#	Example:
# 
#	example_trigger = {
#		tag = GER
#		is_ai = no
#	}
#
#
#	In a script file:
#
#	trigger = {
#		exampel_trigger = yes
#	}
#
can_lose_unity = {
	has_stability > 60
	OR = {
		has_war = no
		AND = {
			has_war = yes
			surrender_progress < 0.1
		}
	}
}

can_lose_democracy_support = {
	communist < 0.18
	fascist < 0.18
	democratic > 0.65
}