﻿division_template = {
	name = "Brigada de Infanteria"	# Mostly a reserve force with outdated equipment

	regiments = {
		infantry = { x = 0 y = 0 }
		infantry = { x = 0 y = 1 }
		infantry = { x = 1 y = 0 }
		infantry = { x = 1 y = 1 }
	}
}

units = {
	##### Ejército de Honduras  #####
	division= {	
		name = "Ejército de Honduras"
		location = 12865 # Tegucigalpa
		division_template = "Brigada de Infanteria"
		start_experience_factor = 0.1
		start_equipment_factor = 0.2

	}
}

instant_effect = {
	add_equipment_production = {
		equipment = {
			type = Small_Arms_equipment_1900
			creator = "HON"
		}
		requested_factories = 1
		progress = 0.66
		efficiency = 100
	}
}