﻿##### Division Templates #####
division_template = {
	name = "División de Infantería" 		# Used for both regular infantry divisions and larger garrison divisions
	# Note: Spanish divisions were 2x brigades of 2x2 rgts each, + support
	regiments = {
		infantry = { x = 0 y = 0 }
		infantry = { x = 0 y = 1 }
		infantry = { x = 0 y = 2 }
		infantry = { x = 0 y = 3 }
		infantry = { x = 1 y = 0 }
		infantry = { x = 1 y = 1 }
		infantry = { x = 1 y = 2 }
		infantry = { x = 1 y = 3 }
	}
	support = {
		artillery = { x = 0 y = 0 }  # Spanish Arty Rgt/Bge had 2 Bn 105mm arty
		engineer = { x = 0 y = 1 }   # Eng Bn
	}
}
division_template = {
	name = "Brigada de Infantería" 		# Infantry Brigade - Used for smaller garrison units
	regiments = {
		infantry = { x = 0 y = 0 }	
		infantry = { x = 0 y = 1 }	
		infantry = { x = 1 y = 0 }	
		infantry = { x = 1 y = 1 }	
	}
	support = {
		engineer = { x = 0 y = 0 }   # Eng Bn
	}
}
division_template = {
	name = "División de Caballería"  		# Only one Cavalry Division (3x bge of 2x2 Rgts)

	regiments = {
		cavalry = { x = 0 y = 0 }
		cavalry = { x = 0 y = 1 }
		cavalry = { x = 0 y = 2 }
		cavalry = { x = 0 y = 3 }
		cavalry = { x = 1 y = 0 }
		cavalry = { x = 1 y = 1 }
		cavalry = { x = 1 y = 2 }
		cavalry = { x = 1 y = 3 }
		cavalry = { x = 2 y = 0 }
		cavalry = { x = 2 y = 1 }
		cavalry = { x = 2 y = 2 }
		cavalry = { x = 2 y = 3 }
	}
	support = {
		recon = { x = 0 y = 0 }      # Recon consisted of motorcycles and ACs
	}
}
division_template = {
	name = "Brigada Montaña"  		# Mountain Brigades were 2x2 Rgts + support

	regiments = {
		mountaineers = { x = 0 y = 0 }	
		mountaineers = { x = 0 y = 1 }
		mountaineers = { x = 1 y = 0 }
		mountaineers = { x = 1 y = 1 }
	}
	support = {
		artillery = { x = 0 y = 0 }  # Spanish Arty Rgt/Bge had 2 Bn 105mm arty
	}
}


###### OOB ######
units = {
	#####LAND UNITS #####
	### MAINLAND UNITS ###
	division = {			
		name = "1a División de Infantería"		
		location = 3938  # Madrid
		division_template = "División de Infantería"
		start_experience_factor = 0.2
		start_equipment_factor = 0.8

	}			
	division = {			
		name = "2a División de Infantería"		
		location = 7183  # Sevilla
		division_template = "División de Infantería"
		start_experience_factor = 0.2
		start_equipment_factor = 0.8

	}			
	division = {			
		name = "3a División de Infantería"		
		location = 6906  # Valencia
		division_template = "División de Infantería"
		start_experience_factor = 0.2
		start_equipment_factor = 0.8

	}			
	division = {			
		name = "4a División de Infantería"		
		location = 9764  # Barcelona
		division_template = "División de Infantería"
		start_experience_factor = 0.2
		start_equipment_factor = 0.8

	}			
	division = {			
		name = "5a División de Infantería"		
		location = 3816  # Zaragosa
		division_template = "División de Infantería"
		start_experience_factor = 0.2
		start_equipment_factor = 0.8

	}			
	division = {			
		name = "6a División de Infantería"		
		location = 885  # Burgos
		division_template = "División de Infantería"
		start_experience_factor = 0.2
		start_equipment_factor = 0.8

	}			
	division = {			
		name = "7a División de Infantería"		
		location = 11825  # Valladolid
		division_template = "División de Infantería"
		start_experience_factor = 0.2
		start_equipment_factor = 0.8

	}			
	division = {			
		name = "8a División de Infantería"		
		location = 758  # La Coruña
		division_template = "División de Infantería"
		start_experience_factor = 0.2
		start_equipment_factor = 0.8

	}			

	division = {			
		name = "1a División de Caballería"		
		location = 9764  # Barcelona
		division_template = "División de Caballería"
		start_experience_factor = 0.2
		start_equipment_factor = 0.8

	}			

	division = {			
		name = "1a Brigada Montaña"		
		location = 13071  # Canary Islands
		division_template = "Brigada Montaña"
		start_experience_factor = 0.2
		start_equipment_factor = 0.8

	}			
	division = {			
		name = "2a Brigada Montaña"		
		location = 740  #Bilbao
		division_template = "Brigada Montaña"
		start_experience_factor = 0.2
		start_equipment_factor = 0.8

	}			
	division = {			
		name = "Brigada Mixta Montaña"		
		location = 11707  #Oviedo
		division_template = "Brigada Montaña"
		start_experience_factor = 0.2
		start_equipment_factor = 0.8

	}			

	division = {			
		name = "Brigada de Arma de Infantería"		
		location = 1048  #Cádiz
		division_template = "Brigada de Infantería"
		start_experience_factor = 0.2
		start_equipment_factor = 0.8

	}			


	### Island Garrisons ###
	division = {			
		name = "Comandancia de Baleares"		
		location = 9793  #Mallorca
		division_template = "Brigada de Infantería"		# garrison division, lower equipment, experience
		force_equipment_variants = { Small_Arms_equipment_1900 = { owner = "SPR" } }
		start_experience_factor = 0.1
		start_equipment_factor = 0.5

	}			
	division = {			
		name = "Comandancia de Canarias"		
		location = 13071  # Canary Islands
		division_template = "Brigada de Infantería"		# garrison division, lower equipment, experience
		force_equipment_variants = { Small_Arms_equipment_1900 = { owner = "SPR" } }
		start_experience_factor = 0.1
		start_equipment_factor = 0.5

	}			


	### Ejército de África ###
	division = {			
		name = "Circunscripción Occidental"		
		location = 9945  #Ceuta
		division_template = "División de Infantería"		# garrison division, lower equipment, experience
		start_experience_factor = 0.1
		start_equipment_factor = 0.8

	}			
	division = {			
		name = "Circunscripción Oriental"		
		location = 12100  #Melilla
		division_template = "División de Infantería"		# garrison division, lower equipment, experience
		start_experience_factor = 0.1
		start_equipment_factor = 0.8

	}			


	##### NAVAL UNITS #####

	navy = {
		name = "Base Naval Cádiz"
		base = 1048
		location = 1048  #Cádiz
		ship = { name = "ARE República" definition = light_cruiser equipment = { CL_equipment_1922 = { amount = 1 owner = SPR } } }
		ship = { name = "Flotilla de Destructores No. 3" definition = destroyer equipment = { DD_equipment_1922 = { amount = 1 owner = SPR } } }
	}
	navy = {
		name = "ARE Méndez Núñez"
		base = 758
		location = 758  #Coruna
		ship = { name = "ARE Méndez Núñez" definition = light_cruiser equipment = { CL_equipment_1922 = { amount = 1 owner = SPR } } }
	}	
	navy = {
		name = "Escuadrón de Batalla"
		base = 9764
		location = 9764  #Tarragona
		ship = { name = "Flotilla de Torpederas No. 1" definition = destroyer equipment = { DD_equipment_1885 = { amount = 1 owner = SPR } } }
		ship = { name = "Flotilla de Torpederas No. 2" definition = destroyer equipment = { DD_equipment_1885 = { amount = 1 owner = SPR } } }
	}		
	navy = {
		name = "Armada Colonial"
		base = 13071
		location = 13071  #Las Palmas de Gran Canaria
		ship = { name = "Flotilla de Destructores No. 1" definition = destroyer equipment = { DD_equipment_1916 = { amount = 1 owner = SPR } } }
		ship = { name = "Flotilla de Destructores No. 2" definition = destroyer equipment = { DD_equipment_1922 = { amount = 1 owner = SPR } } }
	}		
	navy = {
		name = "Grupo C"
		base = 6906
		location = 6906  #Valencia
		ship = { name = "S101 Flotilla" definition = submarine equipment = { SS_equipment_1916 = { amount = 1 owner = SPR } } }
		ship = { name = "S103 Flotilla" definition = submarine equipment = { SS_equipment_1922 = { amount = 1 owner = SPR } } }
	}
	navy = {
		name = "I Flotilla de la Armada"
		base = 9764
		location = 9764  #Tarragona
		ship = { name = "ARE Jaime I" definition = battleship equipment = { BB_equipment_1900 = { amount = 1 owner = SPR } } }
		ship = { name = "ARE España" definition = battleship equipment = { BB_equipment_1900 = { amount = 1 owner = SPR } } }
		ship = { name = "ARE Almirante Cervera" definition = light_cruiser equipment = { CL_equipment_1922 = { amount = 1 owner = SPR } } }		
		ship = { name = "ARE Libertad" definition = light_cruiser equipment = { CL_equipment_1922 = { amount = 1 owner = SPR } } }
		ship = { name = "ARE Miguel de Cervantes" definition = light_cruiser equipment = { CL_equipment_1922 = { amount = 1 owner = SPR } } }

		ship = { name = "Flotilla de Destructores No. 4" definition = destroyer equipment = { DD_equipment_1922 = { amount = 1 owner = SPR } } }
	}
}

### Air Wings
air_wings = {
	# Arma de Aviación -- Madrid (Getafe)
	41 = { 
		# Grupo n.1 de Caza FARE 'Alas Rojas'
		Fighter_equipment_1933 = {
			owner = "SPR" 
			amount = 36
		}
	}
	# Arma de Aviación -- Sevilla (and Barcelona)
	169 = {
		# Grupo n.3 de Caza FARE 'Malraux'
		Fighter_equipment_1933 = {
			owner = "SPR" 
			amount = 24
		}
	}
	# Aeronáutica Naval -- Murcia
	168 = {
		Naval_Bomber_equipment_1936 = {
			owner = "SPR" 
			amount = 27
		}
	}
}


instant_effect = {
	add_equipment_production = {
		equipment = {
			type = Small_Arms_equipment_1936
			creator = "SPR"
		}
		requested_factories = 2
		progress = 0.42
		efficiency = 100
	}
	add_equipment_production = {
		equipment = {
			type = support_equipment_1
			creator = "SPR"
		}
		requested_factories = 1
		progress = 0.24
		efficiency = 100
	}
	add_equipment_production = {
		equipment = {
			type = artillery_equipment_1
			creator = "SPR"
		}
		requested_factories = 1
		progress = 0.24
		efficiency = 100
	}
	### Under Contruction Notes ###
	# DD: Churucca class (x3) ("ARE Almirante Miranda" "ARE Gravina" "ARE Escaño" "ARE Císcar" "ARE Jorge Juan" "ARE Ulloa")
	add_equipment_production = {
		equipment = {
			type = DD_equipment_1912
			creator = "SPR"
		}
		requested_factories = 1
		progress = 0.80
		amount = 3
	}
	# CA: ARE Canarias (Canarias class, comm. 1-Oct, 1936), ARE Baleares (Canarias class, comm. 28-Dec, 1936)
	add_equipment_production = {
		equipment = {
			type = CA_equipment_1906
			creator = "SPR"
		}
		requested_factories = 2
		progress = 0.85
		amount = 2
	}
}